EESchema Schematic File Version 2
LIBS:power
LIBS:MyKiCadLibs-Lib
LIBS:DAC-ADAU1966-16Channel-cache
EELAYER 25 0
EELAYER END
$Descr A3 16535 11693
encoding utf-8
Sheet 5 6
Title ""
Date "10 feb 2015"
Rev ""
Comp ""
Comment1 ""
Comment2 ""
Comment3 ""
Comment4 ""
$EndDescr
$Comp
L INDUCTOR L501
U 1 1 54DAC796
P 1200 1050
F 0 "L501" V 1150 1050 40  0000 C CNN
F 1 "600R@100MHz" V 1300 1050 40  0000 C CNN
F 2 "MyKiCadLibs-Footprints:SMD-0805" H 1200 1050 60  0001 C CNN
F 3 "~" H 1200 1050 60  0000 C CNN
	1    1200 1050
	0    -1   -1   0   
$EndComp
$Comp
L C C501
U 1 1 54DAC79D
P 1800 1900
F 0 "C501" H 1800 2000 40  0000 L CNN
F 1 "100p" H 1806 1815 40  0000 L CNN
F 2 "MyKiCadLibs-Footprints:SMD-0805" H 1838 1750 30  0000 C CNN
F 3 "~" H 1800 1900 60  0000 C CNN
	1    1800 1900
	1    0    0    -1  
$EndComp
$Comp
L R R502
U 1 1 54DAC7A4
P 1800 1350
F 0 "R502" V 1880 1350 40  0000 C CNN
F 1 "47R" V 1807 1351 40  0000 C CNN
F 2 "MyKiCadLibs-Footprints:SMD-0805" V 1730 1350 30  0001 C CNN
F 3 "~" H 1800 1350 30  0000 C CNN
	1    1800 1350
	1    0    0    -1  
$EndComp
$Comp
L GNDD #PWR042
U 1 1 54DACD02
P 1800 2200
F 0 "#PWR042" H 1800 1950 60  0001 C CNN
F 1 "GNDD" H 1800 2050 60  0000 C CNN
F 2 "" H 1800 2200 60  0000 C CNN
F 3 "" H 1800 2200 60  0000 C CNN
	1    1800 2200
	1    0    0    -1  
$EndComp
$Comp
L CP1 C502
U 1 1 54DAD61F
P 2150 1650
F 0 "C502" H 2200 1750 50  0000 L CNN
F 1 "220u" H 2200 1550 50  0000 L CNN
F 2 "MyKiCadLibs-Footprints:CAP-TH-D6.3mmP2.5mm" H 2150 1650 60  0000 C CNN
F 3 "~" H 2150 1650 60  0000 C CNN
	1    2150 1650
	1    0    0    -1  
$EndComp
$Comp
L C C505
U 1 1 54DAD626
P 3100 1650
F 0 "C505" H 3100 1750 40  0000 L CNN
F 1 "1u" H 3106 1565 40  0000 L CNN
F 2 "MyKiCadLibs-Footprints:SMD-0603" H 3138 1500 30  0000 C CNN
F 3 "~" H 3100 1650 60  0000 C CNN
	1    3100 1650
	1    0    0    -1  
$EndComp
$Comp
L C C506
U 1 1 54DAD62D
P 3350 1650
F 0 "C506" H 3350 1750 40  0000 L CNN
F 1 "100n" H 3356 1565 40  0000 L CNN
F 2 "MyKiCadLibs-Footprints:SMD-0603" H 3388 1500 30  0000 C CNN
F 3 "~" H 3350 1650 60  0000 C CNN
	1    3350 1650
	1    0    0    -1  
$EndComp
$Comp
L C C507
U 1 1 54DAD63D
P 3600 1650
F 0 "C507" H 3600 1750 40  0000 L CNN
F 1 "10n" H 3606 1565 40  0000 L CNN
F 2 "MyKiCadLibs-Footprints:SMD-0603" H 3638 1500 30  0000 C CNN
F 3 "~" H 3600 1650 60  0000 C CNN
	1    3600 1650
	1    0    0    -1  
$EndComp
$Comp
L C C504
U 1 1 54DAD7E6
P 2800 1650
F 0 "C504" H 2800 1750 40  0000 L CNN
F 1 "100n" H 2806 1565 40  0000 L CNN
F 2 "MyKiCadLibs-Footprints:SMD-0805" H 2838 1500 30  0000 C CNN
F 3 "~" H 2800 1650 60  0000 C CNN
	1    2800 1650
	1    0    0    -1  
$EndComp
$Comp
L C C503
U 1 1 54DAD9F0
P 2500 1650
F 0 "C503" H 2500 1750 40  0000 L CNN
F 1 "22u" H 2506 1565 40  0000 L CNN
F 2 "MyKiCadLibs-Footprints:SMD-0805" H 2538 1500 30  0000 C CNN
F 3 "~" H 2500 1650 60  0000 C CNN
	1    2500 1650
	1    0    0    -1  
$EndComp
$Comp
L C C508
U 1 1 54DAE4AA
P 3900 1650
F 0 "C508" H 3900 1750 40  0000 L CNN
F 1 "1u" H 3906 1565 40  0000 L CNN
F 2 "MyKiCadLibs-Footprints:SMD-0603" H 3938 1500 30  0000 C CNN
F 3 "~" H 3900 1650 60  0000 C CNN
	1    3900 1650
	1    0    0    -1  
$EndComp
$Comp
L C C510
U 1 1 54DAE4B1
P 4150 1650
F 0 "C510" H 4150 1750 40  0000 L CNN
F 1 "100n" H 4156 1565 40  0000 L CNN
F 2 "MyKiCadLibs-Footprints:SMD-0603" H 4188 1500 30  0000 C CNN
F 3 "~" H 4150 1650 60  0000 C CNN
	1    4150 1650
	1    0    0    -1  
$EndComp
$Comp
L C C512
U 1 1 54DAE4B8
P 4400 1650
F 0 "C512" H 4400 1750 40  0000 L CNN
F 1 "10n" H 4406 1565 40  0000 L CNN
F 2 "MyKiCadLibs-Footprints:SMD-0603" H 4438 1500 30  0000 C CNN
F 3 "~" H 4400 1650 60  0000 C CNN
	1    4400 1650
	1    0    0    -1  
$EndComp
$Comp
L C C514
U 1 1 54DAE7A9
P 4700 1650
F 0 "C514" H 4700 1750 40  0000 L CNN
F 1 "1u" H 4706 1565 40  0000 L CNN
F 2 "MyKiCadLibs-Footprints:SMD-0603" H 4738 1500 30  0000 C CNN
F 3 "~" H 4700 1650 60  0000 C CNN
	1    4700 1650
	1    0    0    -1  
$EndComp
$Comp
L C C516
U 1 1 54DAE7AF
P 4950 1650
F 0 "C516" H 4950 1750 40  0000 L CNN
F 1 "100n" H 4956 1565 40  0000 L CNN
F 2 "MyKiCadLibs-Footprints:SMD-0603" H 4988 1500 30  0000 C CNN
F 3 "~" H 4950 1650 60  0000 C CNN
	1    4950 1650
	1    0    0    -1  
$EndComp
$Comp
L C C517
U 1 1 54DAE7B5
P 5200 1650
F 0 "C517" H 5200 1750 40  0000 L CNN
F 1 "10n" H 5206 1565 40  0000 L CNN
F 2 "MyKiCadLibs-Footprints:SMD-0603" H 5238 1500 30  0000 C CNN
F 3 "~" H 5200 1650 60  0000 C CNN
	1    5200 1650
	1    0    0    -1  
$EndComp
Text Label 5200 1050 2    60   ~ 0
DVDD
Text Label 10950 3150 3    60   ~ 0
DVDD
$Comp
L VDD #PWR043
U 1 1 54DB0DB8
P 800 900
F 0 "#PWR043" H 800 750 60  0001 C CNN
F 1 "VDD" H 800 1050 60  0000 C CNN
F 2 "" H 800 900 60  0000 C CNN
F 3 "" H 800 900 60  0000 C CNN
	1    800  900 
	1    0    0    -1  
$EndComp
$Comp
L VPP #PWR044
U 1 1 54DB1373
P 7350 900
F 0 "#PWR044" H 7350 750 60  0001 C CNN
F 1 "VPP" H 7350 1050 60  0000 C CNN
F 2 "" H 7350 900 60  0000 C CNN
F 3 "" H 7350 900 60  0000 C CNN
	1    7350 900 
	1    0    0    -1  
$EndComp
$Comp
L INDUCTOR L503
U 1 1 54DB1F4B
P 7750 1050
F 0 "L503" V 7700 1050 40  0000 C CNN
F 1 "600R@100MHz" V 7850 1050 40  0000 C CNN
F 2 "MyKiCadLibs-Footprints:SMD-0805" H 7750 1050 60  0001 C CNN
F 3 "~" H 7750 1050 60  0000 C CNN
	1    7750 1050
	0    -1   -1   0   
$EndComp
$Comp
L C C528
U 1 1 54DB1F51
P 8350 1900
F 0 "C528" H 8350 2000 40  0000 L CNN
F 1 "100p" H 8356 1815 40  0000 L CNN
F 2 "MyKiCadLibs-Footprints:SMD-0805" H 8388 1750 30  0000 C CNN
F 3 "~" H 8350 1900 60  0000 C CNN
	1    8350 1900
	1    0    0    -1  
$EndComp
$Comp
L R R528
U 1 1 54DB1F57
P 8350 1350
F 0 "R528" V 8430 1350 40  0000 C CNN
F 1 "47R" V 8357 1351 40  0000 C CNN
F 2 "MyKiCadLibs-Footprints:SMD-0805" V 8280 1350 30  0001 C CNN
F 3 "~" H 8350 1350 30  0000 C CNN
	1    8350 1350
	1    0    0    -1  
$EndComp
$Comp
L GNDD #PWR045
U 1 1 54DB1F60
P 8350 2200
F 0 "#PWR045" H 8350 1950 60  0001 C CNN
F 1 "GNDD" H 8350 2050 60  0000 C CNN
F 2 "" H 8350 2200 60  0000 C CNN
F 3 "" H 8350 2200 60  0000 C CNN
	1    8350 2200
	1    0    0    -1  
$EndComp
$Comp
L C C532
U 1 1 54DB1F6C
P 9250 1650
F 0 "C532" H 9250 1750 40  0000 L CNN
F 1 "1u" H 9256 1565 40  0000 L CNN
F 2 "MyKiCadLibs-Footprints:SMD-0603" H 9288 1500 30  0000 C CNN
F 3 "~" H 9250 1650 60  0000 C CNN
	1    9250 1650
	1    0    0    -1  
$EndComp
$Comp
L C C533
U 1 1 54DB1F72
P 9500 1650
F 0 "C533" H 9500 1750 40  0000 L CNN
F 1 "100n" H 9506 1565 40  0000 L CNN
F 2 "MyKiCadLibs-Footprints:SMD-0603" H 9538 1500 30  0000 C CNN
F 3 "~" H 9500 1650 60  0000 C CNN
	1    9500 1650
	1    0    0    -1  
$EndComp
$Comp
L C C531
U 1 1 54DB1F78
P 8950 1650
F 0 "C531" H 8950 1750 40  0000 L CNN
F 1 "100n" H 8956 1565 40  0000 L CNN
F 2 "MyKiCadLibs-Footprints:SMD-0805" H 8988 1500 30  0000 C CNN
F 3 "~" H 8950 1650 60  0000 C CNN
	1    8950 1650
	1    0    0    -1  
$EndComp
$Comp
L C C535
U 1 1 54DB2327
P 9800 1650
F 0 "C535" H 9800 1750 40  0000 L CNN
F 1 "1u" H 9806 1565 40  0000 L CNN
F 2 "MyKiCadLibs-Footprints:SMD-0603" H 9838 1500 30  0000 C CNN
F 3 "~" H 9800 1650 60  0000 C CNN
	1    9800 1650
	1    0    0    -1  
$EndComp
Text Label 9800 1050 2    60   ~ 0
IOVDD
Text Label 10600 3150 3    60   ~ 0
IOVDD
$Comp
L INDUCTOR L502
U 1 1 54DB2FDA
P 5850 1050
F 0 "L502" V 5800 1050 40  0000 C CNN
F 1 "600R@100MHz" V 5950 1050 40  0000 C CNN
F 2 "MyKiCadLibs-Footprints:SMD-0805" H 5850 1050 60  0001 C CNN
F 3 "~" H 5850 1050 60  0000 C CNN
	1    5850 1050
	0    -1   -1   0   
$EndComp
$Comp
L C C518
U 1 1 54DB2FE0
P 6300 1900
F 0 "C518" H 6300 2000 40  0000 L CNN
F 1 "100p" H 6306 1815 40  0000 L CNN
F 2 "MyKiCadLibs-Footprints:SMD-0805" H 6338 1750 30  0000 C CNN
F 3 "~" H 6300 1900 60  0000 C CNN
	1    6300 1900
	1    0    0    -1  
$EndComp
$Comp
L R R523
U 1 1 54DB2FE6
P 6300 1350
F 0 "R523" V 6380 1350 40  0000 C CNN
F 1 "47R" V 6307 1351 40  0000 C CNN
F 2 "MyKiCadLibs-Footprints:SMD-0805" V 6230 1350 30  0001 C CNN
F 3 "~" H 6300 1350 30  0000 C CNN
	1    6300 1350
	1    0    0    -1  
$EndComp
$Comp
L GNDD #PWR046
U 1 1 54DB2FEF
P 6300 2200
F 0 "#PWR046" H 6300 1950 60  0001 C CNN
F 1 "GNDD" H 6300 2050 60  0000 C CNN
F 2 "" H 6300 2200 60  0000 C CNN
F 3 "" H 6300 2200 60  0000 C CNN
	1    6300 2200
	1    0    0    -1  
$EndComp
$Comp
L C C521
U 1 1 54DB3007
P 6950 1650
F 0 "C521" H 6950 1750 40  0000 L CNN
F 1 "100n" H 6956 1565 40  0000 L CNN
F 2 "MyKiCadLibs-Footprints:SMD-0603" H 6988 1500 30  0000 C CNN
F 3 "~" H 6950 1650 60  0000 C CNN
	1    6950 1650
	1    0    0    -1  
$EndComp
Text Label 6950 1050 2    60   ~ 0
PVDD
$Comp
L VAA #PWR047
U 1 1 54DB3C56
P 10900 850
F 0 "#PWR047" H 10900 700 60  0001 C CNN
F 1 "VAA" H 10900 1000 60  0000 C CNN
F 2 "" H 10900 850 60  0000 C CNN
F 3 "" H 10900 850 60  0000 C CNN
	1    10900 850 
	1    0    0    -1  
$EndComp
$Comp
L INDUCTOR L504
U 1 1 54DB3C5C
P 11300 1000
F 0 "L504" V 11250 1000 40  0000 C CNN
F 1 "600R@100MHz" V 11400 1000 40  0000 C CNN
F 2 "MyKiCadLibs-Footprints:SMD-0805" H 11300 1000 60  0001 C CNN
F 3 "~" H 11300 1000 60  0000 C CNN
	1    11300 1000
	0    -1   -1   0   
$EndComp
$Comp
L C C540
U 1 1 54DB3C62
P 12000 1850
F 0 "C540" H 12000 1950 40  0000 L CNN
F 1 "100p" H 12006 1765 40  0000 L CNN
F 2 "MyKiCadLibs-Footprints:SMD-0805" H 12038 1700 30  0000 C CNN
F 3 "~" H 12000 1850 60  0000 C CNN
	1    12000 1850
	1    0    0    -1  
$EndComp
$Comp
L R R545
U 1 1 54DB3C68
P 12000 1300
F 0 "R545" V 12080 1300 40  0000 C CNN
F 1 "47R" V 12007 1301 40  0000 C CNN
F 2 "MyKiCadLibs-Footprints:SMD-0805" V 11930 1300 30  0001 C CNN
F 3 "~" H 12000 1300 30  0000 C CNN
	1    12000 1300
	1    0    0    -1  
$EndComp
$Comp
L GNDD #PWR048
U 1 1 54DB3C77
P 12000 2150
F 0 "#PWR048" H 12000 1900 60  0001 C CNN
F 1 "GNDD" H 12000 2000 60  0000 C CNN
F 2 "" H 12000 2150 60  0000 C CNN
F 3 "" H 12000 2150 60  0000 C CNN
	1    12000 2150
	1    0    0    -1  
$EndComp
$Comp
L C C548
U 1 1 54DB3C8F
P 13800 1600
F 0 "C548" H 13800 1700 40  0000 L CNN
F 1 "100n" H 13806 1515 40  0000 L CNN
F 2 "MyKiCadLibs-Footprints:SMD-0603" H 13838 1450 30  0000 C CNN
F 3 "~" H 13800 1600 60  0000 C CNN
	1    13800 1600
	1    0    0    -1  
$EndComp
Text Label 15300 1000 2    60   ~ 0
AVDD
Text Label 11550 2850 3    60   ~ 0
AVDD
Text Label 10400 3500 1    60   ~ 0
PVDD
$Comp
L R R501
U 1 1 54DB8838
P 1200 10500
F 0 "R501" V 1250 10800 40  0000 C CNN
F 1 "10k" V 1207 10501 40  0000 C CNN
F 2 "MyKiCadLibs-Footprints:SMD-0805" V 1130 10500 30  0001 C CNN
F 3 "~" H 1200 10500 30  0000 C CNN
	1    1200 10500
	1    0    0    -1  
$EndComp
Text Label 1400 10050 2    60   ~ 0
SA
Text Notes 700  4600 0    118  ~ 0
SPI/I2C/Config
Text Notes 700  9200 0    59   ~ 0
Stand alone select:\nHigh is Stand Alone
Text Notes 7000 9000 0    59   ~ 0
Generate a global reset based on voltage rails.\nUse ADM811ZART for VDD or ADM811SART for VPP
Text Notes 7000 8750 0    118  ~ 0
Voltage Monitor Reset
$Comp
L CONN_2x1 P501
U 1 1 54DB8486
P 1150 9950
F 0 "P501" V 1650 9900 40  0000 C CNN
F 1 "CONN_2x1" V 1600 9900 40  0000 C CNN
F 2 "MyKiCadLibs-Footprints:CONN_SIL_2" H 1150 9950 60  0001 C CNN
F 3 "" H 1150 9950 60  0000 C CNN
	1    1150 9950
	-1   0    0    -1  
$EndComp
$Comp
L C C525
U 1 1 54DE8604
P 8000 10100
F 0 "C525" H 8000 10200 40  0000 L CNN
F 1 "1u" H 8006 10015 40  0000 L CNN
F 2 "MyKiCadLibs-Footprints:SMD-0805" H 8038 9950 30  0000 C CNN
F 3 "~" H 8000 10100 60  0000 C CNN
	1    8000 10100
	1    0    0    -1  
$EndComp
$Comp
L C C527
U 1 1 54DE860A
P 8250 10100
F 0 "C527" H 8250 10200 40  0000 L CNN
F 1 "100n" H 8256 10015 40  0000 L CNN
F 2 "MyKiCadLibs-Footprints:SMD-0805" H 8288 9950 30  0000 C CNN
F 3 "~" H 8250 10100 60  0000 C CNN
	1    8250 10100
	1    0    0    -1  
$EndComp
$Comp
L SWITCH SW501
U 1 1 54DEF588
P 10600 10150
F 0 "SW501" H 10800 10280 70  0000 C CNN
F 1 "SWITCH" H 10800 10400 70  0000 C CNN
F 2 "MyKiCadLibs-Footprints:SW_TACT_SMD" H 10865 10150 60  0001 C CNN
F 3 "" H 10865 10150 60  0000 C CNN
	1    10600 10150
	0    1    1    0   
$EndComp
Text HLabel 8900 4500 0    60   Input ~ 0
DACOUT_LRCLK
Text HLabel 8900 4600 0    60   Input ~ 0
DACOUT_BCLK
Text HLabel 1350 7950 0    60   Input ~ 0
DACOUT_SDATA8
Text HLabel 8900 4700 0    60   Input ~ 0
DACOUT_SDATA1
Text HLabel 8900 4800 0    60   Input ~ 0
DACOUT_SDATA2
Text HLabel 8900 4900 0    60   Input ~ 0
DACOUT_SDATA3
Text HLabel 8900 5600 0    60   Input ~ 0
MCLK
$Comp
L VPP #PWR049
U 1 1 54E9D3D9
P 1200 9450
F 0 "#PWR049" H 1200 9300 60  0001 C CNN
F 1 "VPP" H 1200 9600 60  0000 C CNN
F 2 "" H 1200 9450 60  0000 C CNN
F 3 "" H 1200 9450 60  0000 C CNN
	1    1200 9450
	1    0    0    -1  
$EndComp
$Comp
L GNDD #PWR050
U 1 1 54EA0E15
P 10600 10600
F 0 "#PWR050" H 10600 10350 60  0001 C CNN
F 1 "GNDD" H 10600 10450 60  0000 C CNN
F 2 "" H 10600 10600 60  0000 C CNN
F 3 "" H 10600 10600 60  0000 C CNN
	1    10600 10600
	-1   0    0    -1  
$EndComp
$Comp
L C C534
U 1 1 54EA1193
P 9650 10350
F 0 "C534" H 9650 10450 40  0000 L CNN
F 1 "100n" H 9656 10265 40  0000 L CNN
F 2 "MyKiCadLibs-Footprints:SMD-0805" H 9688 10200 30  0000 C CNN
F 3 "~" H 9650 10350 60  0000 C CNN
	1    9650 10350
	1    0    0    -1  
$EndComp
$Comp
L GNDD #PWR051
U 1 1 54EA141D
P 9650 10600
F 0 "#PWR051" H 9650 10350 60  0001 C CNN
F 1 "GNDD" H 9650 10450 60  0000 C CNN
F 2 "" H 9650 10600 60  0000 C CNN
F 3 "" H 9650 10600 60  0000 C CNN
	1    9650 10600
	-1   0    0    -1  
$EndComp
$Comp
L GNDD #PWR052
U 1 1 54EA2F14
P 8000 10400
F 0 "#PWR052" H 8000 10150 60  0001 C CNN
F 1 "GNDD" H 8000 10250 60  0000 C CNN
F 2 "" H 8000 10400 60  0000 C CNN
F 3 "" H 8000 10400 60  0000 C CNN
	1    8000 10400
	-1   0    0    -1  
$EndComp
$Comp
L GNDD #PWR053
U 1 1 54EA451E
P 8600 9800
F 0 "#PWR053" H 8600 9550 60  0001 C CNN
F 1 "GNDD" H 8600 9650 60  0000 C CNN
F 2 "" H 8600 9800 60  0000 C CNN
F 3 "" H 8600 9800 60  0000 C CNN
	1    8600 9800
	-1   0    0    -1  
$EndComp
Text Notes 11850 10500 0    59   ~ 0
Copyright Paul Janicki 2015\n\nLicensed under the TAPR Open Hardware License (www.tapr.org/OHL).\n\nThis documentation is distributed\nWITHOUT ANY EXPRESS OR IMPLIED WARRANTY, INCLUDING OF\nMERCHANTABILITY, SATISFACTORY QUALITY AND FITNESS FOR A\nPARTICULAR PURPOSE.\n
$Comp
L R R542
U 1 1 54F0DD27
P 9950 10050
F 0 "R542" V 9850 10150 40  0000 C CNN
F 1 "1k" V 9957 10051 40  0000 C CNN
F 2 "MyKiCadLibs-Footprints:SMD-0805" V 9880 10050 30  0001 C CNN
F 3 "~" H 9950 10050 30  0000 C CNN
	1    9950 10050
	0    -1   1    0   
$EndComp
$Comp
L C C519
U 1 1 54F126E7
P 6650 1650
F 0 "C519" H 6650 1750 40  0000 L CNN
F 1 "22u" H 6656 1565 40  0000 L CNN
F 2 "MyKiCadLibs-Footprints:SMD-0805" H 6688 1500 30  0000 C CNN
F 3 "~" H 6650 1650 60  0000 C CNN
	1    6650 1650
	1    0    0    -1  
$EndComp
$Comp
L C C546
U 1 1 54F127C8
P 12950 1600
F 0 "C546" H 12950 1700 40  0000 L CNN
F 1 "22u" H 12956 1515 40  0000 L CNN
F 2 "MyKiCadLibs-Footprints:SMD-0805" H 12988 1450 30  0000 C CNN
F 3 "~" H 12950 1600 60  0000 C CNN
	1    12950 1600
	1    0    0    -1  
$EndComp
$Comp
L C C530
U 1 1 54F13D5F
P 8700 1650
F 0 "C530" H 8700 1750 40  0000 L CNN
F 1 "22u" H 8706 1565 40  0000 L CNN
F 2 "MyKiCadLibs-Footprints:SMD-0805" H 8738 1500 30  0000 C CNN
F 3 "~" H 8700 1650 60  0000 C CNN
	1    8700 1650
	1    0    0    -1  
$EndComp
$Comp
L CP1 C543
U 1 1 54F4BBFB
P 12300 1600
F 0 "C543" H 12350 1700 50  0000 L CNN
F 1 "220u" H 12350 1500 50  0000 L CNN
F 2 "MyKiCadLibs-Footprints:CAP-TH-D6.3mmP2.5mm" H 12300 1600 60  0000 C CNN
F 3 "~" H 12300 1600 60  0000 C CNN
	1    12300 1600
	1    0    0    -1  
$EndComp
Text HLabel 11200 10150 2    60   Input ~ 0
MAN_RST_IN
$Comp
L C C537
U 1 1 54FF35A4
P 11000 10450
F 0 "C537" H 11000 10550 40  0000 L CNN
F 1 "100n" H 11006 10365 40  0000 L CNN
F 2 "MyKiCadLibs-Footprints:SMD-0805" H 11038 10300 30  0000 C CNN
F 3 "~" H 11000 10450 60  0000 C CNN
	1    11000 10450
	1    0    0    -1  
$EndComp
$Comp
L GNDD #PWR054
U 1 1 54FF363C
P 11000 10700
F 0 "#PWR054" H 11000 10450 60  0001 C CNN
F 1 "GNDD" H 11000 10550 60  0000 C CNN
F 2 "" H 11000 10700 60  0000 C CNN
F 3 "" H 11000 10700 60  0000 C CNN
	1    11000 10700
	-1   0    0    -1  
$EndComp
$Comp
L C C536
U 1 1 54FF7B65
P 9900 9200
F 0 "C536" H 9900 9300 40  0000 L CNN
F 1 "100n" H 9906 9115 40  0000 L CNN
F 2 "MyKiCadLibs-Footprints:SMD-0805" H 9938 9050 30  0000 C CNN
F 3 "~" H 9900 9200 60  0000 C CNN
	1    9900 9200
	1    0    0    -1  
$EndComp
$Comp
L GNDD #PWR055
U 1 1 54FF7C76
P 9900 9450
F 0 "#PWR055" H 9900 9200 60  0001 C CNN
F 1 "GNDD" H 9900 9300 60  0000 C CNN
F 2 "" H 9900 9450 60  0000 C CNN
F 3 "" H 9900 9450 60  0000 C CNN
	1    9900 9450
	-1   0    0    -1  
$EndComp
$Comp
L R R544
U 1 1 551D8E6C
P 10550 8700
F 0 "R544" V 10480 8620 40  0000 C CNN
F 1 "100R" V 10557 8701 40  0000 C CNN
F 2 "MyKiCadLibs-Footprints:SMD-0805" V 10480 8700 30  0001 C CNN
F 3 "~" H 10550 8700 30  0000 C CNN
	1    10550 8700
	0    1    1    0   
$EndComp
Text Label 11350 8700 2    60   ~ 0
DAC_RESET
$Comp
L C C538
U 1 1 551DA835
P 11350 9000
F 0 "C538" H 11350 9100 40  0000 L CNN
F 1 "100n" H 11356 8915 40  0000 L CNN
F 2 "MyKiCadLibs-Footprints:SMD-0805" H 11388 8850 30  0000 C CNN
F 3 "~" H 11350 9000 60  0000 C CNN
	1    11350 9000
	1    0    0    -1  
$EndComp
$Comp
L GNDD #PWR056
U 1 1 551DB2BB
P 11350 9250
F 0 "#PWR056" H 11350 9000 60  0001 C CNN
F 1 "GNDD" H 11350 9100 60  0000 C CNN
F 2 "" H 11350 9250 60  0000 C CNN
F 3 "" H 11350 9250 60  0000 C CNN
	1    11350 9250
	-1   0    0    -1  
$EndComp
$Comp
L IC-DAC-ADAU1966 U502
U 1 1 563093CF
P 9600 4050
F 0 "U502" H 9850 4300 60  0000 C CNN
F 1 "IC-DAC-ADAU1966" H 11350 3350 60  0000 C CNN
F 2 "MyKiCadLibs-Footprints:IC-LQFP80-P065" H 9500 4800 60  0001 C CNN
F 3 "" H 9500 4800 60  0000 C CNN
	1    9600 4050
	1    0    0    -1  
$EndComp
Text HLabel 8900 5000 0    60   Input ~ 0
DACOUT_SDATA4
Text HLabel 8900 5100 0    60   Input ~ 0
DACOUT_SDATA5
Text HLabel 8900 5200 0    60   Input ~ 0
DACOUT_SDATA6
Text HLabel 1350 7400 0    60   Input ~ 0
DACOUT_SDATA7
$Comp
L IC-RST-ADM811 U501
U 1 1 5630C25C
P 8650 9550
F 0 "U501" H 8900 9800 60  0000 C CNN
F 1 "ADM811ZART" H 9150 9700 60  0000 C CNN
F 2 "MyKiCadLibs-Footprints:IC-SOT143" H 8650 9700 60  0001 C CNN
F 3 "" H 8650 9700 60  0000 C CNN
	1    8650 9550
	1    0    0    -1  
$EndComp
$Comp
L R R543
U 1 1 5630E2E6
P 10200 9150
F 0 "R543" V 10170 9390 40  0000 C CNN
F 1 "100k" V 10207 9151 40  0000 C CNN
F 2 "MyKiCadLibs-Footprints:SMD-0805" V 10130 9150 30  0001 C CNN
F 3 "~" H 10200 9150 30  0000 C CNN
	1    10200 9150
	1    0    0    1   
$EndComp
$Comp
L GNDD #PWR057
U 1 1 5630E7E9
P 10200 9450
F 0 "#PWR057" H 10200 9200 60  0001 C CNN
F 1 "GNDD" H 10200 9300 60  0000 C CNN
F 2 "" H 10200 9450 60  0000 C CNN
F 3 "" H 10200 9450 60  0000 C CNN
	1    10200 9450
	-1   0    0    -1  
$EndComp
Text Label 8700 6600 0    60   ~ 0
DAC_RESET
$Comp
L R R531
U 1 1 56313ED5
P 9300 4500
F 0 "R531" V 9350 4800 40  0000 C CNN
F 1 "0R" V 9307 4501 40  0000 C CNN
F 2 "MyKiCadLibs-Footprints:SMD-0603" V 9230 4500 30  0001 C CNN
F 3 "~" H 9300 4500 30  0000 C CNN
	1    9300 4500
	0    -1   -1   0   
$EndComp
$Comp
L R R532
U 1 1 563149BF
P 9300 4600
F 0 "R532" V 9350 4900 40  0000 C CNN
F 1 "0R" V 9307 4601 40  0000 C CNN
F 2 "MyKiCadLibs-Footprints:SMD-0603" V 9230 4600 30  0001 C CNN
F 3 "~" H 9300 4600 30  0000 C CNN
	1    9300 4600
	0    -1   -1   0   
$EndComp
$Comp
L R R533
U 1 1 56314A2E
P 9300 4700
F 0 "R533" V 9350 5000 40  0000 C CNN
F 1 "0R" V 9307 4701 40  0000 C CNN
F 2 "MyKiCadLibs-Footprints:SMD-0603" V 9230 4700 30  0001 C CNN
F 3 "~" H 9300 4700 30  0000 C CNN
	1    9300 4700
	0    -1   -1   0   
$EndComp
$Comp
L R R534
U 1 1 56314A36
P 9300 4800
F 0 "R534" V 9350 5100 40  0000 C CNN
F 1 "0R" V 9307 4801 40  0000 C CNN
F 2 "MyKiCadLibs-Footprints:SMD-0603" V 9230 4800 30  0001 C CNN
F 3 "~" H 9300 4800 30  0000 C CNN
	1    9300 4800
	0    -1   -1   0   
$EndComp
$Comp
L R R535
U 1 1 56314AE3
P 9300 4900
F 0 "R535" V 9350 5200 40  0000 C CNN
F 1 "0R" V 9307 4901 40  0000 C CNN
F 2 "MyKiCadLibs-Footprints:SMD-0603" V 9230 4900 30  0001 C CNN
F 3 "~" H 9300 4900 30  0000 C CNN
	1    9300 4900
	0    -1   -1   0   
$EndComp
$Comp
L R R536
U 1 1 56314AEB
P 9300 5000
F 0 "R536" V 9350 5300 40  0000 C CNN
F 1 "0R" V 9307 5001 40  0000 C CNN
F 2 "MyKiCadLibs-Footprints:SMD-0603" V 9230 5000 30  0001 C CNN
F 3 "~" H 9300 5000 30  0000 C CNN
	1    9300 5000
	0    -1   -1   0   
$EndComp
$Comp
L R R537
U 1 1 56314AF3
P 9300 5100
F 0 "R537" V 9350 5400 40  0000 C CNN
F 1 "0R" V 9307 5101 40  0000 C CNN
F 2 "MyKiCadLibs-Footprints:SMD-0603" V 9230 5100 30  0001 C CNN
F 3 "~" H 9300 5100 30  0000 C CNN
	1    9300 5100
	0    -1   -1   0   
$EndComp
$Comp
L R R538
U 1 1 56314AFB
P 9300 5200
F 0 "R538" V 9350 5500 40  0000 C CNN
F 1 "0R" V 9307 5201 40  0000 C CNN
F 2 "MyKiCadLibs-Footprints:SMD-0603" V 9230 5200 30  0001 C CNN
F 3 "~" H 9300 5200 30  0000 C CNN
	1    9300 5200
	0    -1   -1   0   
$EndComp
$Comp
L R R539
U 1 1 56314C06
P 9300 5300
F 0 "R539" V 9350 5600 40  0000 C CNN
F 1 "0R" V 9307 5301 40  0000 C CNN
F 2 "MyKiCadLibs-Footprints:SMD-0603" V 9230 5300 30  0001 C CNN
F 3 "~" H 9300 5300 30  0000 C CNN
	1    9300 5300
	0    -1   -1   0   
$EndComp
$Comp
L R R540
U 1 1 56314C0E
P 9300 5400
F 0 "R540" V 9350 5700 40  0000 C CNN
F 1 "0R" V 9307 5401 40  0000 C CNN
F 2 "MyKiCadLibs-Footprints:SMD-0603" V 9230 5400 30  0001 C CNN
F 3 "~" H 9300 5400 30  0000 C CNN
	1    9300 5400
	0    -1   -1   0   
$EndComp
$Comp
L R R541
U 1 1 56314D45
P 9300 5600
F 0 "R541" V 9350 5900 40  0000 C CNN
F 1 "0R" V 9307 5601 40  0000 C CNN
F 2 "MyKiCadLibs-Footprints:SMD-0603" V 9230 5600 30  0001 C CNN
F 3 "~" H 9300 5600 30  0000 C CNN
	1    9300 5600
	0    -1   -1   0   
$EndComp
$Comp
L VDD #PWR058
U 1 1 5631A439
P 5450 900
F 0 "#PWR058" H 5450 750 60  0001 C CNN
F 1 "VDD" H 5450 1050 60  0000 C CNN
F 2 "" H 5450 900 60  0000 C CNN
F 3 "" H 5450 900 60  0000 C CNN
	1    5450 900 
	1    0    0    -1  
$EndComp
$Comp
L GNDD #PWR059
U 1 1 54DB551F
P 8300 4150
F 0 "#PWR059" H 8300 3900 60  0001 C CNN
F 1 "GNDD" H 8300 4000 60  0000 C CNN
F 2 "" H 8300 4150 60  0000 C CNN
F 3 "" H 8300 4150 60  0000 C CNN
	1    8300 4150
	1    0    0    -1  
$EndComp
$Comp
L R R530
U 1 1 54DB5421
P 8700 4050
F 0 "R530" V 8750 4350 40  0000 C CNN
F 1 "0R" V 8707 4051 40  0000 C CNN
F 2 "MyKiCadLibs-Footprints:SMD-0603" V 8630 4050 30  0001 C CNN
F 3 "~" H 8700 4050 30  0000 C CNN
	1    8700 4050
	0    -1   -1   0   
$EndComp
$Comp
L R R529
U 1 1 5631B589
P 8700 3900
F 0 "R529" V 8750 4200 40  0000 C CNN
F 1 "0R" V 8707 3901 40  0000 C CNN
F 2 "MyKiCadLibs-Footprints:SMD-0603" V 8630 3900 30  0001 C CNN
F 3 "~" H 8700 3900 30  0000 C CNN
	1    8700 3900
	0    -1   -1   0   
$EndComp
$Comp
L VDD #PWR060
U 1 1 5631D924
P 7300 9450
F 0 "#PWR060" H 7300 9300 60  0001 C CNN
F 1 "VDD" H 7300 9600 60  0000 C CNN
F 2 "" H 7300 9450 60  0000 C CNN
F 3 "" H 7300 9450 60  0000 C CNN
	1    7300 9450
	1    0    0    -1  
$EndComp
$Comp
L R R526
U 1 1 5631DBFC
P 7650 9550
F 0 "R526" V 7580 9470 40  0000 C CNN
F 1 "0R" V 7657 9551 40  0000 C CNN
F 2 "MyKiCadLibs-Footprints:SMD-0805" V 7580 9550 30  0001 C CNN
F 3 "~" H 7650 9550 30  0000 C CNN
	1    7650 9550
	0    1    1    0   
$EndComp
$Comp
L R R527
U 1 1 5631E63B
P 7650 9750
F 0 "R527" V 7580 9670 40  0000 C CNN
F 1 "N/F" V 7657 9751 40  0000 C CNN
F 2 "MyKiCadLibs-Footprints:SMD-0805" V 7580 9750 30  0001 C CNN
F 3 "~" H 7650 9750 30  0000 C CNN
	1    7650 9750
	0    1    1    0   
$EndComp
$Comp
L VPP #PWR061
U 1 1 5631EC4F
P 7050 9450
F 0 "#PWR061" H 7050 9300 60  0001 C CNN
F 1 "VPP" H 7050 9600 60  0000 C CNN
F 2 "" H 7050 9450 60  0000 C CNN
F 3 "" H 7050 9450 60  0000 C CNN
	1    7050 9450
	1    0    0    -1  
$EndComp
$Comp
L GNDD #PWR062
U 1 1 54DB858F
P 1200 10850
F 0 "#PWR062" H 1200 10600 60  0001 C CNN
F 1 "GNDD" H 1200 10700 60  0000 C CNN
F 2 "" H 1200 10850 60  0000 C CNN
F 3 "" H 1200 10850 60  0000 C CNN
	1    1200 10850
	1    0    0    -1  
$EndComp
Text HLabel 1350 4950 0    60   BiDi ~ 0
DAC_SDA
Text HLabel 1350 5600 0    60   BiDi ~ 0
DAC_SCL
Text HLabel 1350 6250 0    60   Input ~ 0
DAC_SPI_DIN
Text HLabel 1350 5750 0    60   Input ~ 0
DAC_SPI__CLK
Text HLabel 1350 5100 0    60   Output ~ 0
DAC_SPI_DOUT
Text HLabel 1350 6800 0    60   Input ~ 0
DAC_SPI_SS
$Comp
L R R506
U 1 1 5632770C
P 1900 5750
F 0 "R506" V 1950 6050 40  0000 C CNN
F 1 "N/F" V 1907 5751 40  0000 C CNN
F 2 "MyKiCadLibs-Footprints:SMD-0805" V 1830 5750 30  0001 C CNN
F 3 "~" H 1900 5750 30  0000 C CNN
	1    1900 5750
	0    -1   -1   0   
$EndComp
$Comp
L R R505
U 1 1 56327926
P 1900 5600
F 0 "R505" V 1950 5900 40  0000 C CNN
F 1 "0R" V 1907 5601 40  0000 C CNN
F 2 "MyKiCadLibs-Footprints:SMD-0805" V 1830 5600 30  0001 C CNN
F 3 "~" H 1900 5600 30  0000 C CNN
	1    1900 5600
	0    -1   -1   0   
$EndComp
$Comp
L R R503
U 1 1 56327A10
P 1900 4950
F 0 "R503" V 1950 5250 40  0000 C CNN
F 1 "0R" V 1907 4951 40  0000 C CNN
F 2 "MyKiCadLibs-Footprints:SMD-0805" V 1830 4950 30  0001 C CNN
F 3 "~" H 1900 4950 30  0000 C CNN
	1    1900 4950
	0    -1   -1   0   
$EndComp
$Comp
L R R507
U 1 1 56327AFB
P 1900 6250
F 0 "R507" V 1950 6550 40  0000 C CNN
F 1 "N/F" V 1907 6251 40  0000 C CNN
F 2 "MyKiCadLibs-Footprints:SMD-0805" V 1830 6250 30  0001 C CNN
F 3 "~" H 1900 6250 30  0000 C CNN
	1    1900 6250
	0    -1   -1   0   
$EndComp
$Comp
L R R504
U 1 1 56327BE9
P 1900 5100
F 0 "R504" V 1950 5400 40  0000 C CNN
F 1 "N/F" V 1907 5101 40  0000 C CNN
F 2 "MyKiCadLibs-Footprints:SMD-0805" V 1830 5100 30  0001 C CNN
F 3 "~" H 1900 5100 30  0000 C CNN
	1    1900 5100
	0    -1   -1   0   
$EndComp
$Comp
L R R508
U 1 1 56327CDA
P 1900 6800
F 0 "R508" V 1950 7100 40  0000 C CNN
F 1 "N/F" V 1907 6801 40  0000 C CNN
F 2 "MyKiCadLibs-Footprints:SMD-0805" V 1830 6800 30  0001 C CNN
F 3 "~" H 1900 6800 30  0000 C CNN
	1    1900 6800
	0    -1   -1   0   
$EndComp
$Comp
L GNDD #PWR063
U 1 1 5632AE27
P 10400 7600
F 0 "#PWR063" H 10400 7350 60  0001 C CNN
F 1 "GNDD" H 10400 7450 60  0000 C CNN
F 2 "" H 10400 7600 60  0000 C CNN
F 3 "" H 10400 7600 60  0000 C CNN
	1    10400 7600
	1    0    0    -1  
$EndComp
$Comp
L CONN_3x1 P508
U 1 1 5632E195
P 2250 9650
F 0 "P508" V 2735 9445 40  0000 C CNN
F 1 "CONN_3x1" V 2680 9560 40  0000 C CNN
F 2 "MyKiCadLibs-Footprints:CONN_SIL_3" H 2590 9540 60  0001 C CNN
F 3 "" H 2590 9540 60  0000 C CNN
	1    2250 9650
	-1   0    0    -1  
$EndComp
$Comp
L GNDD #PWR064
U 1 1 5632E40F
P 2300 10850
F 0 "#PWR064" H 2300 10600 60  0001 C CNN
F 1 "GNDD" H 2300 10700 60  0000 C CNN
F 2 "" H 2300 10850 60  0000 C CNN
F 3 "" H 2300 10850 60  0000 C CNN
	1    2300 10850
	1    0    0    -1  
$EndComp
$Comp
L R R512
U 1 1 5632E5A0
P 2300 10500
F 0 "R512" V 2350 10800 40  0000 C CNN
F 1 "10k" V 2307 10501 40  0000 C CNN
F 2 "MyKiCadLibs-Footprints:SMD-0805" V 2230 10500 30  0001 C CNN
F 3 "~" H 2300 10500 30  0000 C CNN
	1    2300 10500
	1    0    0    -1  
$EndComp
$Comp
L R R511
U 1 1 5632E6C5
P 2300 9300
F 0 "R511" V 2350 9600 40  0000 C CNN
F 1 "10k" V 2307 9301 40  0000 C CNN
F 2 "MyKiCadLibs-Footprints:SMD-0805" V 2230 9300 30  0001 C CNN
F 3 "~" H 2300 9300 30  0000 C CNN
	1    2300 9300
	1    0    0    -1  
$EndComp
$Comp
L VPP #PWR065
U 1 1 5632E7F3
P 2300 8950
F 0 "#PWR065" H 2300 8800 60  0001 C CNN
F 1 "VPP" H 2300 9100 60  0000 C CNN
F 2 "" H 2300 8950 60  0000 C CNN
F 3 "" H 2300 8950 60  0000 C CNN
	1    2300 8950
	1    0    0    -1  
$EndComp
Text Label 8700 6100 0    60   ~ 0
CDATA/ADDR1
Text Label 8700 6200 0    60   ~ 0
COUT/SDA
Text Label 8700 6300 0    60   ~ 0
CCLK/SCL
Text Label 8700 6400 0    60   ~ 0
~SS~/ADDR0
$Comp
L CONN_3x1 P509
U 1 1 5632FDAD
P 3100 9650
F 0 "P509" V 3585 9445 40  0000 C CNN
F 1 "CONN_3x1" V 3530 9560 40  0000 C CNN
F 2 "MyKiCadLibs-Footprints:CONN_SIL_3" H 3440 9540 60  0001 C CNN
F 3 "" H 3440 9540 60  0000 C CNN
	1    3100 9650
	-1   0    0    -1  
$EndComp
$Comp
L GNDD #PWR066
U 1 1 5632FDB9
P 3150 10850
F 0 "#PWR066" H 3150 10600 60  0001 C CNN
F 1 "GNDD" H 3150 10700 60  0000 C CNN
F 2 "" H 3150 10850 60  0000 C CNN
F 3 "" H 3150 10850 60  0000 C CNN
	1    3150 10850
	1    0    0    -1  
$EndComp
$Comp
L R R514
U 1 1 5632FDBF
P 3150 10500
F 0 "R514" V 3200 10800 40  0000 C CNN
F 1 "10k" V 3157 10501 40  0000 C CNN
F 2 "MyKiCadLibs-Footprints:SMD-0805" V 3080 10500 30  0001 C CNN
F 3 "~" H 3150 10500 30  0000 C CNN
	1    3150 10500
	1    0    0    -1  
$EndComp
$Comp
L R R513
U 1 1 5632FDC5
P 3150 9300
F 0 "R513" V 3200 9600 40  0000 C CNN
F 1 "10k" V 3157 9301 40  0000 C CNN
F 2 "MyKiCadLibs-Footprints:SMD-0805" V 3080 9300 30  0001 C CNN
F 3 "~" H 3150 9300 30  0000 C CNN
	1    3150 9300
	1    0    0    -1  
$EndComp
$Comp
L VPP #PWR067
U 1 1 5632FDCB
P 3150 8950
F 0 "#PWR067" H 3150 8800 60  0001 C CNN
F 1 "VPP" H 3150 9100 60  0000 C CNN
F 2 "" H 3150 8950 60  0000 C CNN
F 3 "" H 3150 8950 60  0000 C CNN
	1    3150 8950
	1    0    0    -1  
$EndComp
$Comp
L CONN_3x1 P510
U 1 1 5632FEC0
P 3950 9650
F 0 "P510" V 4435 9445 40  0000 C CNN
F 1 "CONN_3x1" V 4380 9560 40  0000 C CNN
F 2 "MyKiCadLibs-Footprints:CONN_SIL_3" H 4290 9540 60  0001 C CNN
F 3 "" H 4290 9540 60  0000 C CNN
	1    3950 9650
	-1   0    0    -1  
$EndComp
$Comp
L GNDD #PWR068
U 1 1 5632FECC
P 4000 10850
F 0 "#PWR068" H 4000 10600 60  0001 C CNN
F 1 "GNDD" H 4000 10700 60  0000 C CNN
F 2 "" H 4000 10850 60  0000 C CNN
F 3 "" H 4000 10850 60  0000 C CNN
	1    4000 10850
	1    0    0    -1  
$EndComp
$Comp
L R R516
U 1 1 5632FED2
P 4000 10500
F 0 "R516" V 4050 10800 40  0000 C CNN
F 1 "10k" V 4007 10501 40  0000 C CNN
F 2 "MyKiCadLibs-Footprints:SMD-0805" V 3930 10500 30  0001 C CNN
F 3 "~" H 4000 10500 30  0000 C CNN
	1    4000 10500
	1    0    0    -1  
$EndComp
$Comp
L R R515
U 1 1 5632FED8
P 4000 9300
F 0 "R515" V 4050 9600 40  0000 C CNN
F 1 "10k" V 4007 9301 40  0000 C CNN
F 2 "MyKiCadLibs-Footprints:SMD-0805" V 3930 9300 30  0001 C CNN
F 3 "~" H 4000 9300 30  0000 C CNN
	1    4000 9300
	1    0    0    -1  
$EndComp
$Comp
L VPP #PWR069
U 1 1 5632FEDE
P 4000 8950
F 0 "#PWR069" H 4000 8800 60  0001 C CNN
F 1 "VPP" H 4000 9100 60  0000 C CNN
F 2 "" H 4000 8950 60  0000 C CNN
F 3 "" H 4000 8950 60  0000 C CNN
	1    4000 8950
	1    0    0    -1  
$EndComp
$Comp
L CONN_3x1 P512
U 1 1 5632FFCF
P 4750 9650
F 0 "P512" V 5235 9445 40  0000 C CNN
F 1 "CONN_3x1" V 5180 9560 40  0000 C CNN
F 2 "MyKiCadLibs-Footprints:CONN_SIL_3" H 5090 9540 60  0001 C CNN
F 3 "" H 5090 9540 60  0000 C CNN
	1    4750 9650
	-1   0    0    -1  
$EndComp
$Comp
L GNDD #PWR070
U 1 1 5632FFDB
P 4800 10850
F 0 "#PWR070" H 4800 10600 60  0001 C CNN
F 1 "GNDD" H 4800 10700 60  0000 C CNN
F 2 "" H 4800 10850 60  0000 C CNN
F 3 "" H 4800 10850 60  0000 C CNN
	1    4800 10850
	1    0    0    -1  
$EndComp
$Comp
L R R520
U 1 1 5632FFE1
P 4800 10500
F 0 "R520" V 4850 10800 40  0000 C CNN
F 1 "10k" V 4807 10501 40  0000 C CNN
F 2 "MyKiCadLibs-Footprints:SMD-0805" V 4730 10500 30  0001 C CNN
F 3 "~" H 4800 10500 30  0000 C CNN
	1    4800 10500
	1    0    0    -1  
$EndComp
$Comp
L R R519
U 1 1 5632FFE7
P 4800 9300
F 0 "R519" V 4850 9600 40  0000 C CNN
F 1 "10k" V 4807 9301 40  0000 C CNN
F 2 "MyKiCadLibs-Footprints:SMD-0805" V 4730 9300 30  0001 C CNN
F 3 "~" H 4800 9300 30  0000 C CNN
	1    4800 9300
	1    0    0    -1  
$EndComp
$Comp
L VPP #PWR071
U 1 1 5632FFED
P 4800 8950
F 0 "#PWR071" H 4800 8800 60  0001 C CNN
F 1 "VPP" H 4800 9100 60  0000 C CNN
F 2 "" H 4800 8950 60  0000 C CNN
F 3 "" H 4800 8950 60  0000 C CNN
	1    4800 8950
	1    0    0    -1  
$EndComp
Text Label 2500 9000 3    60   ~ 0
CDATA/ADDR1
Text Label 3350 9000 3    60   ~ 0
COUT/SDA
Text Label 4200 9000 3    60   ~ 0
CCLK/SCL
Text Label 5000 9000 3    60   ~ 0
~SS~/ADDR0
Text Label 2800 5350 2    60   ~ 0
COUT/SDA
Text Label 2800 6500 2    60   ~ 0
CDATA/ADDR1
Text Label 2800 7050 2    60   ~ 0
~SS~/ADDR0
Text Label 2800 6000 2    60   ~ 0
CCLK/SCL
$Comp
L CONN_2x1 P505
U 1 1 5633192F
P 2200 6950
F 0 "P505" V 2700 6900 40  0000 C CNN
F 1 "CONN_2x1" V 2650 6900 40  0000 C CNN
F 2 "MyKiCadLibs-Footprints:CONN_SIL_2" H 2200 6950 60  0001 C CNN
F 3 "" H 2200 6950 60  0000 C CNN
	1    2200 6950
	-1   0    0    -1  
$EndComp
$Comp
L CONN_2x1 P504
U 1 1 56334CAD
P 2200 6400
F 0 "P504" V 2700 6350 40  0000 C CNN
F 1 "CONN_2x1" V 2650 6350 40  0000 C CNN
F 2 "MyKiCadLibs-Footprints:CONN_SIL_2" H 2200 6400 60  0001 C CNN
F 3 "" H 2200 6400 60  0000 C CNN
	1    2200 6400
	-1   0    0    -1  
$EndComp
$Comp
L CONN_2x1 P503
U 1 1 563351FE
P 2200 5900
F 0 "P503" V 2700 5850 40  0000 C CNN
F 1 "CONN_2x1" V 2650 5850 40  0000 C CNN
F 2 "MyKiCadLibs-Footprints:CONN_SIL_2" H 2200 5900 60  0001 C CNN
F 3 "" H 2200 5900 60  0000 C CNN
	1    2200 5900
	-1   0    0    -1  
$EndComp
$Comp
L CONN_2x1 P502
U 1 1 5633589D
P 2200 5250
F 0 "P502" V 2700 5200 40  0000 C CNN
F 1 "CONN_2x1" V 2650 5200 40  0000 C CNN
F 2 "MyKiCadLibs-Footprints:CONN_SIL_2" H 2200 5250 60  0001 C CNN
F 3 "" H 2200 5250 60  0000 C CNN
	1    2200 5250
	-1   0    0    -1  
$EndComp
$Comp
L R R509
U 1 1 56338E64
P 1900 7400
F 0 "R509" V 1950 7700 40  0000 C CNN
F 1 "N/F" V 1907 7401 40  0000 C CNN
F 2 "MyKiCadLibs-Footprints:SMD-0805" V 1830 7400 30  0001 C CNN
F 3 "~" H 1900 7400 30  0000 C CNN
	1    1900 7400
	0    -1   -1   0   
$EndComp
$Comp
L R R510
U 1 1 56338E6A
P 1900 7950
F 0 "R510" V 1950 8250 40  0000 C CNN
F 1 "N/F" V 1907 7951 40  0000 C CNN
F 2 "MyKiCadLibs-Footprints:SMD-0805" V 1830 7950 30  0001 C CNN
F 3 "~" H 1900 7950 30  0000 C CNN
	1    1900 7950
	0    -1   -1   0   
$EndComp
$Comp
L CONN_2x1 P507
U 1 1 56338E72
P 2200 8100
F 0 "P507" V 2700 8050 40  0000 C CNN
F 1 "CONN_2x1" V 2650 8050 40  0000 C CNN
F 2 "MyKiCadLibs-Footprints:CONN_SIL_2" H 2200 8100 60  0001 C CNN
F 3 "" H 2200 8100 60  0000 C CNN
	1    2200 8100
	-1   0    0    -1  
$EndComp
$Comp
L CONN_2x1 P506
U 1 1 56338E7E
P 2200 7550
F 0 "P506" V 2700 7500 40  0000 C CNN
F 1 "CONN_2x1" V 2650 7500 40  0000 C CNN
F 2 "MyKiCadLibs-Footprints:CONN_SIL_2" H 2200 7550 60  0001 C CNN
F 3 "" H 2200 7550 60  0000 C CNN
	1    2200 7550
	-1   0    0    -1  
$EndComp
$Comp
L CONN_3x1 P513
U 1 1 5633A230
P 5600 9650
F 0 "P513" V 6085 9445 40  0000 C CNN
F 1 "CONN_3x1" V 6030 9560 40  0000 C CNN
F 2 "MyKiCadLibs-Footprints:CONN_SIL_3" H 5940 9540 60  0001 C CNN
F 3 "" H 5940 9540 60  0000 C CNN
	1    5600 9650
	-1   0    0    -1  
$EndComp
$Comp
L GNDD #PWR072
U 1 1 5633A236
P 5650 10850
F 0 "#PWR072" H 5650 10600 60  0001 C CNN
F 1 "GNDD" H 5650 10700 60  0000 C CNN
F 2 "" H 5650 10850 60  0000 C CNN
F 3 "" H 5650 10850 60  0000 C CNN
	1    5650 10850
	1    0    0    -1  
$EndComp
$Comp
L R R522
U 1 1 5633A23C
P 5650 10500
F 0 "R522" V 5700 10800 40  0000 C CNN
F 1 "10k" V 5657 10501 40  0000 C CNN
F 2 "MyKiCadLibs-Footprints:SMD-0805" V 5580 10500 30  0001 C CNN
F 3 "~" H 5650 10500 30  0000 C CNN
	1    5650 10500
	1    0    0    -1  
$EndComp
$Comp
L R R521
U 1 1 5633A242
P 5650 9300
F 0 "R521" V 5700 9600 40  0000 C CNN
F 1 "10k" V 5657 9301 40  0000 C CNN
F 2 "MyKiCadLibs-Footprints:SMD-0805" V 5580 9300 30  0001 C CNN
F 3 "~" H 5650 9300 30  0000 C CNN
	1    5650 9300
	1    0    0    -1  
$EndComp
$Comp
L VPP #PWR073
U 1 1 5633A248
P 5650 8950
F 0 "#PWR073" H 5650 8800 60  0001 C CNN
F 1 "VPP" H 5650 9100 60  0000 C CNN
F 2 "" H 5650 8950 60  0000 C CNN
F 3 "" H 5650 8950 60  0000 C CNN
	1    5650 8950
	1    0    0    -1  
$EndComp
$Comp
L CONN_3x1 P514
U 1 1 5633A24E
P 6400 9650
F 0 "P514" V 6885 9445 40  0000 C CNN
F 1 "CONN_3x1" V 6830 9560 40  0000 C CNN
F 2 "MyKiCadLibs-Footprints:CONN_SIL_3" H 6740 9540 60  0001 C CNN
F 3 "" H 6740 9540 60  0000 C CNN
	1    6400 9650
	-1   0    0    -1  
$EndComp
$Comp
L GNDD #PWR074
U 1 1 5633A254
P 6450 10850
F 0 "#PWR074" H 6450 10600 60  0001 C CNN
F 1 "GNDD" H 6450 10700 60  0000 C CNN
F 2 "" H 6450 10850 60  0000 C CNN
F 3 "" H 6450 10850 60  0000 C CNN
	1    6450 10850
	1    0    0    -1  
$EndComp
$Comp
L R R525
U 1 1 5633A25A
P 6450 10500
F 0 "R525" V 6500 10800 40  0000 C CNN
F 1 "10k" V 6457 10501 40  0000 C CNN
F 2 "MyKiCadLibs-Footprints:SMD-0805" V 6380 10500 30  0001 C CNN
F 3 "~" H 6450 10500 30  0000 C CNN
	1    6450 10500
	1    0    0    -1  
$EndComp
$Comp
L R R524
U 1 1 5633A260
P 6450 9300
F 0 "R524" V 6500 9600 40  0000 C CNN
F 1 "10k" V 6457 9301 40  0000 C CNN
F 2 "MyKiCadLibs-Footprints:SMD-0805" V 6380 9300 30  0001 C CNN
F 3 "~" H 6450 9300 30  0000 C CNN
	1    6450 9300
	1    0    0    -1  
$EndComp
$Comp
L VPP #PWR075
U 1 1 5633A266
P 6450 8950
F 0 "#PWR075" H 6450 8800 60  0001 C CNN
F 1 "VPP" H 6450 9100 60  0000 C CNN
F 2 "" H 6450 8950 60  0000 C CNN
F 3 "" H 6450 8950 60  0000 C CNN
	1    6450 8950
	1    0    0    -1  
$EndComp
Text Label 8100 5350 0    60   ~ 0
DSDATA7
Text Label 8100 5450 0    60   ~ 0
DSDATA8
Text Label 2800 7650 2    60   ~ 0
DSDATA7
Text Label 2800 8200 2    60   ~ 0
DSDATA8
Text Label 6650 9000 3    60   ~ 0
DSDATA8
Text Label 5850 9000 3    60   ~ 0
DSDATA7
Text Notes 700  4800 0    59   ~ 0
These jumpers switch between SPI/I2C, \nand can be left open for SA mode
Text Notes 650  8700 0    59   ~ 0
These jumpers choose/configure SA mode settings.\nSee datasheet for deatiled settings of pins 42-45 and 31-32.
$Comp
L C C541
U 1 1 56341E47
P 12150 7800
F 0 "C541" H 12150 7900 40  0000 L CNN
F 1 "470n" H 12156 7715 40  0000 L CNN
F 2 "MyKiCadLibs-Footprints:SMD-0603" H 12188 7650 30  0000 C CNN
F 3 "~" H 12150 7800 60  0000 C CNN
	1    12150 7800
	1    0    0    -1  
$EndComp
$Comp
L C C544
U 1 1 56342010
P 12600 7800
F 0 "C544" H 12600 7900 40  0000 L CNN
F 1 "470n" H 12606 7715 40  0000 L CNN
F 2 "MyKiCadLibs-Footprints:SMD-0603" H 12638 7650 30  0000 C CNN
F 3 "~" H 12600 7800 60  0000 C CNN
	1    12600 7800
	1    0    0    -1  
$EndComp
$Comp
L GNDD #PWR076
U 1 1 563425B3
P 12150 8050
F 0 "#PWR076" H 12150 7800 60  0001 C CNN
F 1 "GNDD" H 12150 7900 60  0000 C CNN
F 2 "" H 12150 8050 60  0000 C CNN
F 3 "" H 12150 8050 60  0000 C CNN
	1    12150 8050
	-1   0    0    -1  
$EndComp
$Comp
L GNDD #PWR077
U 1 1 5634261D
P 12600 8050
F 0 "#PWR077" H 12600 7800 60  0001 C CNN
F 1 "GNDD" H 12600 7900 60  0000 C CNN
F 2 "" H 12600 8050 60  0000 C CNN
F 3 "" H 12600 8050 60  0000 C CNN
	1    12600 8050
	-1   0    0    -1  
$EndComp
$Comp
L C C542
U 1 1 563432A7
P 12250 3400
F 0 "C542" H 12250 3500 40  0000 L CNN
F 1 "470n" H 12256 3315 40  0000 L CNN
F 2 "MyKiCadLibs-Footprints:SMD-0603" H 12288 3250 30  0000 C CNN
F 3 "~" H 12250 3400 60  0000 C CNN
	1    12250 3400
	1    0    0    -1  
$EndComp
$Comp
L C C539
U 1 1 5634342B
P 11850 3400
F 0 "C539" H 11850 3500 40  0000 L CNN
F 1 "470n" H 11856 3315 40  0000 L CNN
F 2 "MyKiCadLibs-Footprints:SMD-0603" H 11888 3250 30  0000 C CNN
F 3 "~" H 11850 3400 60  0000 C CNN
	1    11850 3400
	1    0    0    -1  
$EndComp
Wire Wire Line
	1800 1050 1800 1100
Wire Wire Line
	1800 1600 1800 1700
Wire Wire Line
	2150 1050 2150 1450
Connection ~ 1800 1050
Wire Wire Line
	2500 1050 2500 1450
Connection ~ 2150 1050
Connection ~ 2500 1050
Wire Wire Line
	1800 2100 1800 2200
Wire Wire Line
	2150 2150 2150 1850
Connection ~ 1800 2150
Wire Wire Line
	2500 2150 2500 1850
Connection ~ 2150 2150
Connection ~ 2500 2150
Wire Wire Line
	2800 1050 2800 1450
Wire Wire Line
	2800 2150 2800 1850
Wire Wire Line
	3100 2150 3100 1850
Connection ~ 2800 2150
Wire Wire Line
	3350 2150 3350 1850
Connection ~ 3100 2150
Wire Wire Line
	3600 2150 3600 1850
Connection ~ 3350 2150
Wire Wire Line
	3100 1050 3100 1450
Connection ~ 2800 1050
Wire Wire Line
	3350 1050 3350 1450
Connection ~ 3100 1050
Wire Wire Line
	3600 1050 3600 1450
Connection ~ 3350 1050
Wire Wire Line
	3900 2150 3900 1850
Wire Wire Line
	4150 2150 4150 1850
Connection ~ 3900 2150
Wire Wire Line
	4400 2150 4400 1850
Connection ~ 4150 2150
Wire Wire Line
	3900 1050 3900 1450
Wire Wire Line
	4150 1050 4150 1450
Connection ~ 3900 1050
Wire Wire Line
	4400 1050 4400 1450
Connection ~ 4150 1050
Connection ~ 4400 1050
Connection ~ 4400 2150
Wire Wire Line
	4700 2150 4700 1850
Wire Wire Line
	4950 2150 4950 1850
Connection ~ 4700 2150
Wire Wire Line
	5200 2150 5200 1850
Connection ~ 4950 2150
Wire Wire Line
	4700 1050 4700 1450
Wire Wire Line
	4950 1050 4950 1450
Connection ~ 4700 1050
Wire Wire Line
	5200 1050 5200 1450
Connection ~ 4950 1050
Connection ~ 3600 1050
Connection ~ 3600 2150
Wire Wire Line
	800  900  800  1050
Wire Wire Line
	800  1050 900  1050
Wire Wire Line
	10950 3150 10950 3650
Wire Wire Line
	11050 3550 11050 3650
Connection ~ 10950 3550
Wire Wire Line
	11150 3550 11150 3650
Connection ~ 11050 3550
Wire Wire Line
	8350 1050 8350 1100
Wire Wire Line
	8350 1600 8350 1700
Wire Wire Line
	8700 1050 8700 1450
Connection ~ 8350 1050
Connection ~ 8700 1050
Wire Wire Line
	8350 2100 8350 2200
Wire Wire Line
	8700 2150 8700 1850
Connection ~ 8350 2150
Connection ~ 8700 2150
Wire Wire Line
	8950 1050 8950 1450
Wire Wire Line
	8950 2150 8950 1850
Wire Wire Line
	9250 2150 9250 1850
Connection ~ 8950 2150
Wire Wire Line
	9500 2150 9500 1850
Connection ~ 9250 2150
Connection ~ 9500 2150
Wire Wire Line
	9250 1050 9250 1450
Connection ~ 8950 1050
Wire Wire Line
	9500 1050 9500 1450
Connection ~ 9250 1050
Connection ~ 9500 1050
Wire Wire Line
	7350 900  7350 1050
Wire Wire Line
	7350 1050 7450 1050
Wire Wire Line
	9800 2150 9800 1850
Wire Wire Line
	9800 1050 9800 1450
Connection ~ 9800 2150
Wire Wire Line
	10600 3150 10600 3650
Wire Wire Line
	10700 3550 10700 3650
Connection ~ 10600 3550
Wire Wire Line
	6150 1050 6950 1050
Wire Wire Line
	6300 1050 6300 1100
Wire Wire Line
	6300 1600 6300 1700
Wire Wire Line
	6650 1050 6650 1450
Connection ~ 6300 1050
Connection ~ 6650 1050
Wire Wire Line
	6300 2100 6300 2200
Wire Wire Line
	6650 2150 6650 1850
Connection ~ 6300 2150
Connection ~ 6650 2150
Wire Wire Line
	6950 1050 6950 1450
Wire Wire Line
	6950 2150 6950 1850
Wire Wire Line
	5450 900  5450 1050
Wire Wire Line
	5450 1050 5550 1050
Wire Wire Line
	11600 1000 15300 1000
Wire Wire Line
	12000 1000 12000 1050
Wire Wire Line
	12000 1550 12000 1650
Wire Wire Line
	12950 1000 12950 1400
Connection ~ 12000 1000
Connection ~ 12950 1000
Wire Wire Line
	12000 2050 12000 2150
Wire Wire Line
	12950 2100 12950 1800
Connection ~ 12000 2100
Connection ~ 12950 2100
Wire Wire Line
	13800 1000 13800 1400
Wire Wire Line
	13800 2100 13800 1800
Connection ~ 13800 1000
Wire Wire Line
	10900 850  10900 1000
Wire Wire Line
	10900 1000 11000 1000
Wire Wire Line
	10400 3650 10400 3300
Wire Wire Line
	11550 2850 11550 3650
Wire Wire Line
	1200 9450 1200 9950
Wire Wire Line
	10600 10150 10600 10050
Wire Wire Line
	10600 10600 10600 10550
Wire Wire Line
	9650 10600 9650 10550
Wire Wire Line
	11000 10050 11000 10250
Connection ~ 10600 10050
Wire Wire Line
	7900 9550 8650 9550
Wire Wire Line
	8000 10300 8000 10400
Wire Wire Line
	8250 10300 8250 10350
Wire Wire Line
	8250 10350 8000 10350
Connection ~ 8000 10350
Wire Wire Line
	8000 9550 8000 9900
Wire Wire Line
	8250 9550 8250 9900
Connection ~ 8000 9550
Connection ~ 8250 9550
Wire Wire Line
	8600 9800 8600 9700
Wire Wire Line
	8600 9700 8650 9700
Wire Wire Line
	12000 2100 15300 2100
Wire Wire Line
	6300 2150 6950 2150
Wire Wire Line
	10200 10050 11000 10050
Wire Wire Line
	11200 10150 11000 10150
Connection ~ 11000 10150
Wire Wire Line
	9650 9700 9650 10150
Connection ~ 9650 10050
Wire Wire Line
	11000 10700 11000 10650
Wire Wire Line
	9900 9450 9900 9400
Wire Wire Line
	9650 8700 10300 8700
Wire Wire Line
	9650 8700 9650 9550
Wire Wire Line
	10800 8700 11350 8700
Wire Wire Line
	11350 8700 11350 8800
Wire Wire Line
	11350 9250 11350 9200
Wire Wire Line
	9650 10050 9700 10050
Wire Wire Line
	9600 9700 9650 9700
Wire Wire Line
	9900 9000 9900 8700
Connection ~ 9900 8700
Wire Wire Line
	9650 9550 9600 9550
Wire Wire Line
	10200 8900 10200 8700
Connection ~ 10200 8700
Wire Wire Line
	10200 9450 10200 9400
Wire Wire Line
	8700 6600 9600 6600
Wire Wire Line
	9550 4500 9600 4500
Wire Wire Line
	9050 4500 8900 4500
Wire Wire Line
	9550 4600 9600 4600
Wire Wire Line
	9050 4600 8900 4600
Wire Wire Line
	9550 4700 9600 4700
Wire Wire Line
	9050 4700 8900 4700
Wire Wire Line
	9550 4800 9600 4800
Wire Wire Line
	9050 4800 8900 4800
Wire Wire Line
	9550 4900 9600 4900
Wire Wire Line
	9050 4900 8900 4900
Wire Wire Line
	9550 5000 9600 5000
Wire Wire Line
	9050 5000 8900 5000
Wire Wire Line
	9550 5100 9600 5100
Wire Wire Line
	9050 5100 8900 5100
Wire Wire Line
	9550 5200 9600 5200
Wire Wire Line
	9050 5200 8900 5200
Wire Wire Line
	9550 5300 9600 5300
Wire Wire Line
	8700 5300 9050 5300
Wire Wire Line
	9550 5400 9600 5400
Wire Wire Line
	8750 5400 9050 5400
Wire Wire Line
	9550 5600 9600 5600
Wire Wire Line
	9050 5600 8900 5600
Wire Wire Line
	1500 1050 5200 1050
Wire Wire Line
	1800 2150 5200 2150
Wire Wire Line
	8050 1050 10200 1050
Wire Wire Line
	8350 2150 10200 2150
Wire Wire Line
	10700 3550 10600 3550
Wire Wire Line
	10950 3550 11150 3550
Wire Wire Line
	8950 4050 9300 4050
Wire Wire Line
	8300 4050 8450 4050
Wire Wire Line
	8300 3900 8300 4150
Wire Wire Line
	9300 4050 9300 4150
Wire Wire Line
	9300 4150 9600 4150
Wire Wire Line
	9600 4050 9400 4050
Wire Wire Line
	9400 4050 9400 3900
Wire Wire Line
	9400 3900 8950 3900
Wire Wire Line
	8450 3900 8300 3900
Connection ~ 8300 4050
Wire Wire Line
	7300 9450 7300 9550
Wire Wire Line
	7300 9550 7400 9550
Wire Wire Line
	7900 9750 8000 9750
Connection ~ 8000 9750
Wire Wire Line
	7050 9450 7050 9750
Wire Wire Line
	7050 9750 7400 9750
Wire Wire Line
	1150 10050 1400 10050
Wire Wire Line
	1200 10250 1200 10050
Connection ~ 1200 10050
Wire Wire Line
	1200 10750 1200 10850
Wire Wire Line
	1200 9950 1150 9950
Wire Wire Line
	1350 4950 1650 4950
Wire Wire Line
	1650 5600 1350 5600
Wire Wire Line
	1350 5750 1650 5750
Wire Wire Line
	1650 6250 1350 6250
Wire Wire Line
	1350 5100 1650 5100
Wire Wire Line
	1650 6800 1350 6800
Wire Wire Line
	10400 7500 10400 7600
Wire Wire Line
	10400 7550 12000 7550
Wire Wire Line
	10700 7550 10700 7500
Connection ~ 10400 7550
Wire Wire Line
	10800 7550 10800 7500
Connection ~ 10700 7550
Wire Wire Line
	10900 7550 10900 7500
Connection ~ 10800 7550
Wire Wire Line
	11000 7550 11000 7500
Connection ~ 10900 7550
Wire Wire Line
	11550 7550 11550 7500
Connection ~ 11000 7550
Wire Wire Line
	11700 7550 11700 7500
Connection ~ 11550 7550
Wire Wire Line
	11850 7550 11850 7500
Connection ~ 11700 7550
Wire Wire Line
	12000 7550 12000 7500
Connection ~ 11850 7550
Wire Wire Line
	2300 8950 2300 9050
Wire Wire Line
	2300 9550 2300 9650
Wire Wire Line
	2300 9650 2250 9650
Wire Wire Line
	2250 9850 2300 9850
Wire Wire Line
	2300 9850 2300 10250
Wire Wire Line
	2300 10750 2300 10850
Wire Wire Line
	2250 9750 2500 9750
Wire Wire Line
	8700 6100 9600 6100
Wire Wire Line
	8700 6400 9600 6400
Wire Wire Line
	9600 6300 8700 6300
Wire Wire Line
	8700 6200 9600 6200
Wire Wire Line
	3150 8950 3150 9050
Wire Wire Line
	3150 9550 3150 9650
Wire Wire Line
	3150 9650 3100 9650
Wire Wire Line
	3100 9850 3150 9850
Wire Wire Line
	3150 9850 3150 10250
Wire Wire Line
	3150 10750 3150 10850
Wire Wire Line
	3100 9750 3350 9750
Wire Wire Line
	4000 8950 4000 9050
Wire Wire Line
	4000 9550 4000 9650
Wire Wire Line
	4000 9650 3950 9650
Wire Wire Line
	3950 9850 4000 9850
Wire Wire Line
	4000 9850 4000 10250
Wire Wire Line
	4000 10750 4000 10850
Wire Wire Line
	3950 9750 4200 9750
Wire Wire Line
	4800 8950 4800 9050
Wire Wire Line
	4800 9550 4800 9650
Wire Wire Line
	4800 9650 4750 9650
Wire Wire Line
	4750 9850 4800 9850
Wire Wire Line
	4800 9850 4800 10250
Wire Wire Line
	4800 10750 4800 10850
Wire Wire Line
	4750 9750 5000 9750
Wire Wire Line
	2150 6800 2250 6800
Wire Wire Line
	2250 6800 2250 6950
Wire Wire Line
	2250 6950 2200 6950
Wire Wire Line
	2800 7050 2200 7050
Wire Wire Line
	2500 9750 2500 9000
Wire Wire Line
	3350 9750 3350 9000
Wire Wire Line
	4200 9750 4200 9000
Wire Wire Line
	5000 9750 5000 9000
Wire Wire Line
	2250 6250 2250 6400
Wire Wire Line
	2250 6400 2200 6400
Wire Wire Line
	2800 6500 2200 6500
Wire Wire Line
	2150 6250 2250 6250
Wire Wire Line
	2250 5600 2250 5900
Wire Wire Line
	2250 5900 2200 5900
Wire Wire Line
	2800 6000 2200 6000
Wire Wire Line
	2150 5750 2250 5750
Wire Wire Line
	2150 5600 2250 5600
Connection ~ 2250 5750
Wire Wire Line
	2250 4950 2250 5250
Wire Wire Line
	2250 5250 2200 5250
Wire Wire Line
	2800 5350 2200 5350
Wire Wire Line
	2250 4950 2150 4950
Wire Wire Line
	2150 5100 2250 5100
Connection ~ 2250 5100
Wire Wire Line
	1650 7400 1350 7400
Wire Wire Line
	1650 7950 1350 7950
Wire Wire Line
	2150 7950 2250 7950
Wire Wire Line
	2250 7950 2250 8100
Wire Wire Line
	2250 8100 2200 8100
Wire Wire Line
	2800 8200 2200 8200
Wire Wire Line
	2250 7400 2250 7550
Wire Wire Line
	2250 7550 2200 7550
Wire Wire Line
	2800 7650 2200 7650
Wire Wire Line
	2150 7400 2250 7400
Wire Wire Line
	5650 8950 5650 9050
Wire Wire Line
	5650 9550 5650 9650
Wire Wire Line
	5650 9650 5600 9650
Wire Wire Line
	5600 9850 5650 9850
Wire Wire Line
	5650 9850 5650 10250
Wire Wire Line
	5650 10750 5650 10850
Wire Wire Line
	5600 9750 5850 9750
Wire Wire Line
	6450 8950 6450 9050
Wire Wire Line
	6450 9550 6450 9650
Wire Wire Line
	6450 9650 6400 9650
Wire Wire Line
	6400 9850 6450 9850
Wire Wire Line
	6450 9850 6450 10250
Wire Wire Line
	6450 10750 6450 10850
Wire Wire Line
	6400 9750 6650 9750
Wire Wire Line
	5850 9750 5850 9000
Wire Wire Line
	6650 9750 6650 9000
Wire Wire Line
	8100 5350 8700 5350
Wire Wire Line
	8700 5350 8700 5300
Wire Wire Line
	8750 5400 8750 5450
Wire Wire Line
	8750 5450 8100 5450
Wire Wire Line
	12150 7600 12150 7550
Wire Wire Line
	12150 7550 12300 7550
Wire Wire Line
	12300 7550 12300 7500
Wire Wire Line
	12450 7500 12450 7550
Wire Wire Line
	12450 7550 12600 7550
Wire Wire Line
	12600 7550 12600 7600
Wire Wire Line
	12150 8050 12150 8000
Wire Wire Line
	12600 8050 12600 8000
Wire Wire Line
	11650 3650 11650 3600
Wire Wire Line
	11650 3600 11550 3600
Connection ~ 11550 3600
Wire Wire Line
	11850 3600 11850 3650
Wire Wire Line
	11850 3200 11850 3150
Wire Wire Line
	11550 3150 12450 3150
Connection ~ 11550 3150
Wire Wire Line
	12050 3150 12050 3650
Connection ~ 11850 3150
Wire Wire Line
	12250 3150 12250 3200
Connection ~ 12050 3150
Wire Wire Line
	12450 3150 12450 3650
Connection ~ 12250 3150
Wire Wire Line
	12250 3600 12250 3650
$Comp
L CP1 C520
U 1 1 56348883
P 6900 7350
F 0 "C520" H 6950 7450 50  0000 L CNN
F 1 "220u" H 6950 7250 50  0000 L CNN
F 2 "MyKiCadLibs-Footprints:CAP-TH-D6.3mmP2.5mm" H 6900 7350 60  0000 C CNN
F 3 "~" H 6900 7350 60  0000 C CNN
	1    6900 7350
	1    0    0    -1  
$EndComp
$Comp
L C C523
U 1 1 56348889
P 7550 7350
F 0 "C523" H 7550 7450 40  0000 L CNN
F 1 "100n" H 7556 7265 40  0000 L CNN
F 2 "MyKiCadLibs-Footprints:SMD-0805" H 7588 7200 30  0000 C CNN
F 3 "~" H 7550 7350 60  0000 C CNN
	1    7550 7350
	1    0    0    -1  
$EndComp
$Comp
L C C522
U 1 1 5634888F
P 7250 7350
F 0 "C522" H 7250 7450 40  0000 L CNN
F 1 "22u" H 7256 7265 40  0000 L CNN
F 2 "MyKiCadLibs-Footprints:SMD-0805" H 7288 7200 30  0000 C CNN
F 3 "~" H 7250 7350 60  0000 C CNN
	1    7250 7350
	1    0    0    -1  
$EndComp
$Comp
L CP1 C524
U 1 1 56348949
P 7850 7350
F 0 "C524" H 7900 7450 50  0000 L CNN
F 1 "220u" H 7900 7250 50  0000 L CNN
F 2 "MyKiCadLibs-Footprints:CAP-TH-D6.3mmP2.5mm" H 7850 7350 60  0000 C CNN
F 3 "~" H 7850 7350 60  0000 C CNN
	1    7850 7350
	1    0    0    -1  
$EndComp
$Comp
L C C529
U 1 1 5634894F
P 8500 7350
F 0 "C529" H 8500 7450 40  0000 L CNN
F 1 "100n" H 8506 7265 40  0000 L CNN
F 2 "MyKiCadLibs-Footprints:SMD-0805" H 8538 7200 30  0000 C CNN
F 3 "~" H 8500 7350 60  0000 C CNN
	1    8500 7350
	1    0    0    -1  
$EndComp
$Comp
L C C526
U 1 1 56348955
P 8200 7350
F 0 "C526" H 8200 7450 40  0000 L CNN
F 1 "22u" H 8206 7265 40  0000 L CNN
F 2 "MyKiCadLibs-Footprints:SMD-0805" H 8238 7200 30  0000 C CNN
F 3 "~" H 8200 7350 60  0000 C CNN
	1    8200 7350
	1    0    0    -1  
$EndComp
$Comp
L GNDD #PWR078
U 1 1 56348A2D
P 8500 7650
F 0 "#PWR078" H 8500 7400 60  0001 C CNN
F 1 "GNDD" H 8500 7500 60  0000 C CNN
F 2 "" H 8500 7650 60  0000 C CNN
F 3 "" H 8500 7650 60  0000 C CNN
	1    8500 7650
	1    0    0    -1  
$EndComp
Wire Wire Line
	8500 7550 8500 7650
Wire Wire Line
	6900 7600 8500 7600
Wire Wire Line
	8200 7600 8200 7550
Connection ~ 8500 7600
Wire Wire Line
	7850 7600 7850 7550
Connection ~ 8200 7600
Wire Wire Line
	7550 7600 7550 7550
Connection ~ 7850 7600
Wire Wire Line
	7250 7600 7250 7550
Connection ~ 7550 7600
Wire Wire Line
	6900 7600 6900 7550
Connection ~ 7250 7600
Wire Wire Line
	7850 6950 9600 6950
Wire Wire Line
	8500 6950 8500 7150
Wire Wire Line
	8200 6950 8200 7150
Connection ~ 8500 6950
Wire Wire Line
	7850 7150 7850 6950
Connection ~ 8200 6950
Wire Wire Line
	6900 6850 9600 6850
Wire Wire Line
	7550 6850 7550 7150
Wire Wire Line
	7250 7150 7250 6850
Connection ~ 7550 6850
Wire Wire Line
	6900 7150 6900 6850
Connection ~ 7250 6850
$Comp
L C C513
U 1 1 5634FCAF
P 4600 7500
F 0 "C513" H 4600 7600 40  0000 L CNN
F 1 "5n6" H 4606 7415 40  0000 L CNN
F 2 "MyKiCadLibs-Footprints:SMD-0603" H 4638 7350 30  0000 C CNN
F 3 "~" H 4600 7500 60  0000 C CNN
	1    4600 7500
	1    0    0    -1  
$EndComp
$Comp
L R R518
U 1 1 5634FCB5
P 4600 8000
F 0 "R518" V 4650 8300 40  0000 C CNN
F 1 "562R" V 4607 8001 40  0000 C CNN
F 2 "MyKiCadLibs-Footprints:SMD-0603" V 4530 8000 30  0001 C CNN
F 3 "~" H 4600 8000 30  0000 C CNN
	1    4600 8000
	1    0    0    -1  
$EndComp
$Comp
L C C515
U 1 1 5634FCBB
P 4800 7800
F 0 "C515" H 4800 7900 40  0000 L CNN
F 1 "390p" H 4806 7715 40  0000 L CNN
F 2 "MyKiCadLibs-Footprints:SMD-0603" H 4838 7650 30  0000 C CNN
F 3 "~" H 4800 7800 60  0000 C CNN
	1    4800 7800
	1    0    0    -1  
$EndComp
$Comp
L GNDD #PWR079
U 1 1 5634FCC1
P 4600 8350
F 0 "#PWR079" H 4600 8100 60  0001 C CNN
F 1 "GNDD" H 4600 8200 60  0000 C CNN
F 2 "" H 4600 8350 60  0000 C CNN
F 3 "" H 4600 8350 60  0000 C CNN
	1    4600 8350
	1    0    0    -1  
$EndComp
Wire Wire Line
	4600 8250 4600 8350
Wire Wire Line
	4800 7250 4800 7600
Wire Wire Line
	4600 7700 4600 7750
Wire Wire Line
	4800 8000 4800 8300
Wire Wire Line
	4800 8300 4600 8300
Connection ~ 4600 8300
Wire Wire Line
	4800 7250 4600 7250
Text Notes 5100 7950 1    59   ~ 0
MCLK
Text Label 4800 7250 2    59   ~ 0
LF
Text Label 9450 7050 0    59   ~ 0
LF
Wire Wire Line
	9450 7050 9600 7050
Text Notes 4250 7000 0    118  ~ 0
Loop Filter
$Comp
L C C547
U 1 1 563555B2
P 13550 1600
F 0 "C547" H 13550 1700 40  0000 L CNN
F 1 "1u" H 13556 1515 40  0000 L CNN
F 2 "MyKiCadLibs-Footprints:SMD-0603" H 13588 1450 30  0000 C CNN
F 3 "~" H 13550 1600 60  0000 C CNN
	1    13550 1600
	1    0    0    -1  
$EndComp
Wire Wire Line
	13550 1400 13550 1000
Connection ~ 13550 1000
Wire Wire Line
	13550 1800 13550 2100
Connection ~ 13550 2100
$Comp
L C C550
U 1 1 56355F1B
P 14300 1600
F 0 "C550" H 14300 1700 40  0000 L CNN
F 1 "100n" H 14306 1515 40  0000 L CNN
F 2 "MyKiCadLibs-Footprints:SMD-0603" H 14338 1450 30  0000 C CNN
F 3 "~" H 14300 1600 60  0000 C CNN
	1    14300 1600
	1    0    0    -1  
$EndComp
Wire Wire Line
	14300 1000 14300 1400
Wire Wire Line
	14300 2100 14300 1800
$Comp
L C C549
U 1 1 56355F23
P 14050 1600
F 0 "C549" H 14050 1700 40  0000 L CNN
F 1 "1u" H 14056 1515 40  0000 L CNN
F 2 "MyKiCadLibs-Footprints:SMD-0603" H 14088 1450 30  0000 C CNN
F 3 "~" H 14050 1600 60  0000 C CNN
	1    14050 1600
	1    0    0    -1  
$EndComp
Wire Wire Line
	14050 1400 14050 1000
Wire Wire Line
	14050 1800 14050 2100
$Comp
L C C552
U 1 1 56355FC6
P 14800 1600
F 0 "C552" H 14800 1700 40  0000 L CNN
F 1 "100n" H 14806 1515 40  0000 L CNN
F 2 "MyKiCadLibs-Footprints:SMD-0603" H 14838 1450 30  0000 C CNN
F 3 "~" H 14800 1600 60  0000 C CNN
	1    14800 1600
	1    0    0    -1  
$EndComp
Wire Wire Line
	14800 1000 14800 1400
Wire Wire Line
	14800 2100 14800 1800
$Comp
L C C551
U 1 1 56355FCE
P 14550 1600
F 0 "C551" H 14550 1700 40  0000 L CNN
F 1 "1u" H 14556 1515 40  0000 L CNN
F 2 "MyKiCadLibs-Footprints:SMD-0603" H 14588 1450 30  0000 C CNN
F 3 "~" H 14550 1600 60  0000 C CNN
	1    14550 1600
	1    0    0    -1  
$EndComp
Wire Wire Line
	14550 1400 14550 1000
Wire Wire Line
	14550 1800 14550 2100
$Comp
L C C554
U 1 1 5635607F
P 15300 1600
F 0 "C554" H 15300 1700 40  0000 L CNN
F 1 "100n" H 15306 1515 40  0000 L CNN
F 2 "MyKiCadLibs-Footprints:SMD-0603" H 15338 1450 30  0000 C CNN
F 3 "~" H 15300 1600 60  0000 C CNN
	1    15300 1600
	1    0    0    -1  
$EndComp
Wire Wire Line
	15300 1000 15300 1400
Wire Wire Line
	15300 2100 15300 1800
$Comp
L C C553
U 1 1 56356087
P 15050 1600
F 0 "C553" H 15050 1700 40  0000 L CNN
F 1 "1u" H 15056 1515 40  0000 L CNN
F 2 "MyKiCadLibs-Footprints:SMD-0603" H 15088 1450 30  0000 C CNN
F 3 "~" H 15050 1600 60  0000 C CNN
	1    15050 1600
	1    0    0    -1  
$EndComp
Wire Wire Line
	15050 1400 15050 1000
Wire Wire Line
	15050 1800 15050 2100
Wire Wire Line
	12300 1400 12300 1000
Connection ~ 12300 1000
Wire Wire Line
	12300 1800 12300 2100
Connection ~ 12300 2100
Connection ~ 13800 2100
Connection ~ 15050 1000
Connection ~ 14800 1000
Connection ~ 14550 1000
Connection ~ 14300 1000
Connection ~ 14050 1000
Connection ~ 14050 2100
Connection ~ 14300 2100
Connection ~ 14550 2100
Connection ~ 14800 2100
Connection ~ 15050 2100
$Comp
L CP1 C545
U 1 1 56358AB0
P 12650 1600
F 0 "C545" H 12700 1700 50  0000 L CNN
F 1 "220u" H 12700 1500 50  0000 L CNN
F 2 "MyKiCadLibs-Footprints:CAP-TH-D6.3mmP2.5mm" H 12650 1600 60  0000 C CNN
F 3 "~" H 12650 1600 60  0000 C CNN
	1    12650 1600
	1    0    0    -1  
$EndComp
Wire Wire Line
	12650 1400 12650 1000
Connection ~ 12650 1000
Wire Wire Line
	12650 1800 12650 2100
Connection ~ 12650 2100
Text HLabel 13600 4050 2    59   Output ~ 0
OUT_1P
Text HLabel 13600 4150 2    59   Output ~ 0
OUT_1N
Text HLabel 13600 4250 2    59   Output ~ 0
OUT_2P
Text HLabel 13600 4350 2    59   Output ~ 0
OUT_2N
Text HLabel 13600 4450 2    59   Output ~ 0
OUT_3P
Text HLabel 13600 4550 2    59   Output ~ 0
OUT_3N
Text HLabel 13600 4650 2    59   Output ~ 0
OUT_4P
Text HLabel 13600 4750 2    59   Output ~ 0
OUT_4N
Text HLabel 13600 4850 2    59   Output ~ 0
OUT_5P
Text HLabel 13600 4950 2    59   Output ~ 0
OUT_5N
Text HLabel 13600 5050 2    59   Output ~ 0
OUT_6P
Text HLabel 13600 5150 2    59   Output ~ 0
OUT_6N
Text HLabel 13600 5250 2    59   Output ~ 0
OUT_7P
Text HLabel 13600 5350 2    59   Output ~ 0
OUT_7N
Text HLabel 13600 5450 2    59   Output ~ 0
OUT_8P
Text HLabel 13600 5550 2    59   Output ~ 0
OUT_8N
Text HLabel 13600 5650 2    59   Output ~ 0
OUT_9P
Text HLabel 13600 5750 2    59   Output ~ 0
OUT_9N
Text HLabel 13600 5850 2    59   Output ~ 0
OUT_10P
Text HLabel 13600 5950 2    59   Output ~ 0
OUT_10N
Text HLabel 13600 6050 2    59   Output ~ 0
OUT_11P
Text HLabel 13600 6150 2    59   Output ~ 0
OUT_11N
Text HLabel 13600 6250 2    59   Output ~ 0
OUT_12P
Text HLabel 13600 6350 2    59   Output ~ 0
OUT_12N
Text HLabel 13600 6450 2    59   Output ~ 0
OUT_13P
Text HLabel 13600 6550 2    59   Output ~ 0
OUT_13N
Text HLabel 13600 6650 2    59   Output ~ 0
OUT_14P
Text HLabel 13600 6850 2    59   Output ~ 0
OUT_15P
Text HLabel 13600 6750 2    59   Output ~ 0
OUT_14N
Text HLabel 13600 6950 2    59   Output ~ 0
OUT_15N
Text HLabel 13600 7050 2    59   Output ~ 0
OUT_16P
Text HLabel 13600 7150 2    59   Output ~ 0
OUT_16N
Wire Wire Line
	13150 4050 13600 4050
Wire Wire Line
	13600 4150 13150 4150
Wire Wire Line
	13150 4250 13600 4250
Wire Wire Line
	13600 4350 13150 4350
Wire Wire Line
	13150 4450 13600 4450
Wire Wire Line
	13600 4550 13150 4550
Wire Wire Line
	13150 4650 13600 4650
Wire Wire Line
	13600 4750 13150 4750
Wire Wire Line
	13150 4850 13600 4850
Wire Wire Line
	13600 4950 13150 4950
Wire Wire Line
	13150 5050 13600 5050
Wire Wire Line
	13600 5150 13150 5150
Wire Wire Line
	13150 5250 13600 5250
Wire Wire Line
	13600 5350 13150 5350
Wire Wire Line
	13150 5450 13600 5450
Wire Wire Line
	13150 5550 13600 5550
Wire Wire Line
	13600 5650 13150 5650
Wire Wire Line
	13150 5750 13600 5750
Wire Wire Line
	13600 5850 13150 5850
Wire Wire Line
	13150 5950 13600 5950
Wire Wire Line
	13600 6050 13150 6050
Wire Wire Line
	13150 6150 13600 6150
Wire Wire Line
	13600 6250 13150 6250
Wire Wire Line
	13150 6350 13600 6350
Wire Wire Line
	13600 6450 13150 6450
Wire Wire Line
	13150 6550 13600 6550
Wire Wire Line
	13600 6650 13150 6650
Wire Wire Line
	13150 6750 13600 6750
Wire Wire Line
	13600 6850 13150 6850
Wire Wire Line
	13150 6950 13600 6950
Wire Wire Line
	13600 7050 13150 7050
Wire Wire Line
	13150 7150 13600 7150
$Comp
L C C555
U 1 1 56345FEC
P 10200 1650
F 0 "C555" H 10200 1750 40  0000 L CNN
F 1 "100n" H 10206 1565 40  0000 L CNN
F 2 "MyKiCadLibs-Footprints:SMD-0603" H 10238 1500 30  0000 C CNN
F 3 "~" H 10200 1650 60  0000 C CNN
	1    10200 1650
	1    0    0    -1  
$EndComp
Wire Wire Line
	10200 2150 10200 1850
Wire Wire Line
	10200 1050 10200 1450
Connection ~ 9800 1050
Text Label 8700 6500 0    60   ~ 0
SA
Wire Wire Line
	8700 6500 9600 6500
Wire Wire Line
	4600 7250 4600 7300
$Comp
L C C509
U 1 1 5635B113
P 13250 1600
F 0 "C509" H 13250 1700 40  0000 L CNN
F 1 "100n" H 13256 1515 40  0000 L CNN
F 2 "MyKiCadLibs-Footprints:SMD-0805" H 13288 1450 30  0000 C CNN
F 3 "~" H 13250 1600 60  0000 C CNN
	1    13250 1600
	1    0    0    -1  
$EndComp
Wire Wire Line
	13250 1000 13250 1400
Wire Wire Line
	13250 2100 13250 1800
Connection ~ 13250 1000
Connection ~ 13250 2100
$EndSCHEMATC
