EESchema Schematic File Version 2
LIBS:power
LIBS:MyKiCadLibs-Lib
LIBS:DAC-ADAU1966-16Channel-cache
EELAYER 25 0
EELAYER END
$Descr A3 16535 11693
encoding utf-8
Sheet 4 6
Title ""
Date ""
Rev ""
Comp ""
Comment1 ""
Comment2 ""
Comment3 ""
Comment4 ""
$EndDescr
$Comp
L R R401
U 1 1 56333402
P 1600 1200
F 0 "R401" V 1520 1200 40  0000 C CNN
F 1 "240" V 1607 1201 40  0000 C CNN
F 2 "MyKiCadLibs-Footprints:SMD-1206" V 1530 1200 30  0001 C CNN
F 3 "" H 1600 1200 30  0000 C CNN
	1    1600 1200
	0    -1   -1   0   
$EndComp
$Comp
L R R402
U 1 1 563142F6
P 1600 2000
F 0 "R402" V 1520 2000 40  0000 C CNN
F 1 "240" V 1607 2001 40  0000 C CNN
F 2 "MyKiCadLibs-Footprints:SMD-1206" V 1530 2000 30  0001 C CNN
F 3 "" H 1600 2000 30  0000 C CNN
	1    1600 2000
	0    -1   -1   0   
$EndComp
$Comp
L C C401
U 1 1 5631450B
P 1900 1600
F 0 "C401" H 1900 1700 40  0000 L CNN
F 1 "2n7" H 1906 1515 40  0000 L CNN
F 2 "MyKiCadLibs-Footprints:SMD-0805" H 1938 1450 30  0001 C CNN
F 3 "" H 1900 1600 60  0000 C CNN
	1    1900 1600
	-1   0    0    1   
$EndComp
Text HLabel 1250 1200 0    60   Input ~ 0
P1
Text HLabel 1250 2000 0    60   Input ~ 0
N1
$Comp
L R R433
U 1 1 56333405
P 4450 1100
F 0 "R433" V 4370 1100 40  0000 C CNN
F 1 "100" V 4457 1101 40  0000 C CNN
F 2 "MyKiCadLibs-Footprints:SMD-1206" V 4380 1100 30  0001 C CNN
F 3 "" H 4450 1100 30  0000 C CNN
	1    4450 1100
	0    1    1    0   
$EndComp
$Comp
L R R481
U 1 1 56333406
P 15300 900
F 0 "R481" V 15220 900 40  0000 C CNN
F 1 "1" V 15307 901 40  0000 C CNN
F 2 "MyKiCadLibs-Footprints:SMD-0805" V 15230 900 30  0001 C CNN
F 3 "" H 15300 900 30  0000 C CNN
	1    15300 900 
	0    1    1    0   
$EndComp
$Comp
L R R484
U 1 1 56333407
P 15400 2400
F 0 "R484" V 15320 2400 40  0000 C CNN
F 1 "1" V 15407 2401 40  0000 C CNN
F 2 "MyKiCadLibs-Footprints:SMD-0805" V 15330 2400 30  0001 C CNN
F 3 "" H 15400 2400 30  0000 C CNN
	1    15400 2400
	0    1    1    0   
$EndComp
$Comp
L C C488
U 1 1 56333408
P 15350 1800
F 0 "C488" H 15350 1900 40  0000 L CNN
F 1 "100p" H 15356 1715 40  0000 L CNN
F 2 "MyKiCadLibs-Footprints:SMD-0805" H 15388 1650 30  0001 C CNN
F 3 "" H 15350 1800 60  0000 C CNN
	1    15350 1800
	0    -1   -1   0   
$EndComp
$Comp
L R R483
U 1 1 56315FAB
P 15400 2200
F 0 "R483" V 15320 2200 40  0000 C CNN
F 1 "47" V 15407 2201 40  0000 C CNN
F 2 "MyKiCadLibs-Footprints:SMD-0805" V 15330 2200 30  0001 C CNN
F 3 "" H 15400 2200 30  0000 C CNN
	1    15400 2200
	0    1    1    0   
$EndComp
$Comp
L VEE #PWR031
U 1 1 563162A2
P 15750 2450
F 0 "#PWR031" H 15750 2300 50  0001 C CNN
F 1 "VEE" H 15750 2600 50  0000 C CNN
F 2 "" H 15750 2450 60  0000 C CNN
F 3 "" H 15750 2450 60  0000 C CNN
	1    15750 2450
	-1   0    0    1   
$EndComp
$Comp
L VCC #PWR032
U 1 1 563162D6
P 15600 850
F 0 "#PWR032" H 15600 700 50  0001 C CNN
F 1 "VCC" H 15600 1000 50  0000 C CNN
F 2 "" H 15600 850 60  0000 C CNN
F 3 "" H 15600 850 60  0000 C CNN
	1    15600 850 
	1    0    0    -1  
$EndComp
$Comp
L C C437
U 1 1 56333424
P 6250 950
F 0 "C437" H 6250 1050 40  0000 L CNN
F 1 "100n" H 6256 865 40  0000 L CNN
F 2 "MyKiCadLibs-Footprints:SMD-0805" H 6288 800 30  0001 C CNN
F 3 "" H 6250 950 60  0000 C CNN
	1    6250 950 
	-1   0    0    1   
$EndComp
$Comp
L C C433
U 1 1 56316E6D
P 6000 950
F 0 "C433" H 6000 1050 40  0000 L CNN
F 1 "1n" H 6006 865 40  0000 L CNN
F 2 "MyKiCadLibs-Footprints:SMD-0805" H 6038 800 30  0001 C CNN
F 3 "" H 6000 950 60  0000 C CNN
	1    6000 950 
	-1   0    0    1   
$EndComp
$Comp
L GNDA #PWR033
U 1 1 5633343E
P 14900 1850
F 0 "#PWR033" H 14900 1600 50  0001 C CNN
F 1 "GNDA" H 14900 1700 50  0000 C CNN
F 2 "" H 14900 1850 60  0000 C CNN
F 3 "" H 14900 1850 60  0000 C CNN
	1    14900 1850
	1    0    0    -1  
$EndComp
$Comp
L R R482
U 1 1 563175A6
P 15300 1100
F 0 "R482" V 15220 1100 40  0000 C CNN
F 1 "47" V 15307 1101 40  0000 C CNN
F 2 "MyKiCadLibs-Footprints:SMD-0805" V 15230 1100 30  0001 C CNN
F 3 "" H 15300 1100 30  0000 C CNN
	1    15300 1100
	0    1    1    0   
$EndComp
$Comp
L C C487
U 1 1 56333440
P 15300 1350
F 0 "C487" H 15300 1450 40  0000 L CNN
F 1 "100p" H 15306 1265 40  0000 L CNN
F 2 "MyKiCadLibs-Footprints:SMD-0805" H 15338 1200 30  0001 C CNN
F 3 "" H 15300 1350 60  0000 C CNN
	1    15300 1350
	0    -1   -1   0   
$EndComp
$Comp
L C C486
U 1 1 56333441
P 14750 1200
F 0 "C486" H 14750 1300 40  0000 L CNN
F 1 "100n" H 14756 1115 40  0000 L CNN
F 2 "MyKiCadLibs-Footprints:SMD-0805" H 14788 1050 30  0001 C CNN
F 3 "" H 14750 1200 60  0000 C CNN
	1    14750 1200
	-1   0    0    1   
$EndComp
$Comp
L C C484
U 1 1 56333442
P 14450 1200
F 0 "C484" H 14450 1300 40  0000 L CNN
F 1 "1n" H 14456 1115 40  0000 L CNN
F 2 "MyKiCadLibs-Footprints:SMD-0805" H 14488 1050 30  0001 C CNN
F 3 "" H 14450 1200 60  0000 C CNN
	1    14450 1200
	-1   0    0    1   
$EndComp
$Comp
L CP1 C481
U 1 1 56317E37
P 14050 1200
F 0 "C481" H 14100 1300 50  0000 L CNN
F 1 "100u" H 14100 1100 50  0000 L CNN
F 2 "MyKiCadLibs-Footprints:CAP-TH-D8mmP3.5mm" H 14050 1200 60  0001 C CNN
F 3 "" H 14050 1200 60  0000 C CNN
	1    14050 1200
	1    0    0    -1  
$EndComp
$Comp
L C C485
U 1 1 5631838C
P 14700 2100
F 0 "C485" H 14700 2200 40  0000 L CNN
F 1 "100n" H 14706 2015 40  0000 L CNN
F 2 "MyKiCadLibs-Footprints:SMD-0805" H 14738 1950 30  0001 C CNN
F 3 "" H 14700 2100 60  0000 C CNN
	1    14700 2100
	-1   0    0    1   
$EndComp
$Comp
L C C483
U 1 1 56333445
P 14400 2100
F 0 "C483" H 14400 2200 40  0000 L CNN
F 1 "1n" H 14406 2015 40  0000 L CNN
F 2 "MyKiCadLibs-Footprints:SMD-0805" H 14438 1950 30  0001 C CNN
F 3 "" H 14400 2100 60  0000 C CNN
	1    14400 2100
	-1   0    0    1   
$EndComp
$Comp
L CP1 C482
U 1 1 5631839C
P 14050 2100
F 0 "C482" H 14100 2200 50  0000 L CNN
F 1 "100u" H 14100 2000 50  0000 L CNN
F 2 "MyKiCadLibs-Footprints:CAP-TH-D8mmP3.5mm" H 14050 2100 60  0001 C CNN
F 3 "" H 14050 2100 60  0000 C CNN
	1    14050 2100
	1    0    0    -1  
$EndComp
$Comp
L C C429
U 1 1 563195BA
P 5750 950
F 0 "C429" H 5750 1050 40  0000 L CNN
F 1 "10u" H 5756 865 40  0000 L CNN
F 2 "MyKiCadLibs-Footprints:SMD-0805" H 5788 800 30  0001 C CNN
F 3 "" H 5750 950 60  0000 C CNN
	1    5750 950 
	-1   0    0    1   
$EndComp
$Comp
L CONN_2x1 P401
U 1 1 563334C0
P 5400 1500
F 0 "P401" V 5895 1345 40  0000 C CNN
F 1 "CONN_2x1" V 5840 1460 40  0000 C CNN
F 2 "MyKiCadLibs-Footprints:CONN_SIL_2" H 5740 1390 60  0001 C CNN
F 3 "" H 5740 1390 60  0000 C CNN
	1    5400 1500
	1    0    0    -1  
$EndComp
Text Label 14050 900  0    60   ~ 0
VCC1
Text Label 14050 2400 0    60   ~ 0
VEE1
Text Label 3500 1650 1    60   ~ 0
VEE1
Text Label 3500 700  2    60   ~ 0
VCC1
$Comp
L IC-OPAMP-DUAL-SOIC8 U401
U 1 1 563333F2
P 3500 1100
F 0 "U401" H 3550 950 60  0000 L CNN
F 1 "IC-OPAMP-DUAL-SOIC8" H 3550 850 60  0000 L CNN
F 2 "MyKiCadLibs-Footprints:IC_SOIC_8" H 3500 1100 60  0001 C CNN
F 3 "" H 3500 1100 60  0000 C CNN
	1    3500 1100
	1    0    0    -1  
$EndComp
$Comp
L IC-OPAMP-DUAL-SOIC8 U401
U 2 1 562FD891
P 3500 2400
F 0 "U401" H 3550 2250 60  0000 L CNN
F 1 "IC-OPAMP-DUAL-SOIC8" H 3550 2150 60  0000 L CNN
F 2 "MyKiCadLibs-Footprints:IC_SOIC_8" H 3500 2400 60  0001 C CNN
F 3 "" H 3500 2400 60  0000 C CNN
	2    3500 2400
	1    0    0    -1  
$EndComp
Text Label 5750 1250 0    60   ~ 0
VEE1
Text Label 5750 600  0    60   ~ 0
VCC1
$Comp
L R R425
U 1 1 56302913
P 3500 1750
F 0 "R425" V 3420 1750 40  0000 C CNN
F 1 "1k" V 3507 1751 40  0000 C CNN
F 2 "MyKiCadLibs-Footprints:SMD-1206" V 3430 1750 30  0001 C CNN
F 3 "" H 3500 1750 30  0000 C CNN
	1    3500 1750
	0    -1   -1   0   
$EndComp
$Comp
L R R426
U 1 1 56302E3E
P 3500 2900
F 0 "R426" V 3420 2900 40  0000 C CNN
F 1 "1k" V 3507 2901 40  0000 C CNN
F 2 "MyKiCadLibs-Footprints:SMD-1206" V 3430 2900 30  0001 C CNN
F 3 "" H 3500 2900 30  0000 C CNN
	1    3500 2900
	0    -1   -1   0   
$EndComp
$Comp
L R R434
U 1 1 56303137
P 4450 2400
F 0 "R434" V 4370 2400 40  0000 C CNN
F 1 "100" V 4457 2401 40  0000 C CNN
F 2 "MyKiCadLibs-Footprints:SMD-1206" V 4380 2400 30  0001 C CNN
F 3 "" H 4450 2400 30  0000 C CNN
	1    4450 2400
	0    1    1    0   
$EndComp
$Comp
L CP1 C414
U 1 1 563333F7
P 5050 1100
F 0 "C414" H 5100 1200 50  0000 L CNN
F 1 "100u" H 5100 1000 50  0000 L CNN
F 2 "MyKiCadLibs-Footprints:CAP-TH-D8mmP3.5mm" H 5050 1100 60  0001 C CNN
F 3 "" H 5050 1100 60  0000 C CNN
	1    5050 1100
	0    -1   -1   0   
$EndComp
$Comp
L C C413
U 1 1 5630406F
P 5050 750
F 0 "C413" H 5050 850 40  0000 L CNN
F 1 "100n" H 5056 665 40  0000 L CNN
F 2 "MyKiCadLibs-Footprints:SMD-1210" H 5088 600 30  0001 C CNN
F 3 "" H 5050 750 60  0000 C CNN
	1    5050 750 
	0    -1   -1   0   
$EndComp
$Comp
L CP1 C416
U 1 1 563043EC
P 5050 2400
F 0 "C416" H 5100 2500 50  0000 L CNN
F 1 "100u" H 5100 2300 50  0000 L CNN
F 2 "MyKiCadLibs-Footprints:CAP-TH-D8mmP3.5mm" H 5050 2400 60  0001 C CNN
F 3 "" H 5050 2400 60  0000 C CNN
	1    5050 2400
	0    -1   -1   0   
$EndComp
$Comp
L C C415
U 1 1 563043F2
P 5050 2050
F 0 "C415" H 5050 2150 40  0000 L CNN
F 1 "100n" H 5056 1965 40  0000 L CNN
F 2 "MyKiCadLibs-Footprints:SMD-1210" H 5088 1900 30  0001 C CNN
F 3 "" H 5050 2050 60  0000 C CNN
	1    5050 2050
	0    -1   -1   0   
$EndComp
$Comp
L R R417
U 1 1 56304BC5
P 2600 1350
F 0 "R417" V 2520 1350 40  0000 C CNN
F 1 "2k2" V 2607 1351 40  0000 C CNN
F 2 "MyKiCadLibs-Footprints:SMD-1206" V 2530 1350 30  0001 C CNN
F 3 "" H 2600 1350 30  0000 C CNN
	1    2600 1350
	1    0    0    -1  
$EndComp
$Comp
L R R418
U 1 1 56304D73
P 2600 2000
F 0 "R418" V 2520 2000 40  0000 C CNN
F 1 "2k2" V 2607 2001 40  0000 C CNN
F 2 "MyKiCadLibs-Footprints:SMD-1206" V 2530 2000 30  0001 C CNN
F 3 "" H 2600 2000 30  0000 C CNN
	1    2600 2000
	1    0    0    -1  
$EndComp
$Comp
L GNDA #PWR034
U 1 1 563051ED
P 2800 1750
F 0 "#PWR034" H 2800 1500 50  0001 C CNN
F 1 "GNDA" H 2800 1600 50  0000 C CNN
F 2 "" H 2800 1750 60  0000 C CNN
F 3 "" H 2800 1750 60  0000 C CNN
	1    2800 1750
	1    0    0    -1  
$EndComp
$Comp
L C C405
U 1 1 563333FE
P 3500 2000
F 0 "C405" H 3500 2100 40  0000 L CNN
F 1 "N/F" H 3506 1915 40  0000 L CNN
F 2 "MyKiCadLibs-Footprints:SMD-0805" H 3538 1850 30  0001 C CNN
F 3 "" H 3500 2000 60  0000 C CNN
	1    3500 2000
	0    -1   -1   0   
$EndComp
$Comp
L C C406
U 1 1 563060EE
P 3500 3150
F 0 "C406" H 3500 3250 40  0000 L CNN
F 1 "N/F" H 3506 3065 40  0000 L CNN
F 2 "MyKiCadLibs-Footprints:SMD-0805" H 3538 3000 30  0001 C CNN
F 3 "" H 3500 3150 60  0000 C CNN
	1    3500 3150
	0    -1   -1   0   
$EndComp
$Comp
L R R409
U 1 1 56333400
P 2250 1000
F 0 "R409" V 2170 1000 40  0000 C CNN
F 1 "2k2" V 2257 1001 40  0000 C CNN
F 2 "MyKiCadLibs-Footprints:SMD-1206" V 2180 1000 30  0001 C CNN
F 3 "" H 2250 1000 30  0000 C CNN
	1    2250 1000
	0    -1   -1   0   
$EndComp
$Comp
L R R410
U 1 1 56306E36
P 2250 2300
F 0 "R410" V 2170 2300 40  0000 C CNN
F 1 "2k2" V 2257 2301 40  0000 C CNN
F 2 "MyKiCadLibs-Footprints:SMD-1206" V 2180 2300 30  0001 C CNN
F 3 "" H 2250 2300 30  0000 C CNN
	1    2250 2300
	0    -1   -1   0   
$EndComp
Wire Wire Line
	1850 1200 1900 1200
Connection ~ 1900 1200
Wire Wire Line
	4000 1100 4200 1100
Wire Wire Line
	1850 2000 1900 2000
Wire Wire Line
	1900 1000 1900 1400
Wire Wire Line
	1900 1800 1900 2300
Wire Wire Line
	1250 2000 1350 2000
Wire Wire Line
	1350 1200 1250 1200
Wire Wire Line
	15150 2200 15100 2200
Wire Wire Line
	14050 1800 15150 1800
Wire Wire Line
	15750 1800 15750 2200
Wire Wire Line
	15750 2200 15650 2200
Wire Wire Line
	15100 2200 15100 2400
Wire Wire Line
	15650 2400 15750 2400
Wire Wire Line
	15750 2400 15750 2450
Wire Wire Line
	6000 1150 6000 1250
Wire Wire Line
	5750 1250 6250 1250
Wire Wire Line
	6250 600  6250 750 
Wire Wire Line
	6000 750  6000 600 
Connection ~ 15100 2400
Wire Wire Line
	14900 1850 14900 1800
Wire Wire Line
	15600 850  15600 900 
Wire Wire Line
	15600 900  15550 900 
Wire Wire Line
	15050 1100 15000 1100
Wire Wire Line
	15000 1100 15000 900 
Connection ~ 15000 900 
Wire Wire Line
	15000 1350 15000 1800
Wire Wire Line
	15000 1350 15100 1350
Wire Wire Line
	15500 1350 15600 1350
Wire Wire Line
	15600 1350 15600 1100
Wire Wire Line
	15600 1100 15550 1100
Wire Wire Line
	14750 900  14750 1000
Connection ~ 14750 900 
Wire Wire Line
	14450 1000 14450 900 
Connection ~ 14450 900 
Wire Wire Line
	14750 1400 14750 1800
Wire Wire Line
	14450 1400 14450 1800
Wire Wire Line
	14050 900  14050 1000
Wire Wire Line
	14050 1400 14050 1900
Wire Wire Line
	14700 1900 14700 1800
Wire Wire Line
	14400 1900 14400 1800
Wire Wire Line
	14700 2400 14700 2300
Wire Wire Line
	14400 2300 14400 2400
Wire Wire Line
	15550 1800 15750 1800
Connection ~ 14900 1800
Connection ~ 14700 1800
Connection ~ 14400 1800
Wire Wire Line
	14050 2300 14050 2400
Connection ~ 14400 2400
Connection ~ 14700 2400
Wire Wire Line
	5750 750  5750 600 
Connection ~ 6000 600 
Wire Wire Line
	5750 1150 5750 1250
Connection ~ 6000 1250
Wire Wire Line
	14050 900  15050 900 
Wire Wire Line
	14050 2400 15150 2400
Connection ~ 15000 1800
Connection ~ 14750 1800
Connection ~ 14450 1800
Connection ~ 14050 1800
Wire Wire Line
	3500 1650 3500 1450
Connection ~ 1900 2000
Wire Wire Line
	5750 600  6250 600 
Wire Wire Line
	6250 1250 6250 1150
Wire Wire Line
	3750 1750 4100 1750
Wire Wire Line
	4100 1750 4100 1100
Connection ~ 4100 1100
Wire Wire Line
	2950 1750 3250 1750
Wire Wire Line
	2950 1750 2950 1200
Wire Wire Line
	2950 1200 3000 1200
Wire Wire Line
	2500 1000 3000 1000
Wire Wire Line
	2500 2300 3000 2300
Wire Wire Line
	3750 2900 4100 2900
Wire Wire Line
	4100 2900 4100 2400
Wire Wire Line
	4000 2400 4200 2400
Wire Wire Line
	3000 2500 2950 2500
Wire Wire Line
	2950 2500 2950 2900
Wire Wire Line
	2950 2900 3250 2900
Connection ~ 4100 2400
Wire Wire Line
	4850 750  4750 750 
Wire Wire Line
	4750 750  4750 1100
Wire Wire Line
	4700 1100 4850 1100
Connection ~ 4750 1100
Wire Wire Line
	5250 750  5300 750 
Wire Wire Line
	5300 750  5300 1500
Wire Wire Line
	5300 1100 5250 1100
Wire Wire Line
	4850 2050 4750 2050
Wire Wire Line
	4750 2050 4750 2400
Wire Wire Line
	4700 2400 4850 2400
Connection ~ 4750 2400
Wire Wire Line
	5250 2050 5300 2050
Wire Wire Line
	5300 1600 5300 2400
Wire Wire Line
	5300 2400 5250 2400
Wire Wire Line
	5300 1500 5400 1500
Connection ~ 5300 1100
Wire Wire Line
	5400 1600 5300 1600
Connection ~ 5300 2050
Wire Wire Line
	2600 1100 2600 1000
Connection ~ 2600 1000
Wire Wire Line
	2600 2250 2600 2300
Connection ~ 2600 2300
Wire Wire Line
	2600 1600 2600 1750
Wire Wire Line
	2600 1650 2800 1650
Wire Wire Line
	2800 1650 2800 1750
Connection ~ 2600 1650
Wire Wire Line
	3300 2000 3200 2000
Wire Wire Line
	3200 2000 3200 1750
Connection ~ 3200 1750
Wire Wire Line
	3700 2000 3800 2000
Wire Wire Line
	3800 2000 3800 1750
Connection ~ 3800 1750
Wire Wire Line
	3300 3150 3200 3150
Wire Wire Line
	3200 3150 3200 2900
Wire Wire Line
	3700 3150 3800 3150
Wire Wire Line
	3800 3150 3800 2900
Connection ~ 3200 2900
Connection ~ 3800 2900
Wire Wire Line
	1900 2300 2000 2300
Wire Wire Line
	1900 1000 2000 1000
Wire Wire Line
	3300 700  3500 700 
Wire Wire Line
	3500 700  3500 750 
$Comp
L R R403
U 1 1 56316AA1
P 1600 3850
F 0 "R403" V 1520 3850 40  0000 C CNN
F 1 "240" V 1607 3851 40  0000 C CNN
F 2 "MyKiCadLibs-Footprints:SMD-1206" V 1530 3850 30  0001 C CNN
F 3 "" H 1600 3850 30  0000 C CNN
	1    1600 3850
	0    -1   -1   0   
$EndComp
$Comp
L R R404
U 1 1 56316AA7
P 1600 4650
F 0 "R404" V 1520 4650 40  0000 C CNN
F 1 "240" V 1607 4651 40  0000 C CNN
F 2 "MyKiCadLibs-Footprints:SMD-1206" V 1530 4650 30  0001 C CNN
F 3 "" H 1600 4650 30  0000 C CNN
	1    1600 4650
	0    -1   -1   0   
$EndComp
$Comp
L C C402
U 1 1 56316AAD
P 1900 4250
F 0 "C402" H 1900 4350 40  0000 L CNN
F 1 "2n7" H 1906 4165 40  0000 L CNN
F 2 "MyKiCadLibs-Footprints:SMD-0805" H 1938 4100 30  0001 C CNN
F 3 "" H 1900 4250 60  0000 C CNN
	1    1900 4250
	-1   0    0    1   
$EndComp
Text HLabel 1250 3850 0    60   Input ~ 0
P2
Text HLabel 1250 4650 0    60   Input ~ 0
N2
$Comp
L R R435
U 1 1 5633340F
P 4450 3750
F 0 "R435" V 4370 3750 40  0000 C CNN
F 1 "100" V 4457 3751 40  0000 C CNN
F 2 "MyKiCadLibs-Footprints:SMD-1206" V 4380 3750 30  0001 C CNN
F 3 "" H 4450 3750 30  0000 C CNN
	1    4450 3750
	0    1    1    0   
$EndComp
$Comp
L C C438
U 1 1 56333410
P 6250 3600
F 0 "C438" H 6250 3700 40  0000 L CNN
F 1 "100n" H 6256 3515 40  0000 L CNN
F 2 "MyKiCadLibs-Footprints:SMD-0805" H 6288 3450 30  0001 C CNN
F 3 "" H 6250 3600 60  0000 C CNN
	1    6250 3600
	-1   0    0    1   
$EndComp
$Comp
L C C434
U 1 1 56316AC1
P 6000 3600
F 0 "C434" H 6000 3700 40  0000 L CNN
F 1 "1n" H 6006 3515 40  0000 L CNN
F 2 "MyKiCadLibs-Footprints:SMD-0805" H 6038 3450 30  0001 C CNN
F 3 "" H 6000 3600 60  0000 C CNN
	1    6000 3600
	-1   0    0    1   
$EndComp
$Comp
L C C430
U 1 1 56316AC7
P 5750 3600
F 0 "C430" H 5750 3700 40  0000 L CNN
F 1 "10u" H 5756 3515 40  0000 L CNN
F 2 "MyKiCadLibs-Footprints:SMD-0805" H 5788 3450 30  0001 C CNN
F 3 "" H 5750 3600 60  0000 C CNN
	1    5750 3600
	-1   0    0    1   
$EndComp
$Comp
L CONN_2x1 P402
U 1 1 56316ACD
P 5400 4150
F 0 "P402" V 5895 3995 40  0000 C CNN
F 1 "CONN_2x1" V 5840 4110 40  0000 C CNN
F 2 "MyKiCadLibs-Footprints:CONN_SIL_2" H 5740 4040 60  0001 C CNN
F 3 "" H 5740 4040 60  0000 C CNN
	1    5400 4150
	1    0    0    -1  
$EndComp
Text Label 3500 4300 1    60   ~ 0
VEE1
Text Label 3500 3350 2    60   ~ 0
VCC1
$Comp
L IC-OPAMP-DUAL-SOIC8 U402
U 1 1 56316AD5
P 3500 3750
F 0 "U402" H 3550 3600 60  0000 L CNN
F 1 "IC-OPAMP-DUAL-SOIC8" H 3550 3500 60  0000 L CNN
F 2 "MyKiCadLibs-Footprints:IC_SOIC_8" H 3500 3750 60  0001 C CNN
F 3 "" H 3500 3750 60  0000 C CNN
	1    3500 3750
	1    0    0    -1  
$EndComp
$Comp
L IC-OPAMP-DUAL-SOIC8 U402
U 2 1 56316ADB
P 3500 5050
F 0 "U402" H 3550 4900 60  0000 L CNN
F 1 "IC-OPAMP-DUAL-SOIC8" H 3550 4800 60  0000 L CNN
F 2 "MyKiCadLibs-Footprints:IC_SOIC_8" H 3500 5050 60  0001 C CNN
F 3 "" H 3500 5050 60  0000 C CNN
	2    3500 5050
	1    0    0    -1  
$EndComp
Text Label 5750 3900 0    60   ~ 0
VEE1
Text Label 5750 3250 0    60   ~ 0
VCC1
$Comp
L R R427
U 1 1 56316AE3
P 3500 4400
F 0 "R427" V 3420 4400 40  0000 C CNN
F 1 "1k" V 3507 4401 40  0000 C CNN
F 2 "MyKiCadLibs-Footprints:SMD-1206" V 3430 4400 30  0001 C CNN
F 3 "" H 3500 4400 30  0000 C CNN
	1    3500 4400
	0    -1   -1   0   
$EndComp
$Comp
L R R428
U 1 1 56333417
P 3500 5550
F 0 "R428" V 3420 5550 40  0000 C CNN
F 1 "1k" V 3507 5551 40  0000 C CNN
F 2 "MyKiCadLibs-Footprints:SMD-1206" V 3430 5550 30  0001 C CNN
F 3 "" H 3500 5550 30  0000 C CNN
	1    3500 5550
	0    -1   -1   0   
$EndComp
$Comp
L R R436
U 1 1 56316AEF
P 4450 5050
F 0 "R436" V 4370 5050 40  0000 C CNN
F 1 "100" V 4457 5051 40  0000 C CNN
F 2 "MyKiCadLibs-Footprints:SMD-1206" V 4380 5050 30  0001 C CNN
F 3 "" H 4450 5050 30  0000 C CNN
	1    4450 5050
	0    1    1    0   
$EndComp
$Comp
L CP1 C418
U 1 1 56333419
P 5050 3750
F 0 "C418" H 5100 3850 50  0000 L CNN
F 1 "100u" H 5100 3650 50  0000 L CNN
F 2 "MyKiCadLibs-Footprints:CAP-TH-D8mmP3.5mm" H 5050 3750 60  0001 C CNN
F 3 "" H 5050 3750 60  0000 C CNN
	1    5050 3750
	0    -1   -1   0   
$EndComp
$Comp
L C C417
U 1 1 56316AFB
P 5050 3400
F 0 "C417" H 5050 3500 40  0000 L CNN
F 1 "100n" H 5056 3315 40  0000 L CNN
F 2 "MyKiCadLibs-Footprints:SMD-1210" H 5088 3250 30  0001 C CNN
F 3 "" H 5050 3400 60  0000 C CNN
	1    5050 3400
	0    -1   -1   0   
$EndComp
$Comp
L CP1 C420
U 1 1 56316B01
P 5050 5050
F 0 "C420" H 5100 5150 50  0000 L CNN
F 1 "100u" H 5100 4950 50  0000 L CNN
F 2 "MyKiCadLibs-Footprints:CAP-TH-D8mmP3.5mm" H 5050 5050 60  0001 C CNN
F 3 "" H 5050 5050 60  0000 C CNN
	1    5050 5050
	0    -1   -1   0   
$EndComp
$Comp
L C C419
U 1 1 5633341C
P 5050 4700
F 0 "C419" H 5050 4800 40  0000 L CNN
F 1 "100n" H 5056 4615 40  0000 L CNN
F 2 "MyKiCadLibs-Footprints:SMD-1210" H 5088 4550 30  0001 C CNN
F 3 "" H 5050 4700 60  0000 C CNN
	1    5050 4700
	0    -1   -1   0   
$EndComp
$Comp
L R R419
U 1 1 5633341D
P 2600 4000
F 0 "R419" V 2520 4000 40  0000 C CNN
F 1 "2k2" V 2607 4001 40  0000 C CNN
F 2 "MyKiCadLibs-Footprints:SMD-1206" V 2530 4000 30  0001 C CNN
F 3 "" H 2600 4000 30  0000 C CNN
	1    2600 4000
	1    0    0    -1  
$EndComp
$Comp
L R R420
U 1 1 5633341E
P 2600 4650
F 0 "R420" V 2520 4650 40  0000 C CNN
F 1 "2k2" V 2607 4651 40  0000 C CNN
F 2 "MyKiCadLibs-Footprints:SMD-1206" V 2530 4650 30  0001 C CNN
F 3 "" H 2600 4650 30  0000 C CNN
	1    2600 4650
	1    0    0    -1  
$EndComp
$Comp
L GNDA #PWR035
U 1 1 5633341F
P 2800 4400
F 0 "#PWR035" H 2800 4150 50  0001 C CNN
F 1 "GNDA" H 2800 4250 50  0000 C CNN
F 2 "" H 2800 4400 60  0000 C CNN
F 3 "" H 2800 4400 60  0000 C CNN
	1    2800 4400
	1    0    0    -1  
$EndComp
$Comp
L C C407
U 1 1 56316B1F
P 3500 4650
F 0 "C407" H 3500 4750 40  0000 L CNN
F 1 "N/F" H 3506 4565 40  0000 L CNN
F 2 "MyKiCadLibs-Footprints:SMD-0805" H 3538 4500 30  0001 C CNN
F 3 "" H 3500 4650 60  0000 C CNN
	1    3500 4650
	0    -1   -1   0   
$EndComp
$Comp
L C C408
U 1 1 56333421
P 3500 5800
F 0 "C408" H 3500 5900 40  0000 L CNN
F 1 "N/F" H 3506 5715 40  0000 L CNN
F 2 "MyKiCadLibs-Footprints:SMD-0805" H 3538 5650 30  0001 C CNN
F 3 "" H 3500 5800 60  0000 C CNN
	1    3500 5800
	0    -1   -1   0   
$EndComp
$Comp
L R R411
U 1 1 56333422
P 2250 3650
F 0 "R411" V 2170 3650 40  0000 C CNN
F 1 "2k2" V 2257 3651 40  0000 C CNN
F 2 "MyKiCadLibs-Footprints:SMD-1206" V 2180 3650 30  0001 C CNN
F 3 "" H 2250 3650 30  0000 C CNN
	1    2250 3650
	0    -1   -1   0   
$EndComp
$Comp
L R R412
U 1 1 56316B31
P 2250 4950
F 0 "R412" V 2170 4950 40  0000 C CNN
F 1 "2k2" V 2257 4951 40  0000 C CNN
F 2 "MyKiCadLibs-Footprints:SMD-1206" V 2180 4950 30  0001 C CNN
F 3 "" H 2250 4950 30  0000 C CNN
	1    2250 4950
	0    -1   -1   0   
$EndComp
Wire Wire Line
	1850 3850 1900 3850
Connection ~ 1900 3850
Wire Wire Line
	4000 3750 4200 3750
Wire Wire Line
	1850 4650 1900 4650
Wire Wire Line
	1900 3650 1900 4050
Wire Wire Line
	1900 4450 1900 4950
Wire Wire Line
	1250 4650 1350 4650
Wire Wire Line
	1350 3850 1250 3850
Wire Wire Line
	6000 3800 6000 3900
Wire Wire Line
	5750 3900 6250 3900
Wire Wire Line
	6250 3250 6250 3400
Wire Wire Line
	6000 3400 6000 3250
Wire Wire Line
	5750 3400 5750 3250
Connection ~ 6000 3250
Wire Wire Line
	5750 3800 5750 3900
Connection ~ 6000 3900
Wire Wire Line
	3500 4300 3500 4100
Connection ~ 1900 4650
Wire Wire Line
	5750 3250 6250 3250
Wire Wire Line
	6250 3900 6250 3800
Wire Wire Line
	3750 4400 4100 4400
Wire Wire Line
	4100 4400 4100 3750
Connection ~ 4100 3750
Wire Wire Line
	2950 4400 3250 4400
Wire Wire Line
	2950 4400 2950 3850
Wire Wire Line
	2950 3850 3000 3850
Wire Wire Line
	2500 3650 3000 3650
Wire Wire Line
	2500 4950 3000 4950
Wire Wire Line
	3750 5550 4100 5550
Wire Wire Line
	4100 5550 4100 5050
Wire Wire Line
	4000 5050 4200 5050
Wire Wire Line
	3000 5150 2950 5150
Wire Wire Line
	2950 5150 2950 5550
Wire Wire Line
	2950 5550 3250 5550
Connection ~ 4100 5050
Wire Wire Line
	4850 3400 4750 3400
Wire Wire Line
	4750 3400 4750 3750
Wire Wire Line
	4700 3750 4850 3750
Connection ~ 4750 3750
Wire Wire Line
	5250 3400 5300 3400
Wire Wire Line
	5300 3400 5300 4150
Wire Wire Line
	5300 3750 5250 3750
Wire Wire Line
	4850 4700 4750 4700
Wire Wire Line
	4750 4700 4750 5050
Wire Wire Line
	4700 5050 4850 5050
Connection ~ 4750 5050
Wire Wire Line
	5250 4700 5300 4700
Wire Wire Line
	5300 4250 5300 5050
Wire Wire Line
	5300 5050 5250 5050
Wire Wire Line
	5300 4150 5400 4150
Connection ~ 5300 3750
Wire Wire Line
	5400 4250 5300 4250
Connection ~ 5300 4700
Wire Wire Line
	2600 3750 2600 3650
Connection ~ 2600 3650
Wire Wire Line
	2600 4900 2600 4950
Connection ~ 2600 4950
Wire Wire Line
	2600 4250 2600 4400
Wire Wire Line
	2600 4300 2800 4300
Wire Wire Line
	2800 4300 2800 4400
Connection ~ 2600 4300
Wire Wire Line
	3300 4650 3200 4650
Wire Wire Line
	3200 4650 3200 4400
Connection ~ 3200 4400
Wire Wire Line
	3700 4650 3800 4650
Wire Wire Line
	3800 4650 3800 4400
Connection ~ 3800 4400
Wire Wire Line
	3300 5800 3200 5800
Wire Wire Line
	3200 5800 3200 5550
Wire Wire Line
	3700 5800 3800 5800
Wire Wire Line
	3800 5800 3800 5550
Connection ~ 3200 5550
Connection ~ 3800 5550
Wire Wire Line
	1900 4950 2000 4950
Wire Wire Line
	1900 3650 2000 3650
Wire Wire Line
	3300 3350 3500 3350
Wire Wire Line
	3500 3350 3500 3400
$Comp
L R R405
U 1 1 56333426
P 1600 6500
F 0 "R405" V 1520 6500 40  0000 C CNN
F 1 "240" V 1607 6501 40  0000 C CNN
F 2 "MyKiCadLibs-Footprints:SMD-1206" V 1530 6500 30  0001 C CNN
F 3 "" H 1600 6500 30  0000 C CNN
	1    1600 6500
	0    -1   -1   0   
$EndComp
$Comp
L R R406
U 1 1 563173FE
P 1600 7300
F 0 "R406" V 1520 7300 40  0000 C CNN
F 1 "240" V 1607 7301 40  0000 C CNN
F 2 "MyKiCadLibs-Footprints:SMD-1206" V 1530 7300 30  0001 C CNN
F 3 "" H 1600 7300 30  0000 C CNN
	1    1600 7300
	0    -1   -1   0   
$EndComp
$Comp
L C C403
U 1 1 56317404
P 1900 6900
F 0 "C403" H 1900 7000 40  0000 L CNN
F 1 "2n7" H 1906 6815 40  0000 L CNN
F 2 "MyKiCadLibs-Footprints:SMD-0805" H 1938 6750 30  0001 C CNN
F 3 "" H 1900 6900 60  0000 C CNN
	1    1900 6900
	-1   0    0    1   
$EndComp
Text HLabel 1250 6500 0    60   Input ~ 0
P3
Text HLabel 1250 7300 0    60   Input ~ 0
N3
$Comp
L R R437
U 1 1 5631740C
P 4450 6400
F 0 "R437" V 4370 6400 40  0000 C CNN
F 1 "100" V 4457 6401 40  0000 C CNN
F 2 "MyKiCadLibs-Footprints:SMD-1206" V 4380 6400 30  0001 C CNN
F 3 "" H 4450 6400 30  0000 C CNN
	1    4450 6400
	0    1    1    0   
$EndComp
$Comp
L C C439
U 1 1 56317412
P 6250 6250
F 0 "C439" H 6250 6350 40  0000 L CNN
F 1 "100n" H 6256 6165 40  0000 L CNN
F 2 "MyKiCadLibs-Footprints:SMD-0805" H 6288 6100 30  0001 C CNN
F 3 "" H 6250 6250 60  0000 C CNN
	1    6250 6250
	-1   0    0    1   
$EndComp
$Comp
L C C435
U 1 1 56317418
P 6000 6250
F 0 "C435" H 6000 6350 40  0000 L CNN
F 1 "1n" H 6006 6165 40  0000 L CNN
F 2 "MyKiCadLibs-Footprints:SMD-0805" H 6038 6100 30  0001 C CNN
F 3 "" H 6000 6250 60  0000 C CNN
	1    6000 6250
	-1   0    0    1   
$EndComp
$Comp
L C C431
U 1 1 5631741E
P 5750 6250
F 0 "C431" H 5750 6350 40  0000 L CNN
F 1 "10u" H 5756 6165 40  0000 L CNN
F 2 "MyKiCadLibs-Footprints:SMD-0805" H 5788 6100 30  0001 C CNN
F 3 "" H 5750 6250 60  0000 C CNN
	1    5750 6250
	-1   0    0    1   
$EndComp
$Comp
L CONN_2x1 P403
U 1 1 56317424
P 5400 6800
F 0 "P403" V 5895 6645 40  0000 C CNN
F 1 "CONN_2x1" V 5840 6760 40  0000 C CNN
F 2 "MyKiCadLibs-Footprints:CONN_SIL_2" H 5740 6690 60  0001 C CNN
F 3 "" H 5740 6690 60  0000 C CNN
	1    5400 6800
	1    0    0    -1  
$EndComp
Text Label 3500 6950 1    60   ~ 0
VEE1
Text Label 3500 6000 2    60   ~ 0
VCC1
$Comp
L IC-OPAMP-DUAL-SOIC8 U403
U 1 1 5631742C
P 3500 6400
F 0 "U403" H 3550 6250 60  0000 L CNN
F 1 "IC-OPAMP-DUAL-SOIC8" H 3550 6150 60  0000 L CNN
F 2 "MyKiCadLibs-Footprints:IC_SOIC_8" H 3500 6400 60  0001 C CNN
F 3 "" H 3500 6400 60  0000 C CNN
	1    3500 6400
	1    0    0    -1  
$EndComp
$Comp
L IC-OPAMP-DUAL-SOIC8 U403
U 2 1 56317432
P 3500 7700
F 0 "U403" H 3550 7550 60  0000 L CNN
F 1 "IC-OPAMP-DUAL-SOIC8" H 3550 7450 60  0000 L CNN
F 2 "MyKiCadLibs-Footprints:IC_SOIC_8" H 3500 7700 60  0001 C CNN
F 3 "" H 3500 7700 60  0000 C CNN
	2    3500 7700
	1    0    0    -1  
$EndComp
Text Label 5750 6550 0    60   ~ 0
VEE1
Text Label 5750 5900 0    60   ~ 0
VCC1
$Comp
L R R429
U 1 1 5631743A
P 3500 7050
F 0 "R429" V 3420 7050 40  0000 C CNN
F 1 "1k" V 3507 7051 40  0000 C CNN
F 2 "MyKiCadLibs-Footprints:SMD-1206" V 3430 7050 30  0001 C CNN
F 3 "" H 3500 7050 30  0000 C CNN
	1    3500 7050
	0    -1   -1   0   
$EndComp
$Comp
L R R430
U 1 1 56317440
P 3500 8200
F 0 "R430" V 3420 8200 40  0000 C CNN
F 1 "1k" V 3507 8201 40  0000 C CNN
F 2 "MyKiCadLibs-Footprints:SMD-1206" V 3430 8200 30  0001 C CNN
F 3 "" H 3500 8200 30  0000 C CNN
	1    3500 8200
	0    -1   -1   0   
$EndComp
$Comp
L R R438
U 1 1 56317446
P 4450 7700
F 0 "R438" V 4370 7700 40  0000 C CNN
F 1 "100" V 4457 7701 40  0000 C CNN
F 2 "MyKiCadLibs-Footprints:SMD-1206" V 4380 7700 30  0001 C CNN
F 3 "" H 4450 7700 30  0000 C CNN
	1    4450 7700
	0    1    1    0   
$EndComp
$Comp
L CP1 C422
U 1 1 5631744C
P 5050 6400
F 0 "C422" H 5100 6500 50  0000 L CNN
F 1 "100u" H 5100 6300 50  0000 L CNN
F 2 "MyKiCadLibs-Footprints:CAP-TH-D8mmP3.5mm" H 5050 6400 60  0001 C CNN
F 3 "" H 5050 6400 60  0000 C CNN
	1    5050 6400
	0    -1   -1   0   
$EndComp
$Comp
L C C421
U 1 1 56333434
P 5050 6050
F 0 "C421" H 5050 6150 40  0000 L CNN
F 1 "100n" H 5056 5965 40  0000 L CNN
F 2 "MyKiCadLibs-Footprints:SMD-1210" H 5088 5900 30  0001 C CNN
F 3 "" H 5050 6050 60  0000 C CNN
	1    5050 6050
	0    -1   -1   0   
$EndComp
$Comp
L CP1 C424
U 1 1 56317458
P 5050 7700
F 0 "C424" H 5100 7800 50  0000 L CNN
F 1 "100u" H 5100 7600 50  0000 L CNN
F 2 "MyKiCadLibs-Footprints:CAP-TH-D8mmP3.5mm" H 5050 7700 60  0001 C CNN
F 3 "" H 5050 7700 60  0000 C CNN
	1    5050 7700
	0    -1   -1   0   
$EndComp
$Comp
L C C423
U 1 1 5631745E
P 5050 7350
F 0 "C423" H 5050 7450 40  0000 L CNN
F 1 "100n" H 5056 7265 40  0000 L CNN
F 2 "MyKiCadLibs-Footprints:SMD-1210" H 5088 7200 30  0001 C CNN
F 3 "" H 5050 7350 60  0000 C CNN
	1    5050 7350
	0    -1   -1   0   
$EndComp
$Comp
L R R421
U 1 1 56317464
P 2600 6650
F 0 "R421" V 2520 6650 40  0000 C CNN
F 1 "2k2" V 2607 6651 40  0000 C CNN
F 2 "MyKiCadLibs-Footprints:SMD-1206" V 2530 6650 30  0001 C CNN
F 3 "" H 2600 6650 30  0000 C CNN
	1    2600 6650
	1    0    0    -1  
$EndComp
$Comp
L R R422
U 1 1 56333438
P 2600 7300
F 0 "R422" V 2520 7300 40  0000 C CNN
F 1 "2k2" V 2607 7301 40  0000 C CNN
F 2 "MyKiCadLibs-Footprints:SMD-1206" V 2530 7300 30  0001 C CNN
F 3 "" H 2600 7300 30  0000 C CNN
	1    2600 7300
	1    0    0    -1  
$EndComp
$Comp
L GNDA #PWR036
U 1 1 56317470
P 2800 7050
F 0 "#PWR036" H 2800 6800 50  0001 C CNN
F 1 "GNDA" H 2800 6900 50  0000 C CNN
F 2 "" H 2800 7050 60  0000 C CNN
F 3 "" H 2800 7050 60  0000 C CNN
	1    2800 7050
	1    0    0    -1  
$EndComp
$Comp
L C C409
U 1 1 56317476
P 3500 7300
F 0 "C409" H 3500 7400 40  0000 L CNN
F 1 "N/F" H 3506 7215 40  0000 L CNN
F 2 "MyKiCadLibs-Footprints:SMD-0805" H 3538 7150 30  0001 C CNN
F 3 "" H 3500 7300 60  0000 C CNN
	1    3500 7300
	0    -1   -1   0   
$EndComp
$Comp
L C C410
U 1 1 5631747C
P 3500 8450
F 0 "C410" H 3500 8550 40  0000 L CNN
F 1 "N/F" H 3506 8365 40  0000 L CNN
F 2 "MyKiCadLibs-Footprints:SMD-0805" H 3538 8300 30  0001 C CNN
F 3 "" H 3500 8450 60  0000 C CNN
	1    3500 8450
	0    -1   -1   0   
$EndComp
$Comp
L R R413
U 1 1 5633343C
P 2250 6300
F 0 "R413" V 2170 6300 40  0000 C CNN
F 1 "2k2" V 2257 6301 40  0000 C CNN
F 2 "MyKiCadLibs-Footprints:SMD-1206" V 2180 6300 30  0001 C CNN
F 3 "" H 2250 6300 30  0000 C CNN
	1    2250 6300
	0    -1   -1   0   
$EndComp
$Comp
L R R414
U 1 1 5633343D
P 2250 7600
F 0 "R414" V 2170 7600 40  0000 C CNN
F 1 "2k2" V 2257 7601 40  0000 C CNN
F 2 "MyKiCadLibs-Footprints:SMD-1206" V 2180 7600 30  0001 C CNN
F 3 "" H 2250 7600 30  0000 C CNN
	1    2250 7600
	0    -1   -1   0   
$EndComp
Wire Wire Line
	1850 6500 1900 6500
Connection ~ 1900 6500
Wire Wire Line
	4000 6400 4200 6400
Wire Wire Line
	1850 7300 1900 7300
Wire Wire Line
	1900 6300 1900 6700
Wire Wire Line
	1900 7100 1900 7600
Wire Wire Line
	1250 7300 1350 7300
Wire Wire Line
	1350 6500 1250 6500
Wire Wire Line
	6000 6450 6000 6550
Wire Wire Line
	5750 6550 6250 6550
Wire Wire Line
	6250 5900 6250 6050
Wire Wire Line
	6000 6050 6000 5900
Wire Wire Line
	5750 6050 5750 5900
Connection ~ 6000 5900
Wire Wire Line
	5750 6450 5750 6550
Connection ~ 6000 6550
Wire Wire Line
	3500 6950 3500 6750
Connection ~ 1900 7300
Wire Wire Line
	5750 5900 6250 5900
Wire Wire Line
	6250 6550 6250 6450
Wire Wire Line
	3750 7050 4100 7050
Wire Wire Line
	4100 7050 4100 6400
Connection ~ 4100 6400
Wire Wire Line
	2950 7050 3250 7050
Wire Wire Line
	2950 7050 2950 6500
Wire Wire Line
	2950 6500 3000 6500
Wire Wire Line
	2500 6300 3000 6300
Wire Wire Line
	2500 7600 3000 7600
Wire Wire Line
	3750 8200 4100 8200
Wire Wire Line
	4100 8200 4100 7700
Wire Wire Line
	4000 7700 4200 7700
Wire Wire Line
	3000 7800 2950 7800
Wire Wire Line
	2950 7800 2950 8200
Wire Wire Line
	2950 8200 3250 8200
Connection ~ 4100 7700
Wire Wire Line
	4850 6050 4750 6050
Wire Wire Line
	4750 6050 4750 6400
Wire Wire Line
	4700 6400 4850 6400
Connection ~ 4750 6400
Wire Wire Line
	5250 6050 5300 6050
Wire Wire Line
	5300 6050 5300 6800
Wire Wire Line
	5300 6400 5250 6400
Wire Wire Line
	4850 7350 4750 7350
Wire Wire Line
	4750 7350 4750 7700
Wire Wire Line
	4700 7700 4850 7700
Connection ~ 4750 7700
Wire Wire Line
	5250 7350 5300 7350
Wire Wire Line
	5300 6900 5300 7700
Wire Wire Line
	5300 7700 5250 7700
Wire Wire Line
	5300 6800 5400 6800
Connection ~ 5300 6400
Wire Wire Line
	5400 6900 5300 6900
Connection ~ 5300 7350
Wire Wire Line
	2600 6400 2600 6300
Connection ~ 2600 6300
Wire Wire Line
	2600 7550 2600 7600
Connection ~ 2600 7600
Wire Wire Line
	2600 6900 2600 7050
Wire Wire Line
	2600 6950 2800 6950
Wire Wire Line
	2800 6950 2800 7050
Connection ~ 2600 6950
Wire Wire Line
	3300 7300 3200 7300
Wire Wire Line
	3200 7300 3200 7050
Connection ~ 3200 7050
Wire Wire Line
	3700 7300 3800 7300
Wire Wire Line
	3800 7300 3800 7050
Connection ~ 3800 7050
Wire Wire Line
	3300 8450 3200 8450
Wire Wire Line
	3200 8450 3200 8200
Wire Wire Line
	3700 8450 3800 8450
Wire Wire Line
	3800 8450 3800 8200
Connection ~ 3200 8200
Connection ~ 3800 8200
Wire Wire Line
	1900 7600 2000 7600
Wire Wire Line
	1900 6300 2000 6300
Wire Wire Line
	3300 6000 3500 6000
Wire Wire Line
	3500 6000 3500 6050
$Comp
L R R407
U 1 1 563188BE
P 1600 9150
F 0 "R407" V 1520 9150 40  0000 C CNN
F 1 "240" V 1607 9151 40  0000 C CNN
F 2 "MyKiCadLibs-Footprints:SMD-1206" V 1530 9150 30  0001 C CNN
F 3 "" H 1600 9150 30  0000 C CNN
	1    1600 9150
	0    -1   -1   0   
$EndComp
$Comp
L R R408
U 1 1 563188C4
P 1600 9950
F 0 "R408" V 1520 9950 40  0000 C CNN
F 1 "240" V 1607 9951 40  0000 C CNN
F 2 "MyKiCadLibs-Footprints:SMD-1206" V 1530 9950 30  0001 C CNN
F 3 "" H 1600 9950 30  0000 C CNN
	1    1600 9950
	0    -1   -1   0   
$EndComp
$Comp
L C C404
U 1 1 56333449
P 1900 9550
F 0 "C404" H 1900 9650 40  0000 L CNN
F 1 "2n7" H 1906 9465 40  0000 L CNN
F 2 "MyKiCadLibs-Footprints:SMD-0805" H 1938 9400 30  0001 C CNN
F 3 "" H 1900 9550 60  0000 C CNN
	1    1900 9550
	-1   0    0    1   
$EndComp
Text HLabel 1250 9150 0    60   Input ~ 0
P4
Text HLabel 1250 9950 0    60   Input ~ 0
N4
$Comp
L R R439
U 1 1 5633344A
P 4450 9050
F 0 "R439" V 4370 9050 40  0000 C CNN
F 1 "100" V 4457 9051 40  0000 C CNN
F 2 "MyKiCadLibs-Footprints:SMD-1206" V 4380 9050 30  0001 C CNN
F 3 "" H 4450 9050 30  0000 C CNN
	1    4450 9050
	0    1    1    0   
$EndComp
$Comp
L C C440
U 1 1 5633344B
P 6250 8900
F 0 "C440" H 6250 9000 40  0000 L CNN
F 1 "100n" H 6256 8815 40  0000 L CNN
F 2 "MyKiCadLibs-Footprints:SMD-0805" H 6288 8750 30  0001 C CNN
F 3 "" H 6250 8900 60  0000 C CNN
	1    6250 8900
	-1   0    0    1   
$EndComp
$Comp
L C C436
U 1 1 5633344C
P 6000 8900
F 0 "C436" H 6000 9000 40  0000 L CNN
F 1 "1n" H 6006 8815 40  0000 L CNN
F 2 "MyKiCadLibs-Footprints:SMD-0805" H 6038 8750 30  0001 C CNN
F 3 "" H 6000 8900 60  0000 C CNN
	1    6000 8900
	-1   0    0    1   
$EndComp
$Comp
L C C432
U 1 1 5633344D
P 5750 8900
F 0 "C432" H 5750 9000 40  0000 L CNN
F 1 "10u" H 5756 8815 40  0000 L CNN
F 2 "MyKiCadLibs-Footprints:SMD-0805" H 5788 8750 30  0001 C CNN
F 3 "" H 5750 8900 60  0000 C CNN
	1    5750 8900
	-1   0    0    1   
$EndComp
$Comp
L CONN_2x1 P404
U 1 1 5633344E
P 5400 9450
F 0 "P404" V 5895 9295 40  0000 C CNN
F 1 "CONN_2x1" V 5840 9410 40  0000 C CNN
F 2 "MyKiCadLibs-Footprints:CONN_SIL_2" H 5740 9340 60  0001 C CNN
F 3 "" H 5740 9340 60  0000 C CNN
	1    5400 9450
	1    0    0    -1  
$EndComp
Text Label 3500 9600 1    60   ~ 0
VEE1
Text Label 3500 8650 2    60   ~ 0
VCC1
$Comp
L IC-OPAMP-DUAL-SOIC8 U404
U 1 1 5633344F
P 3500 9050
F 0 "U404" H 3550 8900 60  0000 L CNN
F 1 "IC-OPAMP-DUAL-SOIC8" H 3550 8800 60  0000 L CNN
F 2 "MyKiCadLibs-Footprints:IC_SOIC_8" H 3500 9050 60  0001 C CNN
F 3 "" H 3500 9050 60  0000 C CNN
	1    3500 9050
	1    0    0    -1  
$EndComp
$Comp
L IC-OPAMP-DUAL-SOIC8 U404
U 2 1 56333450
P 3500 10350
F 0 "U404" H 3550 10200 60  0000 L CNN
F 1 "IC-OPAMP-DUAL-SOIC8" H 3550 10100 60  0000 L CNN
F 2 "MyKiCadLibs-Footprints:IC_SOIC_8" H 3500 10350 60  0001 C CNN
F 3 "" H 3500 10350 60  0000 C CNN
	2    3500 10350
	1    0    0    -1  
$EndComp
Text Label 5750 9200 0    60   ~ 0
VEE1
Text Label 5750 8550 0    60   ~ 0
VCC1
$Comp
L R R431
U 1 1 56333451
P 3500 9700
F 0 "R431" V 3420 9700 40  0000 C CNN
F 1 "1k" V 3507 9701 40  0000 C CNN
F 2 "MyKiCadLibs-Footprints:SMD-1206" V 3430 9700 30  0001 C CNN
F 3 "" H 3500 9700 30  0000 C CNN
	1    3500 9700
	0    -1   -1   0   
$EndComp
$Comp
L R R432
U 1 1 56318906
P 3500 10850
F 0 "R432" V 3420 10850 40  0000 C CNN
F 1 "1k" V 3507 10851 40  0000 C CNN
F 2 "MyKiCadLibs-Footprints:SMD-1206" V 3430 10850 30  0001 C CNN
F 3 "" H 3500 10850 30  0000 C CNN
	1    3500 10850
	0    -1   -1   0   
$EndComp
$Comp
L R R440
U 1 1 5631890C
P 4450 10350
F 0 "R440" V 4370 10350 40  0000 C CNN
F 1 "100" V 4457 10351 40  0000 C CNN
F 2 "MyKiCadLibs-Footprints:SMD-1206" V 4380 10350 30  0001 C CNN
F 3 "" H 4450 10350 30  0000 C CNN
	1    4450 10350
	0    1    1    0   
$EndComp
$Comp
L CP1 C426
U 1 1 56318912
P 5050 9050
F 0 "C426" H 5100 9150 50  0000 L CNN
F 1 "100u" H 5100 8950 50  0000 L CNN
F 2 "MyKiCadLibs-Footprints:CAP-TH-D8mmP3.5mm" H 5050 9050 60  0001 C CNN
F 3 "" H 5050 9050 60  0000 C CNN
	1    5050 9050
	0    -1   -1   0   
$EndComp
$Comp
L C C425
U 1 1 56318918
P 5050 8700
F 0 "C425" H 5050 8800 40  0000 L CNN
F 1 "100n" H 5056 8615 40  0000 L CNN
F 2 "MyKiCadLibs-Footprints:SMD-1210" H 5088 8550 30  0001 C CNN
F 3 "" H 5050 8700 60  0000 C CNN
	1    5050 8700
	0    -1   -1   0   
$EndComp
$Comp
L CP1 C428
U 1 1 5631891E
P 5050 10350
F 0 "C428" H 5100 10450 50  0000 L CNN
F 1 "100u" H 5100 10250 50  0000 L CNN
F 2 "MyKiCadLibs-Footprints:CAP-TH-D8mmP3.5mm" H 5050 10350 60  0001 C CNN
F 3 "" H 5050 10350 60  0000 C CNN
	1    5050 10350
	0    -1   -1   0   
$EndComp
$Comp
L C C427
U 1 1 56318924
P 5050 10000
F 0 "C427" H 5050 10100 40  0000 L CNN
F 1 "100n" H 5056 9915 40  0000 L CNN
F 2 "MyKiCadLibs-Footprints:SMD-1210" H 5088 9850 30  0001 C CNN
F 3 "" H 5050 10000 60  0000 C CNN
	1    5050 10000
	0    -1   -1   0   
$EndComp
$Comp
L R R423
U 1 1 56333458
P 2600 9300
F 0 "R423" V 2520 9300 40  0000 C CNN
F 1 "2k2" V 2607 9301 40  0000 C CNN
F 2 "MyKiCadLibs-Footprints:SMD-1206" V 2530 9300 30  0001 C CNN
F 3 "" H 2600 9300 30  0000 C CNN
	1    2600 9300
	1    0    0    -1  
$EndComp
$Comp
L R R424
U 1 1 56318930
P 2600 9950
F 0 "R424" V 2520 9950 40  0000 C CNN
F 1 "2k2" V 2607 9951 40  0000 C CNN
F 2 "MyKiCadLibs-Footprints:SMD-1206" V 2530 9950 30  0001 C CNN
F 3 "" H 2600 9950 30  0000 C CNN
	1    2600 9950
	1    0    0    -1  
$EndComp
$Comp
L GNDA #PWR037
U 1 1 5633345A
P 2800 9700
F 0 "#PWR037" H 2800 9450 50  0001 C CNN
F 1 "GNDA" H 2800 9550 50  0000 C CNN
F 2 "" H 2800 9700 60  0000 C CNN
F 3 "" H 2800 9700 60  0000 C CNN
	1    2800 9700
	1    0    0    -1  
$EndComp
$Comp
L C C411
U 1 1 5631893C
P 3500 9950
F 0 "C411" H 3500 10050 40  0000 L CNN
F 1 "N/F" H 3506 9865 40  0000 L CNN
F 2 "MyKiCadLibs-Footprints:SMD-0805" H 3538 9800 30  0001 C CNN
F 3 "" H 3500 9950 60  0000 C CNN
	1    3500 9950
	0    -1   -1   0   
$EndComp
$Comp
L C C412
U 1 1 56318942
P 3500 11100
F 0 "C412" H 3500 11200 40  0000 L CNN
F 1 "N/F" H 3506 11015 40  0000 L CNN
F 2 "MyKiCadLibs-Footprints:SMD-0805" H 3538 10950 30  0001 C CNN
F 3 "" H 3500 11100 60  0000 C CNN
	1    3500 11100
	0    -1   -1   0   
$EndComp
$Comp
L R R415
U 1 1 56318948
P 2250 8950
F 0 "R415" V 2170 8950 40  0000 C CNN
F 1 "2k2" V 2257 8951 40  0000 C CNN
F 2 "MyKiCadLibs-Footprints:SMD-1206" V 2180 8950 30  0001 C CNN
F 3 "" H 2250 8950 30  0000 C CNN
	1    2250 8950
	0    -1   -1   0   
$EndComp
$Comp
L R R416
U 1 1 5631894E
P 2250 10250
F 0 "R416" V 2170 10250 40  0000 C CNN
F 1 "2k2" V 2257 10251 40  0000 C CNN
F 2 "MyKiCadLibs-Footprints:SMD-1206" V 2180 10250 30  0001 C CNN
F 3 "" H 2250 10250 30  0000 C CNN
	1    2250 10250
	0    -1   -1   0   
$EndComp
Wire Wire Line
	1850 9150 1900 9150
Connection ~ 1900 9150
Wire Wire Line
	4000 9050 4200 9050
Wire Wire Line
	1850 9950 1900 9950
Wire Wire Line
	1900 8950 1900 9350
Wire Wire Line
	1900 9750 1900 10250
Wire Wire Line
	1250 9950 1350 9950
Wire Wire Line
	1350 9150 1250 9150
Wire Wire Line
	6000 9100 6000 9200
Wire Wire Line
	5750 9200 6250 9200
Wire Wire Line
	6250 8550 6250 8700
Wire Wire Line
	6000 8700 6000 8550
Wire Wire Line
	5750 8700 5750 8550
Connection ~ 6000 8550
Wire Wire Line
	5750 9100 5750 9200
Connection ~ 6000 9200
Wire Wire Line
	3500 9600 3500 9400
Connection ~ 1900 9950
Wire Wire Line
	5750 8550 6250 8550
Wire Wire Line
	6250 9200 6250 9100
Wire Wire Line
	3750 9700 4100 9700
Wire Wire Line
	4100 9700 4100 9050
Connection ~ 4100 9050
Wire Wire Line
	2950 9700 3250 9700
Wire Wire Line
	2950 9700 2950 9150
Wire Wire Line
	2950 9150 3000 9150
Wire Wire Line
	2500 8950 3000 8950
Wire Wire Line
	2500 10250 3000 10250
Wire Wire Line
	3750 10850 4100 10850
Wire Wire Line
	4100 10850 4100 10350
Wire Wire Line
	4000 10350 4200 10350
Wire Wire Line
	3000 10450 2950 10450
Wire Wire Line
	2950 10450 2950 10850
Wire Wire Line
	2950 10850 3250 10850
Connection ~ 4100 10350
Wire Wire Line
	4850 8700 4750 8700
Wire Wire Line
	4750 8700 4750 9050
Wire Wire Line
	4700 9050 4850 9050
Connection ~ 4750 9050
Wire Wire Line
	5250 8700 5300 8700
Wire Wire Line
	5300 8700 5300 9450
Wire Wire Line
	5300 9050 5250 9050
Wire Wire Line
	4850 10000 4750 10000
Wire Wire Line
	4750 10000 4750 10350
Wire Wire Line
	4700 10350 4850 10350
Connection ~ 4750 10350
Wire Wire Line
	5250 10000 5300 10000
Wire Wire Line
	5300 9550 5300 10350
Wire Wire Line
	5300 10350 5250 10350
Wire Wire Line
	5300 9450 5400 9450
Connection ~ 5300 9050
Wire Wire Line
	5400 9550 5300 9550
Connection ~ 5300 10000
Wire Wire Line
	2600 9050 2600 8950
Connection ~ 2600 8950
Wire Wire Line
	2600 10200 2600 10250
Connection ~ 2600 10250
Wire Wire Line
	2600 9550 2600 9700
Wire Wire Line
	2600 9600 2800 9600
Wire Wire Line
	2800 9600 2800 9700
Connection ~ 2600 9600
Wire Wire Line
	3300 9950 3200 9950
Wire Wire Line
	3200 9950 3200 9700
Connection ~ 3200 9700
Wire Wire Line
	3700 9950 3800 9950
Wire Wire Line
	3800 9950 3800 9700
Connection ~ 3800 9700
Wire Wire Line
	3300 11100 3200 11100
Wire Wire Line
	3200 11100 3200 10850
Wire Wire Line
	3700 11100 3800 11100
Wire Wire Line
	3800 11100 3800 10850
Connection ~ 3200 10850
Connection ~ 3800 10850
Wire Wire Line
	1900 10250 2000 10250
Wire Wire Line
	1900 8950 2000 8950
Wire Wire Line
	3300 8650 3500 8650
Wire Wire Line
	3500 8650 3500 8700
$Comp
L R R441
U 1 1 5631C5FD
P 7500 1150
F 0 "R441" V 7420 1150 40  0000 C CNN
F 1 "240" V 7507 1151 40  0000 C CNN
F 2 "MyKiCadLibs-Footprints:SMD-1206" V 7430 1150 30  0001 C CNN
F 3 "" H 7500 1150 30  0000 C CNN
	1    7500 1150
	0    -1   -1   0   
$EndComp
$Comp
L R R442
U 1 1 5631C603
P 7500 1950
F 0 "R442" V 7420 1950 40  0000 C CNN
F 1 "240" V 7507 1951 40  0000 C CNN
F 2 "MyKiCadLibs-Footprints:SMD-1206" V 7430 1950 30  0001 C CNN
F 3 "" H 7500 1950 30  0000 C CNN
	1    7500 1950
	0    -1   -1   0   
$EndComp
$Comp
L C C441
U 1 1 5631C609
P 7800 1550
F 0 "C441" H 7800 1650 40  0000 L CNN
F 1 "2n7" H 7806 1465 40  0000 L CNN
F 2 "MyKiCadLibs-Footprints:SMD-0805" H 7838 1400 30  0001 C CNN
F 3 "" H 7800 1550 60  0000 C CNN
	1    7800 1550
	-1   0    0    1   
$EndComp
Text HLabel 7150 1150 0    60   Input ~ 0
P5
Text HLabel 7150 1950 0    60   Input ~ 0
N5
$Comp
L R R473
U 1 1 5631C611
P 10350 1050
F 0 "R473" V 10270 1050 40  0000 C CNN
F 1 "100" V 10357 1051 40  0000 C CNN
F 2 "MyKiCadLibs-Footprints:SMD-1206" V 10280 1050 30  0001 C CNN
F 3 "" H 10350 1050 30  0000 C CNN
	1    10350 1050
	0    1    1    0   
$EndComp
$Comp
L C C477
U 1 1 5631C617
P 12150 900
F 0 "C477" H 12150 1000 40  0000 L CNN
F 1 "100n" H 12156 815 40  0000 L CNN
F 2 "MyKiCadLibs-Footprints:SMD-0805" H 12188 750 30  0001 C CNN
F 3 "" H 12150 900 60  0000 C CNN
	1    12150 900 
	-1   0    0    1   
$EndComp
$Comp
L C C473
U 1 1 5631C61D
P 11900 900
F 0 "C473" H 11900 1000 40  0000 L CNN
F 1 "1n" H 11906 815 40  0000 L CNN
F 2 "MyKiCadLibs-Footprints:SMD-0805" H 11938 750 30  0001 C CNN
F 3 "" H 11900 900 60  0000 C CNN
	1    11900 900 
	-1   0    0    1   
$EndComp
$Comp
L C C469
U 1 1 5631C623
P 11650 900
F 0 "C469" H 11650 1000 40  0000 L CNN
F 1 "10u" H 11656 815 40  0000 L CNN
F 2 "MyKiCadLibs-Footprints:SMD-0805" H 11688 750 30  0001 C CNN
F 3 "" H 11650 900 60  0000 C CNN
	1    11650 900 
	-1   0    0    1   
$EndComp
$Comp
L CONN_2x1 P405
U 1 1 5631C629
P 11300 1450
F 0 "P405" V 11795 1295 40  0000 C CNN
F 1 "CONN_2x1" V 11740 1410 40  0000 C CNN
F 2 "MyKiCadLibs-Footprints:CONN_SIL_2" H 11640 1340 60  0001 C CNN
F 3 "" H 11640 1340 60  0000 C CNN
	1    11300 1450
	1    0    0    -1  
$EndComp
Text Label 9400 1600 1    60   ~ 0
VEE1
Text Label 9400 650  2    60   ~ 0
VCC1
$Comp
L IC-OPAMP-DUAL-SOIC8 U405
U 1 1 56333468
P 9400 1050
F 0 "U405" H 9450 900 60  0000 L CNN
F 1 "IC-OPAMP-DUAL-SOIC8" H 9450 800 60  0000 L CNN
F 2 "MyKiCadLibs-Footprints:IC_SOIC_8" H 9400 1050 60  0001 C CNN
F 3 "" H 9400 1050 60  0000 C CNN
	1    9400 1050
	1    0    0    -1  
$EndComp
$Comp
L IC-OPAMP-DUAL-SOIC8 U405
U 2 1 56333469
P 9400 2350
F 0 "U405" H 9450 2200 60  0000 L CNN
F 1 "IC-OPAMP-DUAL-SOIC8" H 9450 2100 60  0000 L CNN
F 2 "MyKiCadLibs-Footprints:IC_SOIC_8" H 9400 2350 60  0001 C CNN
F 3 "" H 9400 2350 60  0000 C CNN
	2    9400 2350
	1    0    0    -1  
$EndComp
Text Label 11650 1200 0    60   ~ 0
VEE1
Text Label 11650 550  0    60   ~ 0
VCC1
$Comp
L R R465
U 1 1 5633346A
P 9400 1700
F 0 "R465" V 9320 1700 40  0000 C CNN
F 1 "1k" V 9407 1701 40  0000 C CNN
F 2 "MyKiCadLibs-Footprints:SMD-1206" V 9330 1700 30  0001 C CNN
F 3 "" H 9400 1700 30  0000 C CNN
	1    9400 1700
	0    -1   -1   0   
$EndComp
$Comp
L R R466
U 1 1 5633346B
P 9400 2850
F 0 "R466" V 9320 2850 40  0000 C CNN
F 1 "1k" V 9407 2851 40  0000 C CNN
F 2 "MyKiCadLibs-Footprints:SMD-1206" V 9330 2850 30  0001 C CNN
F 3 "" H 9400 2850 30  0000 C CNN
	1    9400 2850
	0    -1   -1   0   
$EndComp
$Comp
L R R474
U 1 1 5631C64B
P 10350 2350
F 0 "R474" V 10270 2350 40  0000 C CNN
F 1 "100" V 10357 2351 40  0000 C CNN
F 2 "MyKiCadLibs-Footprints:SMD-1206" V 10280 2350 30  0001 C CNN
F 3 "" H 10350 2350 30  0000 C CNN
	1    10350 2350
	0    1    1    0   
$EndComp
$Comp
L CP1 C454
U 1 1 5631C651
P 10950 1050
F 0 "C454" H 11000 1150 50  0000 L CNN
F 1 "100u" H 11000 950 50  0000 L CNN
F 2 "MyKiCadLibs-Footprints:CAP-TH-D8mmP3.5mm" H 10950 1050 60  0001 C CNN
F 3 "" H 10950 1050 60  0000 C CNN
	1    10950 1050
	0    -1   -1   0   
$EndComp
$Comp
L C C453
U 1 1 5631C657
P 10950 700
F 0 "C453" H 10950 800 40  0000 L CNN
F 1 "100n" H 10956 615 40  0000 L CNN
F 2 "MyKiCadLibs-Footprints:SMD-1210" H 10988 550 30  0001 C CNN
F 3 "" H 10950 700 60  0000 C CNN
	1    10950 700 
	0    -1   -1   0   
$EndComp
$Comp
L CP1 C456
U 1 1 5631C65D
P 10950 2350
F 0 "C456" H 11000 2450 50  0000 L CNN
F 1 "100u" H 11000 2250 50  0000 L CNN
F 2 "MyKiCadLibs-Footprints:CAP-TH-D8mmP3.5mm" H 10950 2350 60  0001 C CNN
F 3 "" H 10950 2350 60  0000 C CNN
	1    10950 2350
	0    -1   -1   0   
$EndComp
$Comp
L C C455
U 1 1 5631C663
P 10950 2000
F 0 "C455" H 10950 2100 40  0000 L CNN
F 1 "100n" H 10956 1915 40  0000 L CNN
F 2 "MyKiCadLibs-Footprints:SMD-1210" H 10988 1850 30  0001 C CNN
F 3 "" H 10950 2000 60  0000 C CNN
	1    10950 2000
	0    -1   -1   0   
$EndComp
$Comp
L R R457
U 1 1 5631C669
P 8500 1300
F 0 "R457" V 8420 1300 40  0000 C CNN
F 1 "2k2" V 8507 1301 40  0000 C CNN
F 2 "MyKiCadLibs-Footprints:SMD-1206" V 8430 1300 30  0001 C CNN
F 3 "" H 8500 1300 30  0000 C CNN
	1    8500 1300
	1    0    0    -1  
$EndComp
$Comp
L R R458
U 1 1 5631C66F
P 8500 1950
F 0 "R458" V 8420 1950 40  0000 C CNN
F 1 "2k2" V 8507 1951 40  0000 C CNN
F 2 "MyKiCadLibs-Footprints:SMD-1206" V 8430 1950 30  0001 C CNN
F 3 "" H 8500 1950 30  0000 C CNN
	1    8500 1950
	1    0    0    -1  
$EndComp
$Comp
L GNDA #PWR038
U 1 1 56333473
P 8700 1700
F 0 "#PWR038" H 8700 1450 50  0001 C CNN
F 1 "GNDA" H 8700 1550 50  0000 C CNN
F 2 "" H 8700 1700 60  0000 C CNN
F 3 "" H 8700 1700 60  0000 C CNN
	1    8700 1700
	1    0    0    -1  
$EndComp
$Comp
L C C445
U 1 1 56333474
P 9400 1950
F 0 "C445" H 9400 2050 40  0000 L CNN
F 1 "N/F" H 9406 1865 40  0000 L CNN
F 2 "MyKiCadLibs-Footprints:SMD-0805" H 9438 1800 30  0001 C CNN
F 3 "" H 9400 1950 60  0000 C CNN
	1    9400 1950
	0    -1   -1   0   
$EndComp
$Comp
L C C446
U 1 1 56333475
P 9400 3100
F 0 "C446" H 9400 3200 40  0000 L CNN
F 1 "N/F" H 9406 3015 40  0000 L CNN
F 2 "MyKiCadLibs-Footprints:SMD-0805" H 9438 2950 30  0001 C CNN
F 3 "" H 9400 3100 60  0000 C CNN
	1    9400 3100
	0    -1   -1   0   
$EndComp
$Comp
L R R449
U 1 1 56333476
P 8150 950
F 0 "R449" V 8070 950 40  0000 C CNN
F 1 "2k2" V 8157 951 40  0000 C CNN
F 2 "MyKiCadLibs-Footprints:SMD-1206" V 8080 950 30  0001 C CNN
F 3 "" H 8150 950 30  0000 C CNN
	1    8150 950 
	0    -1   -1   0   
$EndComp
$Comp
L R R450
U 1 1 56333477
P 8150 2250
F 0 "R450" V 8070 2250 40  0000 C CNN
F 1 "2k2" V 8157 2251 40  0000 C CNN
F 2 "MyKiCadLibs-Footprints:SMD-1206" V 8080 2250 30  0001 C CNN
F 3 "" H 8150 2250 30  0000 C CNN
	1    8150 2250
	0    -1   -1   0   
$EndComp
Wire Wire Line
	7750 1150 7800 1150
Connection ~ 7800 1150
Wire Wire Line
	9900 1050 10100 1050
Wire Wire Line
	7750 1950 7800 1950
Wire Wire Line
	7800 950  7800 1350
Wire Wire Line
	7800 1750 7800 2250
Wire Wire Line
	7150 1950 7250 1950
Wire Wire Line
	7250 1150 7150 1150
Wire Wire Line
	11900 1100 11900 1200
Wire Wire Line
	11650 1200 12150 1200
Wire Wire Line
	12150 550  12150 700 
Wire Wire Line
	11900 700  11900 550 
Wire Wire Line
	11650 700  11650 550 
Connection ~ 11900 550 
Wire Wire Line
	11650 1100 11650 1200
Connection ~ 11900 1200
Wire Wire Line
	9400 1600 9400 1400
Connection ~ 7800 1950
Wire Wire Line
	11650 550  12150 550 
Wire Wire Line
	12150 1200 12150 1100
Wire Wire Line
	9650 1700 10000 1700
Wire Wire Line
	10000 1700 10000 1050
Connection ~ 10000 1050
Wire Wire Line
	8850 1700 9150 1700
Wire Wire Line
	8850 1700 8850 1150
Wire Wire Line
	8850 1150 8900 1150
Wire Wire Line
	8400 950  8900 950 
Wire Wire Line
	8400 2250 8900 2250
Wire Wire Line
	9650 2850 10000 2850
Wire Wire Line
	10000 2850 10000 2350
Wire Wire Line
	9900 2350 10100 2350
Wire Wire Line
	8900 2450 8850 2450
Wire Wire Line
	8850 2450 8850 2850
Wire Wire Line
	8850 2850 9150 2850
Connection ~ 10000 2350
Wire Wire Line
	10750 700  10650 700 
Wire Wire Line
	10650 700  10650 1050
Wire Wire Line
	10600 1050 10750 1050
Connection ~ 10650 1050
Wire Wire Line
	11150 700  11200 700 
Wire Wire Line
	11200 700  11200 1450
Wire Wire Line
	11200 1050 11150 1050
Wire Wire Line
	10750 2000 10650 2000
Wire Wire Line
	10650 2000 10650 2350
Wire Wire Line
	10600 2350 10750 2350
Connection ~ 10650 2350
Wire Wire Line
	11150 2000 11200 2000
Wire Wire Line
	11200 1550 11200 2350
Wire Wire Line
	11200 2350 11150 2350
Wire Wire Line
	11200 1450 11300 1450
Connection ~ 11200 1050
Wire Wire Line
	11300 1550 11200 1550
Connection ~ 11200 2000
Wire Wire Line
	8500 1050 8500 950 
Connection ~ 8500 950 
Wire Wire Line
	8500 2200 8500 2250
Connection ~ 8500 2250
Wire Wire Line
	8500 1550 8500 1700
Wire Wire Line
	8500 1600 8700 1600
Wire Wire Line
	8700 1600 8700 1700
Connection ~ 8500 1600
Wire Wire Line
	9200 1950 9100 1950
Wire Wire Line
	9100 1950 9100 1700
Connection ~ 9100 1700
Wire Wire Line
	9600 1950 9700 1950
Wire Wire Line
	9700 1950 9700 1700
Connection ~ 9700 1700
Wire Wire Line
	9200 3100 9100 3100
Wire Wire Line
	9100 3100 9100 2850
Wire Wire Line
	9600 3100 9700 3100
Wire Wire Line
	9700 3100 9700 2850
Connection ~ 9100 2850
Connection ~ 9700 2850
Wire Wire Line
	7800 2250 7900 2250
Wire Wire Line
	7800 950  7900 950 
Wire Wire Line
	9200 650  9400 650 
Wire Wire Line
	9400 650  9400 700 
$Comp
L R R443
U 1 1 56333478
P 7500 3800
F 0 "R443" V 7420 3800 40  0000 C CNN
F 1 "240" V 7507 3801 40  0000 C CNN
F 2 "MyKiCadLibs-Footprints:SMD-1206" V 7430 3800 30  0001 C CNN
F 3 "" H 7500 3800 30  0000 C CNN
	1    7500 3800
	0    -1   -1   0   
$EndComp
$Comp
L R R444
U 1 1 56333479
P 7500 4600
F 0 "R444" V 7420 4600 40  0000 C CNN
F 1 "240" V 7507 4601 40  0000 C CNN
F 2 "MyKiCadLibs-Footprints:SMD-1206" V 7430 4600 30  0001 C CNN
F 3 "" H 7500 4600 30  0000 C CNN
	1    7500 4600
	0    -1   -1   0   
$EndComp
$Comp
L C C442
U 1 1 5633347A
P 7800 4200
F 0 "C442" H 7800 4300 40  0000 L CNN
F 1 "2n7" H 7806 4115 40  0000 L CNN
F 2 "MyKiCadLibs-Footprints:SMD-0805" H 7838 4050 30  0001 C CNN
F 3 "" H 7800 4200 60  0000 C CNN
	1    7800 4200
	-1   0    0    1   
$EndComp
Text HLabel 7150 3800 0    60   Input ~ 0
P6
Text HLabel 7150 4600 0    60   Input ~ 0
N6
$Comp
L R R475
U 1 1 5633347B
P 10350 3700
F 0 "R475" V 10270 3700 40  0000 C CNN
F 1 "100" V 10357 3701 40  0000 C CNN
F 2 "MyKiCadLibs-Footprints:SMD-1206" V 10280 3700 30  0001 C CNN
F 3 "" H 10350 3700 30  0000 C CNN
	1    10350 3700
	0    1    1    0   
$EndComp
$Comp
L C C478
U 1 1 5631C6FA
P 12150 3550
F 0 "C478" H 12150 3650 40  0000 L CNN
F 1 "100n" H 12156 3465 40  0000 L CNN
F 2 "MyKiCadLibs-Footprints:SMD-0805" H 12188 3400 30  0001 C CNN
F 3 "" H 12150 3550 60  0000 C CNN
	1    12150 3550
	-1   0    0    1   
$EndComp
$Comp
L C C474
U 1 1 5631C700
P 11900 3550
F 0 "C474" H 11900 3650 40  0000 L CNN
F 1 "1n" H 11906 3465 40  0000 L CNN
F 2 "MyKiCadLibs-Footprints:SMD-0805" H 11938 3400 30  0001 C CNN
F 3 "" H 11900 3550 60  0000 C CNN
	1    11900 3550
	-1   0    0    1   
$EndComp
$Comp
L C C470
U 1 1 5631C706
P 11650 3550
F 0 "C470" H 11650 3650 40  0000 L CNN
F 1 "10u" H 11656 3465 40  0000 L CNN
F 2 "MyKiCadLibs-Footprints:SMD-0805" H 11688 3400 30  0001 C CNN
F 3 "" H 11650 3550 60  0000 C CNN
	1    11650 3550
	-1   0    0    1   
$EndComp
$Comp
L CONN_2x1 P406
U 1 1 5631C70C
P 11300 4100
F 0 "P406" V 11795 3945 40  0000 C CNN
F 1 "CONN_2x1" V 11740 4060 40  0000 C CNN
F 2 "MyKiCadLibs-Footprints:CONN_SIL_2" H 11640 3990 60  0001 C CNN
F 3 "" H 11640 3990 60  0000 C CNN
	1    11300 4100
	1    0    0    -1  
$EndComp
Text Label 9400 4250 1    60   ~ 0
VEE1
Text Label 9400 3300 2    60   ~ 0
VCC1
$Comp
L IC-OPAMP-DUAL-SOIC8 U406
U 1 1 5631C714
P 9400 3700
F 0 "U406" H 9450 3550 60  0000 L CNN
F 1 "IC-OPAMP-DUAL-SOIC8" H 9450 3450 60  0000 L CNN
F 2 "MyKiCadLibs-Footprints:IC_SOIC_8" H 9400 3700 60  0001 C CNN
F 3 "" H 9400 3700 60  0000 C CNN
	1    9400 3700
	1    0    0    -1  
$EndComp
$Comp
L IC-OPAMP-DUAL-SOIC8 U406
U 2 1 5631C71A
P 9400 5000
F 0 "U406" H 9450 4850 60  0000 L CNN
F 1 "IC-OPAMP-DUAL-SOIC8" H 9450 4750 60  0000 L CNN
F 2 "MyKiCadLibs-Footprints:IC_SOIC_8" H 9400 5000 60  0001 C CNN
F 3 "" H 9400 5000 60  0000 C CNN
	2    9400 5000
	1    0    0    -1  
$EndComp
Text Label 11650 3850 0    60   ~ 0
VEE1
Text Label 11650 3200 0    60   ~ 0
VCC1
$Comp
L R R467
U 1 1 56333482
P 9400 4350
F 0 "R467" V 9320 4350 40  0000 C CNN
F 1 "1k" V 9407 4351 40  0000 C CNN
F 2 "MyKiCadLibs-Footprints:SMD-1206" V 9330 4350 30  0001 C CNN
F 3 "" H 9400 4350 30  0000 C CNN
	1    9400 4350
	0    -1   -1   0   
$EndComp
$Comp
L R R468
U 1 1 5631C728
P 9400 5500
F 0 "R468" V 9320 5500 40  0000 C CNN
F 1 "1k" V 9407 5501 40  0000 C CNN
F 2 "MyKiCadLibs-Footprints:SMD-1206" V 9330 5500 30  0001 C CNN
F 3 "" H 9400 5500 30  0000 C CNN
	1    9400 5500
	0    -1   -1   0   
$EndComp
$Comp
L R R476
U 1 1 5631C72E
P 10350 5000
F 0 "R476" V 10270 5000 40  0000 C CNN
F 1 "100" V 10357 5001 40  0000 C CNN
F 2 "MyKiCadLibs-Footprints:SMD-1206" V 10280 5000 30  0001 C CNN
F 3 "" H 10350 5000 30  0000 C CNN
	1    10350 5000
	0    1    1    0   
$EndComp
$Comp
L CP1 C458
U 1 1 5631C734
P 10950 3700
F 0 "C458" H 11000 3800 50  0000 L CNN
F 1 "100u" H 11000 3600 50  0000 L CNN
F 2 "MyKiCadLibs-Footprints:CAP-TH-D8mmP3.5mm" H 10950 3700 60  0001 C CNN
F 3 "" H 10950 3700 60  0000 C CNN
	1    10950 3700
	0    -1   -1   0   
$EndComp
$Comp
L C C457
U 1 1 5631C73A
P 10950 3350
F 0 "C457" H 10950 3450 40  0000 L CNN
F 1 "100n" H 10956 3265 40  0000 L CNN
F 2 "MyKiCadLibs-Footprints:SMD-1210" H 10988 3200 30  0001 C CNN
F 3 "" H 10950 3350 60  0000 C CNN
	1    10950 3350
	0    -1   -1   0   
$EndComp
$Comp
L CP1 C460
U 1 1 5631C740
P 10950 5000
F 0 "C460" H 11000 5100 50  0000 L CNN
F 1 "100u" H 11000 4900 50  0000 L CNN
F 2 "MyKiCadLibs-Footprints:CAP-TH-D8mmP3.5mm" H 10950 5000 60  0001 C CNN
F 3 "" H 10950 5000 60  0000 C CNN
	1    10950 5000
	0    -1   -1   0   
$EndComp
$Comp
L C C459
U 1 1 5631C746
P 10950 4650
F 0 "C459" H 10950 4750 40  0000 L CNN
F 1 "100n" H 10956 4565 40  0000 L CNN
F 2 "MyKiCadLibs-Footprints:SMD-1210" H 10988 4500 30  0001 C CNN
F 3 "" H 10950 4650 60  0000 C CNN
	1    10950 4650
	0    -1   -1   0   
$EndComp
$Comp
L R R459
U 1 1 56333489
P 8500 3950
F 0 "R459" V 8420 3950 40  0000 C CNN
F 1 "2k2" V 8507 3951 40  0000 C CNN
F 2 "MyKiCadLibs-Footprints:SMD-1206" V 8430 3950 30  0001 C CNN
F 3 "" H 8500 3950 30  0000 C CNN
	1    8500 3950
	1    0    0    -1  
$EndComp
$Comp
L R R460
U 1 1 5633348A
P 8500 4600
F 0 "R460" V 8420 4600 40  0000 C CNN
F 1 "2k2" V 8507 4601 40  0000 C CNN
F 2 "MyKiCadLibs-Footprints:SMD-1206" V 8430 4600 30  0001 C CNN
F 3 "" H 8500 4600 30  0000 C CNN
	1    8500 4600
	1    0    0    -1  
$EndComp
$Comp
L GNDA #PWR039
U 1 1 5631C758
P 8700 4350
F 0 "#PWR039" H 8700 4100 50  0001 C CNN
F 1 "GNDA" H 8700 4200 50  0000 C CNN
F 2 "" H 8700 4350 60  0000 C CNN
F 3 "" H 8700 4350 60  0000 C CNN
	1    8700 4350
	1    0    0    -1  
$EndComp
$Comp
L C C447
U 1 1 5633348C
P 9400 4600
F 0 "C447" H 9400 4700 40  0000 L CNN
F 1 "N/F" H 9406 4515 40  0000 L CNN
F 2 "MyKiCadLibs-Footprints:SMD-0805" H 9438 4450 30  0001 C CNN
F 3 "" H 9400 4600 60  0000 C CNN
	1    9400 4600
	0    -1   -1   0   
$EndComp
$Comp
L C C448
U 1 1 5631C764
P 9400 5750
F 0 "C448" H 9400 5850 40  0000 L CNN
F 1 "N/F" H 9406 5665 40  0000 L CNN
F 2 "MyKiCadLibs-Footprints:SMD-0805" H 9438 5600 30  0001 C CNN
F 3 "" H 9400 5750 60  0000 C CNN
	1    9400 5750
	0    -1   -1   0   
$EndComp
$Comp
L R R451
U 1 1 5631C76A
P 8150 3600
F 0 "R451" V 8070 3600 40  0000 C CNN
F 1 "2k2" V 8157 3601 40  0000 C CNN
F 2 "MyKiCadLibs-Footprints:SMD-1206" V 8080 3600 30  0001 C CNN
F 3 "" H 8150 3600 30  0000 C CNN
	1    8150 3600
	0    -1   -1   0   
$EndComp
$Comp
L R R452
U 1 1 5633348F
P 8150 4900
F 0 "R452" V 8070 4900 40  0000 C CNN
F 1 "2k2" V 8157 4901 40  0000 C CNN
F 2 "MyKiCadLibs-Footprints:SMD-1206" V 8080 4900 30  0001 C CNN
F 3 "" H 8150 4900 30  0000 C CNN
	1    8150 4900
	0    -1   -1   0   
$EndComp
Wire Wire Line
	7750 3800 7800 3800
Connection ~ 7800 3800
Wire Wire Line
	9900 3700 10100 3700
Wire Wire Line
	7750 4600 7800 4600
Wire Wire Line
	7800 3600 7800 4000
Wire Wire Line
	7800 4400 7800 4900
Wire Wire Line
	7150 4600 7250 4600
Wire Wire Line
	7250 3800 7150 3800
Wire Wire Line
	11900 3750 11900 3850
Wire Wire Line
	11650 3850 12150 3850
Wire Wire Line
	12150 3200 12150 3350
Wire Wire Line
	11900 3350 11900 3200
Wire Wire Line
	11650 3350 11650 3200
Connection ~ 11900 3200
Wire Wire Line
	11650 3750 11650 3850
Connection ~ 11900 3850
Wire Wire Line
	9400 4250 9400 4050
Connection ~ 7800 4600
Wire Wire Line
	11650 3200 12150 3200
Wire Wire Line
	12150 3850 12150 3750
Wire Wire Line
	9650 4350 10000 4350
Wire Wire Line
	10000 4350 10000 3700
Connection ~ 10000 3700
Wire Wire Line
	8850 4350 9150 4350
Wire Wire Line
	8850 4350 8850 3800
Wire Wire Line
	8850 3800 8900 3800
Wire Wire Line
	8400 3600 8900 3600
Wire Wire Line
	8400 4900 8900 4900
Wire Wire Line
	9650 5500 10000 5500
Wire Wire Line
	10000 5500 10000 5000
Wire Wire Line
	9900 5000 10100 5000
Wire Wire Line
	8900 5100 8850 5100
Wire Wire Line
	8850 5100 8850 5500
Wire Wire Line
	8850 5500 9150 5500
Connection ~ 10000 5000
Wire Wire Line
	10750 3350 10650 3350
Wire Wire Line
	10650 3350 10650 3700
Wire Wire Line
	10600 3700 10750 3700
Connection ~ 10650 3700
Wire Wire Line
	11150 3350 11200 3350
Wire Wire Line
	11200 3350 11200 4100
Wire Wire Line
	11200 3700 11150 3700
Wire Wire Line
	10750 4650 10650 4650
Wire Wire Line
	10650 4650 10650 5000
Wire Wire Line
	10600 5000 10750 5000
Connection ~ 10650 5000
Wire Wire Line
	11150 4650 11200 4650
Wire Wire Line
	11200 4200 11200 5000
Wire Wire Line
	11200 5000 11150 5000
Wire Wire Line
	11200 4100 11300 4100
Connection ~ 11200 3700
Wire Wire Line
	11300 4200 11200 4200
Connection ~ 11200 4650
Wire Wire Line
	8500 3700 8500 3600
Connection ~ 8500 3600
Wire Wire Line
	8500 4850 8500 4900
Connection ~ 8500 4900
Wire Wire Line
	8500 4200 8500 4350
Wire Wire Line
	8500 4250 8700 4250
Wire Wire Line
	8700 4250 8700 4350
Connection ~ 8500 4250
Wire Wire Line
	9200 4600 9100 4600
Wire Wire Line
	9100 4600 9100 4350
Connection ~ 9100 4350
Wire Wire Line
	9600 4600 9700 4600
Wire Wire Line
	9700 4600 9700 4350
Connection ~ 9700 4350
Wire Wire Line
	9200 5750 9100 5750
Wire Wire Line
	9100 5750 9100 5500
Wire Wire Line
	9600 5750 9700 5750
Wire Wire Line
	9700 5750 9700 5500
Connection ~ 9100 5500
Connection ~ 9700 5500
Wire Wire Line
	7800 4900 7900 4900
Wire Wire Line
	7800 3600 7900 3600
Wire Wire Line
	9200 3300 9400 3300
Wire Wire Line
	9400 3300 9400 3350
$Comp
L R R445
U 1 1 56333490
P 7500 6450
F 0 "R445" V 7420 6450 40  0000 C CNN
F 1 "240" V 7507 6451 40  0000 C CNN
F 2 "MyKiCadLibs-Footprints:SMD-1206" V 7430 6450 30  0001 C CNN
F 3 "" H 7500 6450 30  0000 C CNN
	1    7500 6450
	0    -1   -1   0   
$EndComp
$Comp
L R R446
U 1 1 56333491
P 7500 7250
F 0 "R446" V 7420 7250 40  0000 C CNN
F 1 "240" V 7507 7251 40  0000 C CNN
F 2 "MyKiCadLibs-Footprints:SMD-1206" V 7430 7250 30  0001 C CNN
F 3 "" H 7500 7250 30  0000 C CNN
	1    7500 7250
	0    -1   -1   0   
$EndComp
$Comp
L C C443
U 1 1 56333492
P 7800 6850
F 0 "C443" H 7800 6950 40  0000 L CNN
F 1 "2n7" H 7806 6765 40  0000 L CNN
F 2 "MyKiCadLibs-Footprints:SMD-0805" H 7838 6700 30  0001 C CNN
F 3 "" H 7800 6850 60  0000 C CNN
	1    7800 6850
	-1   0    0    1   
$EndComp
Text HLabel 7150 6450 0    60   Input ~ 0
P7
Text HLabel 7150 7250 0    60   Input ~ 0
N7
$Comp
L R R477
U 1 1 5631C7D7
P 10350 6350
F 0 "R477" V 10270 6350 40  0000 C CNN
F 1 "100" V 10357 6351 40  0000 C CNN
F 2 "MyKiCadLibs-Footprints:SMD-1206" V 10280 6350 30  0001 C CNN
F 3 "" H 10350 6350 30  0000 C CNN
	1    10350 6350
	0    1    1    0   
$EndComp
$Comp
L C C479
U 1 1 5631C7DD
P 12150 6200
F 0 "C479" H 12150 6300 40  0000 L CNN
F 1 "100n" H 12156 6115 40  0000 L CNN
F 2 "MyKiCadLibs-Footprints:SMD-0805" H 12188 6050 30  0001 C CNN
F 3 "" H 12150 6200 60  0000 C CNN
	1    12150 6200
	-1   0    0    1   
$EndComp
$Comp
L C C475
U 1 1 56333495
P 11900 6200
F 0 "C475" H 11900 6300 40  0000 L CNN
F 1 "1n" H 11906 6115 40  0000 L CNN
F 2 "MyKiCadLibs-Footprints:SMD-0805" H 11938 6050 30  0001 C CNN
F 3 "" H 11900 6200 60  0000 C CNN
	1    11900 6200
	-1   0    0    1   
$EndComp
$Comp
L C C471
U 1 1 56333496
P 11650 6200
F 0 "C471" H 11650 6300 40  0000 L CNN
F 1 "10u" H 11656 6115 40  0000 L CNN
F 2 "MyKiCadLibs-Footprints:SMD-0805" H 11688 6050 30  0001 C CNN
F 3 "" H 11650 6200 60  0000 C CNN
	1    11650 6200
	-1   0    0    1   
$EndComp
$Comp
L CONN_2x1 P407
U 1 1 56333497
P 11300 6750
F 0 "P407" V 11795 6595 40  0000 C CNN
F 1 "CONN_2x1" V 11740 6710 40  0000 C CNN
F 2 "MyKiCadLibs-Footprints:CONN_SIL_2" H 11640 6640 60  0001 C CNN
F 3 "" H 11640 6640 60  0000 C CNN
	1    11300 6750
	1    0    0    -1  
$EndComp
Text Label 9400 6900 1    60   ~ 0
VEE1
Text Label 9400 5950 2    60   ~ 0
VCC1
$Comp
L IC-OPAMP-DUAL-SOIC8 U407
U 1 1 56333498
P 9400 6350
F 0 "U407" H 9450 6200 60  0000 L CNN
F 1 "IC-OPAMP-DUAL-SOIC8" H 9450 6100 60  0000 L CNN
F 2 "MyKiCadLibs-Footprints:IC_SOIC_8" H 9400 6350 60  0001 C CNN
F 3 "" H 9400 6350 60  0000 C CNN
	1    9400 6350
	1    0    0    -1  
$EndComp
$Comp
L IC-OPAMP-DUAL-SOIC8 U407
U 2 1 56333499
P 9400 7650
F 0 "U407" H 9450 7500 60  0000 L CNN
F 1 "IC-OPAMP-DUAL-SOIC8" H 9450 7400 60  0000 L CNN
F 2 "MyKiCadLibs-Footprints:IC_SOIC_8" H 9400 7650 60  0001 C CNN
F 3 "" H 9400 7650 60  0000 C CNN
	2    9400 7650
	1    0    0    -1  
$EndComp
Text Label 11650 6500 0    60   ~ 0
VEE1
Text Label 11650 5850 0    60   ~ 0
VCC1
$Comp
L R R469
U 1 1 5633349A
P 9400 7000
F 0 "R469" V 9320 7000 40  0000 C CNN
F 1 "1k" V 9407 7001 40  0000 C CNN
F 2 "MyKiCadLibs-Footprints:SMD-1206" V 9330 7000 30  0001 C CNN
F 3 "" H 9400 7000 30  0000 C CNN
	1    9400 7000
	0    -1   -1   0   
$EndComp
$Comp
L R R470
U 1 1 5633349B
P 9400 8150
F 0 "R470" V 9320 8150 40  0000 C CNN
F 1 "1k" V 9407 8151 40  0000 C CNN
F 2 "MyKiCadLibs-Footprints:SMD-1206" V 9330 8150 30  0001 C CNN
F 3 "" H 9400 8150 30  0000 C CNN
	1    9400 8150
	0    -1   -1   0   
$EndComp
$Comp
L R R478
U 1 1 5631C811
P 10350 7650
F 0 "R478" V 10270 7650 40  0000 C CNN
F 1 "100" V 10357 7651 40  0000 C CNN
F 2 "MyKiCadLibs-Footprints:SMD-1206" V 10280 7650 30  0001 C CNN
F 3 "" H 10350 7650 30  0000 C CNN
	1    10350 7650
	0    1    1    0   
$EndComp
$Comp
L CP1 C462
U 1 1 5631C817
P 10950 6350
F 0 "C462" H 11000 6450 50  0000 L CNN
F 1 "100u" H 11000 6250 50  0000 L CNN
F 2 "MyKiCadLibs-Footprints:CAP-TH-D8mmP3.5mm" H 10950 6350 60  0001 C CNN
F 3 "" H 10950 6350 60  0000 C CNN
	1    10950 6350
	0    -1   -1   0   
$EndComp
$Comp
L C C461
U 1 1 5631C81D
P 10950 6000
F 0 "C461" H 10950 6100 40  0000 L CNN
F 1 "100n" H 10956 5915 40  0000 L CNN
F 2 "MyKiCadLibs-Footprints:SMD-1210" H 10988 5850 30  0001 C CNN
F 3 "" H 10950 6000 60  0000 C CNN
	1    10950 6000
	0    -1   -1   0   
$EndComp
$Comp
L CP1 C464
U 1 1 5633349F
P 10950 7650
F 0 "C464" H 11000 7750 50  0000 L CNN
F 1 "100u" H 11000 7550 50  0000 L CNN
F 2 "MyKiCadLibs-Footprints:CAP-TH-D8mmP3.5mm" H 10950 7650 60  0001 C CNN
F 3 "" H 10950 7650 60  0000 C CNN
	1    10950 7650
	0    -1   -1   0   
$EndComp
$Comp
L C C463
U 1 1 563334A0
P 10950 7300
F 0 "C463" H 10950 7400 40  0000 L CNN
F 1 "100n" H 10956 7215 40  0000 L CNN
F 2 "MyKiCadLibs-Footprints:SMD-1210" H 10988 7150 30  0001 C CNN
F 3 "" H 10950 7300 60  0000 C CNN
	1    10950 7300
	0    -1   -1   0   
$EndComp
$Comp
L R R461
U 1 1 5631C82F
P 8500 6600
F 0 "R461" V 8420 6600 40  0000 C CNN
F 1 "2k2" V 8507 6601 40  0000 C CNN
F 2 "MyKiCadLibs-Footprints:SMD-1206" V 8430 6600 30  0001 C CNN
F 3 "" H 8500 6600 30  0000 C CNN
	1    8500 6600
	1    0    0    -1  
$EndComp
$Comp
L R R462
U 1 1 5631C835
P 8500 7250
F 0 "R462" V 8420 7250 40  0000 C CNN
F 1 "2k2" V 8507 7251 40  0000 C CNN
F 2 "MyKiCadLibs-Footprints:SMD-1206" V 8430 7250 30  0001 C CNN
F 3 "" H 8500 7250 30  0000 C CNN
	1    8500 7250
	1    0    0    -1  
$EndComp
$Comp
L GNDA #PWR040
U 1 1 5631C83B
P 8700 7000
F 0 "#PWR040" H 8700 6750 50  0001 C CNN
F 1 "GNDA" H 8700 6850 50  0000 C CNN
F 2 "" H 8700 7000 60  0000 C CNN
F 3 "" H 8700 7000 60  0000 C CNN
	1    8700 7000
	1    0    0    -1  
$EndComp
$Comp
L C C449
U 1 1 5631C841
P 9400 7250
F 0 "C449" H 9400 7350 40  0000 L CNN
F 1 "N/F" H 9406 7165 40  0000 L CNN
F 2 "MyKiCadLibs-Footprints:SMD-0805" H 9438 7100 30  0001 C CNN
F 3 "" H 9400 7250 60  0000 C CNN
	1    9400 7250
	0    -1   -1   0   
$EndComp
$Comp
L C C450
U 1 1 5631C847
P 9400 8400
F 0 "C450" H 9400 8500 40  0000 L CNN
F 1 "N/F" H 9406 8315 40  0000 L CNN
F 2 "MyKiCadLibs-Footprints:SMD-0805" H 9438 8250 30  0001 C CNN
F 3 "" H 9400 8400 60  0000 C CNN
	1    9400 8400
	0    -1   -1   0   
$EndComp
$Comp
L R R453
U 1 1 563334A6
P 8150 6250
F 0 "R453" V 8070 6250 40  0000 C CNN
F 1 "2k2" V 8157 6251 40  0000 C CNN
F 2 "MyKiCadLibs-Footprints:SMD-1206" V 8080 6250 30  0001 C CNN
F 3 "" H 8150 6250 30  0000 C CNN
	1    8150 6250
	0    -1   -1   0   
$EndComp
$Comp
L R R454
U 1 1 563334A7
P 8150 7550
F 0 "R454" V 8070 7550 40  0000 C CNN
F 1 "2k2" V 8157 7551 40  0000 C CNN
F 2 "MyKiCadLibs-Footprints:SMD-1206" V 8080 7550 30  0001 C CNN
F 3 "" H 8150 7550 30  0000 C CNN
	1    8150 7550
	0    -1   -1   0   
$EndComp
Wire Wire Line
	7750 6450 7800 6450
Connection ~ 7800 6450
Wire Wire Line
	9900 6350 10100 6350
Wire Wire Line
	7750 7250 7800 7250
Wire Wire Line
	7800 6250 7800 6650
Wire Wire Line
	7800 7050 7800 7550
Wire Wire Line
	7150 7250 7250 7250
Wire Wire Line
	7250 6450 7150 6450
Wire Wire Line
	11900 6400 11900 6500
Wire Wire Line
	11650 6500 12150 6500
Wire Wire Line
	12150 5850 12150 6000
Wire Wire Line
	11900 6000 11900 5850
Wire Wire Line
	11650 6000 11650 5850
Connection ~ 11900 5850
Wire Wire Line
	11650 6400 11650 6500
Connection ~ 11900 6500
Wire Wire Line
	9400 6900 9400 6700
Connection ~ 7800 7250
Wire Wire Line
	11650 5850 12150 5850
Wire Wire Line
	12150 6500 12150 6400
Wire Wire Line
	9650 7000 10000 7000
Wire Wire Line
	10000 7000 10000 6350
Connection ~ 10000 6350
Wire Wire Line
	8850 7000 9150 7000
Wire Wire Line
	8850 7000 8850 6450
Wire Wire Line
	8850 6450 8900 6450
Wire Wire Line
	8400 6250 8900 6250
Wire Wire Line
	8400 7550 8900 7550
Wire Wire Line
	9650 8150 10000 8150
Wire Wire Line
	10000 8150 10000 7650
Wire Wire Line
	9900 7650 10100 7650
Wire Wire Line
	8900 7750 8850 7750
Wire Wire Line
	8850 7750 8850 8150
Wire Wire Line
	8850 8150 9150 8150
Connection ~ 10000 7650
Wire Wire Line
	10750 6000 10650 6000
Wire Wire Line
	10650 6000 10650 6350
Wire Wire Line
	10600 6350 10750 6350
Connection ~ 10650 6350
Wire Wire Line
	11150 6000 11200 6000
Wire Wire Line
	11200 6000 11200 6750
Wire Wire Line
	11200 6350 11150 6350
Wire Wire Line
	10750 7300 10650 7300
Wire Wire Line
	10650 7300 10650 7650
Wire Wire Line
	10600 7650 10750 7650
Connection ~ 10650 7650
Wire Wire Line
	11150 7300 11200 7300
Wire Wire Line
	11200 6850 11200 7650
Wire Wire Line
	11200 7650 11150 7650
Wire Wire Line
	11200 6750 11300 6750
Connection ~ 11200 6350
Wire Wire Line
	11300 6850 11200 6850
Connection ~ 11200 7300
Wire Wire Line
	8500 6350 8500 6250
Connection ~ 8500 6250
Wire Wire Line
	8500 7500 8500 7550
Connection ~ 8500 7550
Wire Wire Line
	8500 6850 8500 7000
Wire Wire Line
	8500 6900 8700 6900
Wire Wire Line
	8700 6900 8700 7000
Connection ~ 8500 6900
Wire Wire Line
	9200 7250 9100 7250
Wire Wire Line
	9100 7250 9100 7000
Connection ~ 9100 7000
Wire Wire Line
	9600 7250 9700 7250
Wire Wire Line
	9700 7250 9700 7000
Connection ~ 9700 7000
Wire Wire Line
	9200 8400 9100 8400
Wire Wire Line
	9100 8400 9100 8150
Wire Wire Line
	9600 8400 9700 8400
Wire Wire Line
	9700 8400 9700 8150
Connection ~ 9100 8150
Connection ~ 9700 8150
Wire Wire Line
	7800 7550 7900 7550
Wire Wire Line
	7800 6250 7900 6250
Wire Wire Line
	9200 5950 9400 5950
Wire Wire Line
	9400 5950 9400 6000
$Comp
L R R447
U 1 1 563334A8
P 7500 9100
F 0 "R447" V 7420 9100 40  0000 C CNN
F 1 "240" V 7507 9101 40  0000 C CNN
F 2 "MyKiCadLibs-Footprints:SMD-1206" V 7430 9100 30  0001 C CNN
F 3 "" H 7500 9100 30  0000 C CNN
	1    7500 9100
	0    -1   -1   0   
$EndComp
$Comp
L R R448
U 1 1 5631C8AC
P 7500 9900
F 0 "R448" V 7420 9900 40  0000 C CNN
F 1 "240" V 7507 9901 40  0000 C CNN
F 2 "MyKiCadLibs-Footprints:SMD-1206" V 7430 9900 30  0001 C CNN
F 3 "" H 7500 9900 30  0000 C CNN
	1    7500 9900
	0    -1   -1   0   
$EndComp
$Comp
L C C444
U 1 1 5631C8B2
P 7800 9500
F 0 "C444" H 7800 9600 40  0000 L CNN
F 1 "2n7" H 7806 9415 40  0000 L CNN
F 2 "MyKiCadLibs-Footprints:SMD-0805" H 7838 9350 30  0001 C CNN
F 3 "" H 7800 9500 60  0000 C CNN
	1    7800 9500
	-1   0    0    1   
$EndComp
Text HLabel 7150 9100 0    60   Input ~ 0
P8
Text HLabel 7150 9900 0    60   Input ~ 0
N8
$Comp
L R R479
U 1 1 5631C8BA
P 10350 9000
F 0 "R479" V 10270 9000 40  0000 C CNN
F 1 "100" V 10357 9001 40  0000 C CNN
F 2 "MyKiCadLibs-Footprints:SMD-1206" V 10280 9000 30  0001 C CNN
F 3 "" H 10350 9000 30  0000 C CNN
	1    10350 9000
	0    1    1    0   
$EndComp
$Comp
L C C480
U 1 1 563334AC
P 12150 8850
F 0 "C480" H 12150 8950 40  0000 L CNN
F 1 "100n" H 12156 8765 40  0000 L CNN
F 2 "MyKiCadLibs-Footprints:SMD-0805" H 12188 8700 30  0001 C CNN
F 3 "" H 12150 8850 60  0000 C CNN
	1    12150 8850
	-1   0    0    1   
$EndComp
$Comp
L C C476
U 1 1 563334AD
P 11900 8850
F 0 "C476" H 11900 8950 40  0000 L CNN
F 1 "1n" H 11906 8765 40  0000 L CNN
F 2 "MyKiCadLibs-Footprints:SMD-0805" H 11938 8700 30  0001 C CNN
F 3 "" H 11900 8850 60  0000 C CNN
	1    11900 8850
	-1   0    0    1   
$EndComp
$Comp
L C C472
U 1 1 5631C8CC
P 11650 8850
F 0 "C472" H 11650 8950 40  0000 L CNN
F 1 "10u" H 11656 8765 40  0000 L CNN
F 2 "MyKiCadLibs-Footprints:SMD-0805" H 11688 8700 30  0001 C CNN
F 3 "" H 11650 8850 60  0000 C CNN
	1    11650 8850
	-1   0    0    1   
$EndComp
$Comp
L CONN_2x1 P408
U 1 1 5631C8D2
P 11300 9400
F 0 "P408" V 11795 9245 40  0000 C CNN
F 1 "CONN_2x1" V 11740 9360 40  0000 C CNN
F 2 "MyKiCadLibs-Footprints:CONN_SIL_2" H 11640 9290 60  0001 C CNN
F 3 "" H 11640 9290 60  0000 C CNN
	1    11300 9400
	1    0    0    -1  
$EndComp
Text Label 9400 9550 1    60   ~ 0
VEE1
Text Label 9400 8600 2    60   ~ 0
VCC1
$Comp
L IC-OPAMP-DUAL-SOIC8 U408
U 1 1 5631C8DA
P 9400 9000
F 0 "U408" H 9450 8850 60  0000 L CNN
F 1 "IC-OPAMP-DUAL-SOIC8" H 9450 8750 60  0000 L CNN
F 2 "MyKiCadLibs-Footprints:IC_SOIC_8" H 9400 9000 60  0001 C CNN
F 3 "" H 9400 9000 60  0000 C CNN
	1    9400 9000
	1    0    0    -1  
$EndComp
$Comp
L IC-OPAMP-DUAL-SOIC8 U408
U 2 1 5631C8E0
P 9400 10300
F 0 "U408" H 9450 10150 60  0000 L CNN
F 1 "IC-OPAMP-DUAL-SOIC8" H 9450 10050 60  0000 L CNN
F 2 "MyKiCadLibs-Footprints:IC_SOIC_8" H 9400 10300 60  0001 C CNN
F 3 "" H 9400 10300 60  0000 C CNN
	2    9400 10300
	1    0    0    -1  
$EndComp
Text Label 11650 9150 0    60   ~ 0
VEE1
Text Label 11650 8500 0    60   ~ 0
VCC1
$Comp
L R R471
U 1 1 5631C8E8
P 9400 9650
F 0 "R471" V 9320 9650 40  0000 C CNN
F 1 "1k" V 9407 9651 40  0000 C CNN
F 2 "MyKiCadLibs-Footprints:SMD-1206" V 9330 9650 30  0001 C CNN
F 3 "" H 9400 9650 30  0000 C CNN
	1    9400 9650
	0    -1   -1   0   
$EndComp
$Comp
L R R472
U 1 1 5631C8EE
P 9400 10800
F 0 "R472" V 9320 10800 40  0000 C CNN
F 1 "1k" V 9407 10801 40  0000 C CNN
F 2 "MyKiCadLibs-Footprints:SMD-1206" V 9330 10800 30  0001 C CNN
F 3 "" H 9400 10800 30  0000 C CNN
	1    9400 10800
	0    -1   -1   0   
$EndComp
$Comp
L R R480
U 1 1 5631C8F4
P 10350 10300
F 0 "R480" V 10270 10300 40  0000 C CNN
F 1 "100" V 10357 10301 40  0000 C CNN
F 2 "MyKiCadLibs-Footprints:SMD-1206" V 10280 10300 30  0001 C CNN
F 3 "" H 10350 10300 30  0000 C CNN
	1    10350 10300
	0    1    1    0   
$EndComp
$Comp
L CP1 C466
U 1 1 5631C8FA
P 10950 9000
F 0 "C466" H 11000 9100 50  0000 L CNN
F 1 "100u" H 11000 8900 50  0000 L CNN
F 2 "MyKiCadLibs-Footprints:CAP-TH-D8mmP3.5mm" H 10950 9000 60  0001 C CNN
F 3 "" H 10950 9000 60  0000 C CNN
	1    10950 9000
	0    -1   -1   0   
$EndComp
$Comp
L C C465
U 1 1 563334B6
P 10950 8650
F 0 "C465" H 10950 8750 40  0000 L CNN
F 1 "100n" H 10956 8565 40  0000 L CNN
F 2 "MyKiCadLibs-Footprints:SMD-1210" H 10988 8500 30  0001 C CNN
F 3 "" H 10950 8650 60  0000 C CNN
	1    10950 8650
	0    -1   -1   0   
$EndComp
$Comp
L CP1 C468
U 1 1 563334B7
P 10950 10300
F 0 "C468" H 11000 10400 50  0000 L CNN
F 1 "100u" H 11000 10200 50  0000 L CNN
F 2 "MyKiCadLibs-Footprints:CAP-TH-D8mmP3.5mm" H 10950 10300 60  0001 C CNN
F 3 "" H 10950 10300 60  0000 C CNN
	1    10950 10300
	0    -1   -1   0   
$EndComp
$Comp
L C C467
U 1 1 563334B8
P 10950 9950
F 0 "C467" H 10950 10050 40  0000 L CNN
F 1 "100n" H 10956 9865 40  0000 L CNN
F 2 "MyKiCadLibs-Footprints:SMD-1210" H 10988 9800 30  0001 C CNN
F 3 "" H 10950 9950 60  0000 C CNN
	1    10950 9950
	0    -1   -1   0   
$EndComp
$Comp
L R R463
U 1 1 563334B9
P 8500 9250
F 0 "R463" V 8420 9250 40  0000 C CNN
F 1 "2k2" V 8507 9251 40  0000 C CNN
F 2 "MyKiCadLibs-Footprints:SMD-1206" V 8430 9250 30  0001 C CNN
F 3 "" H 8500 9250 30  0000 C CNN
	1    8500 9250
	1    0    0    -1  
$EndComp
$Comp
L R R464
U 1 1 563334BA
P 8500 9900
F 0 "R464" V 8420 9900 40  0000 C CNN
F 1 "2k2" V 8507 9901 40  0000 C CNN
F 2 "MyKiCadLibs-Footprints:SMD-1206" V 8430 9900 30  0001 C CNN
F 3 "" H 8500 9900 30  0000 C CNN
	1    8500 9900
	1    0    0    -1  
$EndComp
$Comp
L GNDA #PWR041
U 1 1 563334BB
P 8700 9650
F 0 "#PWR041" H 8700 9400 50  0001 C CNN
F 1 "GNDA" H 8700 9500 50  0000 C CNN
F 2 "" H 8700 9650 60  0000 C CNN
F 3 "" H 8700 9650 60  0000 C CNN
	1    8700 9650
	1    0    0    -1  
$EndComp
$Comp
L C C451
U 1 1 563334BC
P 9400 9900
F 0 "C451" H 9400 10000 40  0000 L CNN
F 1 "N/F" H 9406 9815 40  0000 L CNN
F 2 "MyKiCadLibs-Footprints:SMD-0805" H 9438 9750 30  0001 C CNN
F 3 "" H 9400 9900 60  0000 C CNN
	1    9400 9900
	0    -1   -1   0   
$EndComp
$Comp
L C C452
U 1 1 563334BD
P 9400 11050
F 0 "C452" H 9400 11150 40  0000 L CNN
F 1 "N/F" H 9406 10965 40  0000 L CNN
F 2 "MyKiCadLibs-Footprints:SMD-0805" H 9438 10900 30  0001 C CNN
F 3 "" H 9400 11050 60  0000 C CNN
	1    9400 11050
	0    -1   -1   0   
$EndComp
$Comp
L R R455
U 1 1 563334BE
P 8150 8900
F 0 "R455" V 8070 8900 40  0000 C CNN
F 1 "2k2" V 8157 8901 40  0000 C CNN
F 2 "MyKiCadLibs-Footprints:SMD-1206" V 8080 8900 30  0001 C CNN
F 3 "" H 8150 8900 30  0000 C CNN
	1    8150 8900
	0    -1   -1   0   
$EndComp
$Comp
L R R456
U 1 1 5631C936
P 8150 10200
F 0 "R456" V 8070 10200 40  0000 C CNN
F 1 "2k2" V 8157 10201 40  0000 C CNN
F 2 "MyKiCadLibs-Footprints:SMD-1206" V 8080 10200 30  0001 C CNN
F 3 "" H 8150 10200 30  0000 C CNN
	1    8150 10200
	0    -1   -1   0   
$EndComp
Wire Wire Line
	7750 9100 7800 9100
Connection ~ 7800 9100
Wire Wire Line
	9900 9000 10100 9000
Wire Wire Line
	7750 9900 7800 9900
Wire Wire Line
	7800 8900 7800 9300
Wire Wire Line
	7800 9700 7800 10200
Wire Wire Line
	7150 9900 7250 9900
Wire Wire Line
	7250 9100 7150 9100
Wire Wire Line
	11900 9050 11900 9150
Wire Wire Line
	11650 9150 12150 9150
Wire Wire Line
	12150 8500 12150 8650
Wire Wire Line
	11900 8650 11900 8500
Wire Wire Line
	11650 8650 11650 8500
Connection ~ 11900 8500
Wire Wire Line
	11650 9050 11650 9150
Connection ~ 11900 9150
Wire Wire Line
	9400 9550 9400 9350
Connection ~ 7800 9900
Wire Wire Line
	11650 8500 12150 8500
Wire Wire Line
	12150 9150 12150 9050
Wire Wire Line
	9650 9650 10000 9650
Wire Wire Line
	10000 9650 10000 9000
Connection ~ 10000 9000
Wire Wire Line
	8850 9650 9150 9650
Wire Wire Line
	8850 9650 8850 9100
Wire Wire Line
	8850 9100 8900 9100
Wire Wire Line
	8400 8900 8900 8900
Wire Wire Line
	8400 10200 8900 10200
Wire Wire Line
	9650 10800 10000 10800
Wire Wire Line
	10000 10800 10000 10300
Wire Wire Line
	9900 10300 10100 10300
Wire Wire Line
	8900 10400 8850 10400
Wire Wire Line
	8850 10400 8850 10800
Wire Wire Line
	8850 10800 9150 10800
Connection ~ 10000 10300
Wire Wire Line
	10750 8650 10650 8650
Wire Wire Line
	10650 8650 10650 9000
Wire Wire Line
	10600 9000 10750 9000
Connection ~ 10650 9000
Wire Wire Line
	11150 8650 11200 8650
Wire Wire Line
	11200 8650 11200 9400
Wire Wire Line
	11200 9000 11150 9000
Wire Wire Line
	10750 9950 10650 9950
Wire Wire Line
	10650 9950 10650 10300
Wire Wire Line
	10600 10300 10750 10300
Connection ~ 10650 10300
Wire Wire Line
	11150 9950 11200 9950
Wire Wire Line
	11200 9500 11200 10300
Wire Wire Line
	11200 10300 11150 10300
Wire Wire Line
	11200 9400 11300 9400
Connection ~ 11200 9000
Wire Wire Line
	11300 9500 11200 9500
Connection ~ 11200 9950
Wire Wire Line
	8500 9000 8500 8900
Connection ~ 8500 8900
Wire Wire Line
	8500 10150 8500 10200
Connection ~ 8500 10200
Wire Wire Line
	8500 9500 8500 9650
Wire Wire Line
	8500 9550 8700 9550
Wire Wire Line
	8700 9550 8700 9650
Connection ~ 8500 9550
Wire Wire Line
	9200 9900 9100 9900
Wire Wire Line
	9100 9900 9100 9650
Connection ~ 9100 9650
Wire Wire Line
	9600 9900 9700 9900
Wire Wire Line
	9700 9900 9700 9650
Connection ~ 9700 9650
Wire Wire Line
	9200 11050 9100 11050
Wire Wire Line
	9100 11050 9100 10800
Wire Wire Line
	9600 11050 9700 11050
Wire Wire Line
	9700 11050 9700 10800
Connection ~ 9100 10800
Connection ~ 9700 10800
Wire Wire Line
	7800 10200 7900 10200
Wire Wire Line
	7800 8900 7900 8900
Wire Wire Line
	9200 8600 9400 8600
Wire Wire Line
	9400 8600 9400 8650
$EndSCHEMATC
