EESchema Schematic File Version 2
LIBS:power
LIBS:MyKiCadLibs-Lib
LIBS:DAC-ADAU1966-16Channel-cache
EELAYER 25 0
EELAYER END
$Descr A3 16535 11693
encoding utf-8
Sheet 2 6
Title ""
Date "10 feb 2015"
Rev ""
Comp ""
Comment1 ""
Comment2 ""
Comment3 ""
Comment4 ""
$EndDescr
Text HLabel 12850 1500 0    60   BiDi ~ 0
I2C_SCL
Text HLabel 12850 1600 0    60   BiDi ~ 0
I2C_SDA
$Comp
L R R207
U 1 1 54E4B9FE
P 2850 2050
F 0 "R207" V 2900 2350 40  0000 C CNN
F 1 "N/F" V 2857 2051 40  0000 C CNN
F 2 "MyKiCadLibs-Footprints:SMD-0805" V 2780 2050 30  0001 C CNN
F 3 "~" H 2850 2050 30  0000 C CNN
	1    2850 2050
	-1   0    0    1   
$EndComp
$Comp
L R R208
U 1 1 54E4BA04
P 3000 2050
F 0 "R208" V 3050 2350 40  0000 C CNN
F 1 "N/F" V 3007 2051 40  0000 C CNN
F 2 "MyKiCadLibs-Footprints:SMD-0805" V 2930 2050 30  0001 C CNN
F 3 "~" H 3000 2050 30  0000 C CNN
	1    3000 2050
	-1   0    0    1   
$EndComp
$Comp
L R R209
U 1 1 54E4BA0A
P 3150 2050
F 0 "R209" V 3200 2350 40  0000 C CNN
F 1 "N/F" V 3157 2051 40  0000 C CNN
F 2 "MyKiCadLibs-Footprints:SMD-0805" V 3080 2050 30  0001 C CNN
F 3 "~" H 3150 2050 30  0000 C CNN
	1    3150 2050
	-1   0    0    1   
$EndComp
$Comp
L R R203
U 1 1 54E4BA76
P 2500 1350
F 0 "R203" V 2550 1650 40  0000 C CNN
F 1 "0R" V 2507 1351 40  0000 C CNN
F 2 "MyKiCadLibs-Footprints:SMD-0805" V 2430 1350 30  0001 C CNN
F 3 "~" H 2500 1350 30  0000 C CNN
	1    2500 1350
	0    -1   -1   0   
$EndComp
$Comp
L R R204
U 1 1 54E4BA7C
P 2500 1550
F 0 "R204" V 2550 1850 40  0000 C CNN
F 1 "0R" V 2507 1551 40  0000 C CNN
F 2 "MyKiCadLibs-Footprints:SMD-0805" V 2430 1550 30  0001 C CNN
F 3 "~" H 2500 1550 30  0000 C CNN
	1    2500 1550
	0    -1   -1   0   
$EndComp
$Comp
L R R205
U 1 1 54E4BA82
P 2500 1750
F 0 "R205" V 2550 2050 40  0000 C CNN
F 1 "0R" V 2507 1751 40  0000 C CNN
F 2 "MyKiCadLibs-Footprints:SMD-0805" V 2430 1750 30  0001 C CNN
F 3 "~" H 2500 1750 30  0000 C CNN
	1    2500 1750
	0    -1   -1   0   
$EndComp
$Comp
L GNDD #PWR02
U 1 1 54E4C333
P 2850 2550
F 0 "#PWR02" H 2850 2300 60  0001 C CNN
F 1 "GNDD" H 2850 2400 60  0000 C CNN
F 2 "" H 2850 2550 60  0000 C CNN
F 3 "" H 2850 2550 60  0000 C CNN
	1    2850 2550
	1    0    0    -1  
$EndComp
$Comp
L CONN_02X05 P202
U 1 1 54E3B834
P 1550 1550
F 0 "P202" H 1550 1850 50  0000 C CNN
F 1 "CONN_02X05" H 1550 1250 50  0000 C CNN
F 2 "MyKiCadLibs-Footprints:CONN_DIL_2X5_BOX" H 1550 350 60  0001 C CNN
F 3 "" H 1550 350 60  0000 C CNN
	1    1550 1550
	1    0    0    -1  
$EndComp
$Comp
L GNDD #PWR03
U 1 1 54E3B83E
P 1850 1800
F 0 "#PWR03" H 1850 1550 60  0001 C CNN
F 1 "GNDD" H 1850 1650 60  0000 C CNN
F 2 "" H 1850 1800 60  0000 C CNN
F 3 "" H 1850 1800 60  0000 C CNN
	1    1850 1800
	-1   0    0    -1  
$EndComp
Text Notes 11850 10550 0    59   ~ 0
Copyright Paul Janicki 2015\n\nLicensed under the TAPR Open Hardware License (www.tapr.org/OHL).\n\nThis documentation is distributed\nWITHOUT ANY EXPRESS OR IMPLIED WARRANTY, INCLUDING OF\nMERCHANTABILITY, SATISFACTORY QUALITY AND FITNESS FOR A\nPARTICULAR PURPOSE.\n
NoConn ~ 13700 1600
NoConn ~ 13700 1500
$Comp
L GNDD #PWR04
U 1 1 55002B18
P 1250 1800
F 0 "#PWR04" H 1250 1550 60  0001 C CNN
F 1 "GNDD" H 1250 1650 60  0000 C CNN
F 2 "" H 1250 1800 60  0000 C CNN
F 3 "" H 1250 1800 60  0000 C CNN
	1    1250 1800
	-1   0    0    -1  
$EndComp
$Comp
L R R214
U 1 1 551A45D5
P 14100 1700
F 0 "R214" V 14200 1800 40  0000 C CNN
F 1 "0R" V 14107 1701 40  0000 C CNN
F 2 "MyKiCadLibs-Footprints:SMD-0805" V 14030 1700 30  0001 C CNN
F 3 "~" H 14100 1700 30  0000 C CNN
	1    14100 1700
	0    -1   -1   0   
$EndComp
Text HLabel 14450 1700 2    60   Output ~ 0
RST
$Comp
L R R202
U 1 1 556235CD
P 2500 1150
F 0 "R202" V 2550 1450 40  0000 C CNN
F 1 "0R" V 2507 1151 40  0000 C CNN
F 2 "MyKiCadLibs-Footprints:SMD-0805" V 2430 1150 30  0001 C CNN
F 3 "~" H 2500 1150 30  0000 C CNN
	1    2500 1150
	0    -1   -1   0   
$EndComp
Wire Wire Line
	3150 1350 3150 1800
Wire Wire Line
	1800 1350 2000 1350
Wire Wire Line
	1850 1750 1800 1750
Wire Wire Line
	2050 1750 2250 1750
Wire Wire Line
	2050 1650 2050 1750
Wire Wire Line
	1800 1650 2050 1650
Wire Wire Line
	2250 1550 1800 1550
Wire Wire Line
	2050 1350 2250 1350
Wire Wire Line
	2050 1450 2050 1350
Wire Wire Line
	1800 1450 2050 1450
Connection ~ 3150 1350
Wire Wire Line
	2750 1350 3450 1350
Connection ~ 3000 1550
Wire Wire Line
	2750 1550 3450 1550
Wire Wire Line
	3000 1800 3000 1550
Connection ~ 2850 1750
Wire Wire Line
	2750 1750 3450 1750
Wire Wire Line
	2850 1800 2850 1750
Wire Wire Line
	2850 2300 2850 2550
Connection ~ 3000 2450
Wire Wire Line
	3150 2450 3150 2300
Connection ~ 2850 2450
Wire Wire Line
	2850 2450 3150 2450
Wire Wire Line
	3000 2300 3000 2450
Wire Wire Line
	12850 1600 13200 1600
Wire Wire Line
	12850 1500 13200 1500
Wire Wire Line
	1250 1350 1250 1800
Wire Wire Line
	1250 1750 1300 1750
Wire Wire Line
	1250 1650 1300 1650
Connection ~ 1250 1750
Wire Wire Line
	1250 1550 1300 1550
Connection ~ 1250 1650
Wire Wire Line
	1250 1450 1300 1450
Connection ~ 1250 1550
Wire Wire Line
	1250 1350 1300 1350
Connection ~ 1250 1450
Wire Wire Line
	14450 1700 14350 1700
Wire Wire Line
	13850 1700 13700 1700
Wire Wire Line
	2000 1350 2000 1150
Wire Wire Line
	2000 1150 2250 1150
Wire Wire Line
	1850 1750 1850 1800
Wire Wire Line
	3450 1150 2750 1150
Text HLabel 3450 1150 2    60   Output ~ 0
MCLK
$Comp
L GNDD #PWR05
U 1 1 561756E3
P 13800 2150
F 0 "#PWR05" H 13800 1900 60  0001 C CNN
F 1 "GNDD" H 13800 2000 60  0000 C CNN
F 2 "" H 13800 2150 60  0000 C CNN
F 3 "" H 13800 2150 60  0000 C CNN
	1    13800 2150
	1    0    0    -1  
$EndComp
Wire Wire Line
	13800 2150 13800 1900
Wire Wire Line
	13800 1900 13700 1900
Text Notes 12250 1150 0    118  ~ 0
I2C/SPI Connector
Text HLabel 12850 1700 0    60   Input ~ 0
SPI_MISO
Text HLabel 12850 1800 0    60   Output ~ 0
SPI_SCLK
Text HLabel 12850 1900 0    60   Output ~ 0
SPI_SS1
Wire Wire Line
	12850 1700 13200 1700
Wire Wire Line
	12850 1800 13200 1800
Wire Wire Line
	13200 1900 12850 1900
Text HLabel 14450 1800 2    60   Output ~ 0
SPI_MOSI
Wire Wire Line
	14450 1800 13700 1800
$Comp
L CONN_02X07 P205
U 1 1 5628BD2D
P 13450 1600
F 0 "P205" H 13450 1900 50  0000 C CNN
F 1 "CONN_02X07" H 13450 1100 50  0000 C CNN
F 2 "MyKiCadLibs-Footprints:CONN_DIL_2X7_BOX" H 13450 400 60  0001 C CNN
F 3 "" H 13450 400 60  0000 C CNN
	1    13450 1600
	1    0    0    -1  
$EndComp
Text HLabel 12850 1400 0    60   Output ~ 0
SPI_SS2
Text HLabel 12850 2000 0    60   Output ~ 0
SPI_SS4
Text HLabel 13950 2000 2    60   Output ~ 0
SPI_SS5
Wire Wire Line
	13700 2000 13950 2000
Wire Wire Line
	13200 2000 12850 2000
Wire Wire Line
	12850 1400 13200 1400
Text HLabel 13950 1400 2    60   Output ~ 0
SPI_SS3
Wire Wire Line
	13950 1400 13700 1400
$Comp
L R R206
U 1 1 5636304D
P 2800 3800
F 0 "R206" V 2850 4100 40  0000 C CNN
F 1 "N/F" V 2807 3801 40  0000 C CNN
F 2 "MyKiCadLibs-Footprints:SMD-0805" V 2730 3800 30  0001 C CNN
F 3 "~" H 2800 3800 30  0000 C CNN
	1    2800 3800
	-1   0    0    1   
$EndComp
$Comp
L R R201
U 1 1 5636306B
P 2450 3500
F 0 "R201" V 2500 3800 40  0000 C CNN
F 1 "0R" V 2457 3501 40  0000 C CNN
F 2 "MyKiCadLibs-Footprints:SMD-0805" V 2380 3500 30  0001 C CNN
F 3 "~" H 2450 3500 30  0000 C CNN
	1    2450 3500
	0    -1   -1   0   
$EndComp
$Comp
L GNDD #PWR06
U 1 1 56363071
P 2800 4300
F 0 "#PWR06" H 2800 4050 60  0001 C CNN
F 1 "GNDD" H 2800 4150 60  0000 C CNN
F 2 "" H 2800 4300 60  0000 C CNN
F 3 "" H 2800 4300 60  0000 C CNN
	1    2800 4300
	1    0    0    -1  
$EndComp
$Comp
L CONN_02X05 P201
U 1 1 56363077
P 1500 3300
F 0 "P201" H 1500 3600 50  0000 C CNN
F 1 "CONN_02X05" H 1500 3000 50  0000 C CNN
F 2 "MyKiCadLibs-Footprints:CONN_DIL_2X5_BOX" H 1500 2100 60  0001 C CNN
F 3 "" H 1500 2100 60  0000 C CNN
	1    1500 3300
	1    0    0    -1  
$EndComp
$Comp
L GNDD #PWR07
U 1 1 5636307D
P 1800 3550
F 0 "#PWR07" H 1800 3300 60  0001 C CNN
F 1 "GNDD" H 1800 3400 60  0000 C CNN
F 2 "" H 1800 3550 60  0000 C CNN
F 3 "" H 1800 3550 60  0000 C CNN
	1    1800 3550
	-1   0    0    -1  
$EndComp
$Comp
L GNDD #PWR08
U 1 1 56363083
P 1200 3550
F 0 "#PWR08" H 1200 3300 60  0001 C CNN
F 1 "GNDD" H 1200 3400 60  0000 C CNN
F 2 "" H 1200 3550 60  0000 C CNN
F 3 "" H 1200 3550 60  0000 C CNN
	1    1200 3550
	-1   0    0    -1  
$EndComp
Wire Wire Line
	1800 3500 1750 3500
Wire Wire Line
	2000 3500 2200 3500
Wire Wire Line
	2000 3400 2000 3500
Wire Wire Line
	1750 3400 2000 3400
Connection ~ 2800 3500
Wire Wire Line
	2700 3500 3050 3500
Wire Wire Line
	2800 3550 2800 3500
Wire Wire Line
	2800 4050 2800 4300
Wire Wire Line
	1200 3100 1200 3550
Wire Wire Line
	1200 3500 1250 3500
Wire Wire Line
	1200 3400 1250 3400
Connection ~ 1200 3500
Wire Wire Line
	1200 3300 1250 3300
Connection ~ 1200 3400
Wire Wire Line
	1200 3200 1250 3200
Connection ~ 1200 3300
Wire Wire Line
	1200 3100 1250 3100
Connection ~ 1200 3200
Wire Wire Line
	1800 3500 1800 3550
$Comp
L R R213
U 1 1 5636373F
P 6450 1950
F 0 "R213" V 6500 2250 40  0000 C CNN
F 1 "N/F" V 6457 1951 40  0000 C CNN
F 2 "MyKiCadLibs-Footprints:SMD-0805" V 6380 1950 30  0001 C CNN
F 3 "~" H 6450 1950 30  0000 C CNN
	1    6450 1950
	-1   0    0    1   
$EndComp
$Comp
L R R211
U 1 1 56363745
P 6100 1650
F 0 "R211" V 6150 1950 40  0000 C CNN
F 1 "0R" V 6107 1651 40  0000 C CNN
F 2 "MyKiCadLibs-Footprints:SMD-0805" V 6030 1650 30  0001 C CNN
F 3 "~" H 6100 1650 30  0000 C CNN
	1    6100 1650
	0    -1   -1   0   
$EndComp
$Comp
L GNDD #PWR09
U 1 1 5636374B
P 6450 2450
F 0 "#PWR09" H 6450 2200 60  0001 C CNN
F 1 "GNDD" H 6450 2300 60  0000 C CNN
F 2 "" H 6450 2450 60  0000 C CNN
F 3 "" H 6450 2450 60  0000 C CNN
	1    6450 2450
	1    0    0    -1  
$EndComp
$Comp
L CONN_02X05 P204
U 1 1 56363751
P 5150 1450
F 0 "P204" H 5150 1750 50  0000 C CNN
F 1 "CONN_02X05" H 5150 1150 50  0000 C CNN
F 2 "MyKiCadLibs-Footprints:CONN_DIL_2X5_BOX" H 5150 250 60  0001 C CNN
F 3 "" H 5150 250 60  0000 C CNN
	1    5150 1450
	1    0    0    -1  
$EndComp
$Comp
L GNDD #PWR010
U 1 1 56363757
P 5450 1700
F 0 "#PWR010" H 5450 1450 60  0001 C CNN
F 1 "GNDD" H 5450 1550 60  0000 C CNN
F 2 "" H 5450 1700 60  0000 C CNN
F 3 "" H 5450 1700 60  0000 C CNN
	1    5450 1700
	-1   0    0    -1  
$EndComp
$Comp
L GNDD #PWR011
U 1 1 5636375D
P 4850 1700
F 0 "#PWR011" H 4850 1450 60  0001 C CNN
F 1 "GNDD" H 4850 1550 60  0000 C CNN
F 2 "" H 4850 1700 60  0000 C CNN
F 3 "" H 4850 1700 60  0000 C CNN
	1    4850 1700
	-1   0    0    -1  
$EndComp
Wire Wire Line
	5450 1650 5400 1650
Wire Wire Line
	5650 1650 5850 1650
Wire Wire Line
	5650 1550 5650 1650
Wire Wire Line
	5400 1550 5650 1550
Connection ~ 6450 1650
Wire Wire Line
	6350 1650 6650 1650
Wire Wire Line
	6450 1700 6450 1650
Wire Wire Line
	6450 2200 6450 2450
Wire Wire Line
	4850 1250 4850 1700
Wire Wire Line
	4850 1650 4900 1650
Wire Wire Line
	4850 1550 4900 1550
Connection ~ 4850 1650
Wire Wire Line
	4850 1450 4900 1450
Connection ~ 4850 1550
Wire Wire Line
	4850 1350 4900 1350
Connection ~ 4850 1450
Wire Wire Line
	4850 1250 4900 1250
Connection ~ 4850 1350
Wire Wire Line
	5450 1650 5450 1700
$Comp
L R R212
U 1 1 56363857
P 6350 3650
F 0 "R212" V 6400 3950 40  0000 C CNN
F 1 "N/F" V 6357 3651 40  0000 C CNN
F 2 "MyKiCadLibs-Footprints:SMD-0805" V 6280 3650 30  0001 C CNN
F 3 "~" H 6350 3650 30  0000 C CNN
	1    6350 3650
	-1   0    0    1   
$EndComp
$Comp
L R R210
U 1 1 5636385D
P 6000 3350
F 0 "R210" V 6050 3650 40  0000 C CNN
F 1 "0R" V 6007 3351 40  0000 C CNN
F 2 "MyKiCadLibs-Footprints:SMD-0805" V 5930 3350 30  0001 C CNN
F 3 "~" H 6000 3350 30  0000 C CNN
	1    6000 3350
	0    -1   -1   0   
$EndComp
$Comp
L GNDD #PWR012
U 1 1 56363863
P 6350 4150
F 0 "#PWR012" H 6350 3900 60  0001 C CNN
F 1 "GNDD" H 6350 4000 60  0000 C CNN
F 2 "" H 6350 4150 60  0000 C CNN
F 3 "" H 6350 4150 60  0000 C CNN
	1    6350 4150
	1    0    0    -1  
$EndComp
$Comp
L CONN_02X05 P203
U 1 1 56363869
P 5050 3150
F 0 "P203" H 5050 3450 50  0000 C CNN
F 1 "CONN_02X05" H 5050 2850 50  0000 C CNN
F 2 "MyKiCadLibs-Footprints:CONN_DIL_2X5_BOX" H 5050 1950 60  0001 C CNN
F 3 "" H 5050 1950 60  0000 C CNN
	1    5050 3150
	1    0    0    -1  
$EndComp
$Comp
L GNDD #PWR013
U 1 1 5636386F
P 5350 3400
F 0 "#PWR013" H 5350 3150 60  0001 C CNN
F 1 "GNDD" H 5350 3250 60  0000 C CNN
F 2 "" H 5350 3400 60  0000 C CNN
F 3 "" H 5350 3400 60  0000 C CNN
	1    5350 3400
	-1   0    0    -1  
$EndComp
$Comp
L GNDD #PWR014
U 1 1 56363875
P 4750 3400
F 0 "#PWR014" H 4750 3150 60  0001 C CNN
F 1 "GNDD" H 4750 3250 60  0000 C CNN
F 2 "" H 4750 3400 60  0000 C CNN
F 3 "" H 4750 3400 60  0000 C CNN
	1    4750 3400
	-1   0    0    -1  
$EndComp
Wire Wire Line
	5350 3350 5300 3350
Wire Wire Line
	5550 3350 5750 3350
Wire Wire Line
	5550 3250 5550 3350
Wire Wire Line
	5300 3250 5550 3250
Connection ~ 6350 3350
Wire Wire Line
	6250 3350 6550 3350
Wire Wire Line
	6350 3400 6350 3350
Wire Wire Line
	6350 3900 6350 4150
Wire Wire Line
	4750 2950 4750 3400
Wire Wire Line
	4750 3350 4800 3350
Wire Wire Line
	4750 3250 4800 3250
Connection ~ 4750 3350
Wire Wire Line
	4750 3150 4800 3150
Connection ~ 4750 3250
Wire Wire Line
	4750 3050 4800 3050
Connection ~ 4750 3150
Wire Wire Line
	4750 2950 4800 2950
Connection ~ 4750 3050
Wire Wire Line
	5350 3350 5350 3400
Text HLabel 3450 1350 2    59   Output ~ 0
LRCLK
Text HLabel 3450 1550 2    59   Output ~ 0
BCLK
Text HLabel 3450 1750 2    59   Output ~ 0
SDATA1
Text HLabel 3050 3500 2    59   Output ~ 0
SDATA2
Text HLabel 6650 1650 2    59   Output ~ 0
SDATA3
Text HLabel 6550 3350 2    59   Output ~ 0
SDATA4
$EndSCHEMATC
