EESchema Schematic File Version 2
LIBS:power
LIBS:MyKiCadLibs-Lib
LIBS:DAC-ADAU1966-16Channel-cache
EELAYER 25 0
EELAYER END
$Descr A3 16535 11693
encoding utf-8
Sheet 1 6
Title ""
Date ""
Rev ""
Comp ""
Comment1 ""
Comment2 ""
Comment3 ""
Comment4 ""
$EndDescr
$Sheet
S 2350 4900 1550 2400
U 5616730E
F0 "Connectors" 60
F1 "Connectors.sch" 60
F2 "I2C_SCL" B R 3900 5050 60 
F3 "I2C_SDA" B R 3900 5150 60 
F4 "RST" O R 3900 7250 60 
F5 "MCLK" O R 3900 6150 60 
F6 "SPI_MISO" I R 3900 5400 60 
F7 "SPI_SCLK" O R 3900 5300 60 
F8 "SPI_SS1" O R 3900 5600 60 
F9 "SPI_MOSI" O R 3900 5500 60 
F10 "SPI_SS2" O R 3900 5700 60 
F11 "SPI_SS4" O R 3900 5900 60 
F12 "SPI_SS5" O R 3900 6000 60 
F13 "SPI_SS3" O R 3900 5800 60 
F14 "LRCLK" O R 3900 6400 60 
F15 "BCLK" O R 3900 6500 60 
F16 "SDATA1" O R 3900 6600 60 
F17 "SDATA2" O R 3900 6700 60 
F18 "SDATA3" O R 3900 6800 60 
F19 "SDATA4" O R 3900 6900 60 
$EndSheet
$Sheet
S 2400 3300 1800 1050
U 562E6585
F0 "PowerSupply" 60
F1 "PowerSupply.sch" 60
$EndSheet
$Sheet
S 12500 1550 1400 1700
U 562F614F
F0 "AnalogueFiltersCh1-8" 60
F1 "AnalogueFiltersCh1-8.sch" 60
F2 "P1" I L 12500 1650 60 
F3 "N1" I L 12500 1750 60 
F4 "P2" I L 12500 1850 60 
F5 "N2" I L 12500 1950 60 
F6 "P3" I L 12500 2050 60 
F7 "N3" I L 12500 2150 60 
F8 "P4" I L 12500 2250 60 
F9 "N4" I L 12500 2350 60 
F10 "P5" I L 12500 2450 60 
F11 "N5" I L 12500 2550 60 
F12 "P6" I L 12500 2650 60 
F13 "N6" I L 12500 2750 60 
F14 "P7" I L 12500 2850 60 
F15 "N7" I L 12500 2950 60 
F16 "P8" I L 12500 3050 60 
F17 "N8" I L 12500 3150 60 
$EndSheet
$Sheet
S 8350 1700 2750 3350
U 563058AB
F0 "ADAU1966" 60
F1 "ADAU1966.sch" 60
F2 "DACOUT_LRCLK" I L 8350 1850 60 
F3 "DACOUT_BCLK" I L 8350 1950 60 
F4 "DACOUT_SDATA8" I L 8350 2750 60 
F5 "DACOUT_SDATA1" I L 8350 2050 60 
F6 "DACOUT_SDATA2" I L 8350 2150 60 
F7 "DACOUT_SDATA3" I L 8350 2250 60 
F8 "MCLK" I L 8350 2900 60 
F9 "MAN_RST_IN" I L 8350 4300 60 
F10 "DACOUT_SDATA4" I L 8350 2350 60 
F11 "DACOUT_SDATA5" I L 8350 2450 60 
F12 "DACOUT_SDATA6" I L 8350 2550 60 
F13 "DACOUT_SDATA7" I L 8350 2650 60 
F14 "DAC_SDA" B L 8350 3100 60 
F15 "DAC_SCL" B L 8350 3200 60 
F16 "DAC_SPI_DIN" I L 8350 3450 60 
F17 "DAC_SPI__CLK" I L 8350 3550 60 
F18 "DAC_SPI_DOUT" O L 8350 3650 60 
F19 "DAC_SPI_SS" I L 8350 3750 60 
F20 "OUT_1P" O R 11100 1800 60 
F21 "OUT_1N" O R 11100 1900 60 
F22 "OUT_2P" O R 11100 2000 60 
F23 "OUT_2N" O R 11100 2100 60 
F24 "OUT_3P" O R 11100 2200 60 
F25 "OUT_3N" O R 11100 2300 60 
F26 "OUT_4P" O R 11100 2400 60 
F27 "OUT_4N" O R 11100 2500 60 
F28 "OUT_5P" O R 11100 2600 60 
F29 "OUT_5N" O R 11100 2700 60 
F30 "OUT_6P" O R 11100 2800 60 
F31 "OUT_6N" O R 11100 2900 60 
F32 "OUT_7P" O R 11100 3000 60 
F33 "OUT_7N" O R 11100 3100 60 
F34 "OUT_8P" O R 11100 3200 60 
F35 "OUT_8N" O R 11100 3300 60 
F36 "OUT_9P" O R 11100 3400 60 
F37 "OUT_9N" O R 11100 3500 60 
F38 "OUT_10P" O R 11100 3600 60 
F39 "OUT_10N" O R 11100 3700 60 
F40 "OUT_11P" O R 11100 3800 60 
F41 "OUT_11N" O R 11100 3900 60 
F42 "OUT_12P" O R 11100 4000 60 
F43 "OUT_12N" O R 11100 4100 60 
F44 "OUT_13P" O R 11100 4200 60 
F45 "OUT_13N" O R 11100 4300 60 
F46 "OUT_14P" O R 11100 4400 60 
F47 "OUT_15P" O R 11100 4600 60 
F48 "OUT_14N" O R 11100 4500 60 
F49 "OUT_15N" O R 11100 4700 60 
F50 "OUT_16P" O R 11100 4800 60 
F51 "OUT_16N" O R 11100 4900 60 
$EndSheet
$Comp
L R R105
U 1 1 5637E815
P 4300 6000
F 0 "R105" V 4250 5700 40  0000 C CNN
F 1 "N/F" V 4307 6001 40  0000 C CNN
F 2 "MyKiCadLibs-Footprints:SMD-0805" V 4230 6000 30  0001 C CNN
F 3 "" H 4300 6000 30  0000 C CNN
	1    4300 6000
	0    1    1    0   
$EndComp
$Comp
L R R101
U 1 1 5637F331
P 4300 5600
F 0 "R101" V 4250 5300 40  0000 C CNN
F 1 "N/F" V 4307 5601 40  0000 C CNN
F 2 "MyKiCadLibs-Footprints:SMD-0805" V 4230 5600 30  0001 C CNN
F 3 "" H 4300 5600 30  0000 C CNN
	1    4300 5600
	0    1    1    0   
$EndComp
$Comp
L R R102
U 1 1 5637F4DF
P 4300 5700
F 0 "R102" V 4250 5400 40  0000 C CNN
F 1 "N/F" V 4307 5701 40  0000 C CNN
F 2 "MyKiCadLibs-Footprints:SMD-0805" V 4230 5700 30  0001 C CNN
F 3 "" H 4300 5700 30  0000 C CNN
	1    4300 5700
	0    1    1    0   
$EndComp
$Comp
L R R103
U 1 1 5637F690
P 4300 5800
F 0 "R103" V 4250 5500 40  0000 C CNN
F 1 "N/F" V 4307 5801 40  0000 C CNN
F 2 "MyKiCadLibs-Footprints:SMD-0805" V 4230 5800 30  0001 C CNN
F 3 "" H 4300 5800 30  0000 C CNN
	1    4300 5800
	0    1    1    0   
$EndComp
$Comp
L R R104
U 1 1 5637F844
P 4300 5900
F 0 "R104" V 4250 5600 40  0000 C CNN
F 1 "N/F" V 4307 5901 40  0000 C CNN
F 2 "MyKiCadLibs-Footprints:SMD-0805" V 4230 5900 30  0001 C CNN
F 3 "" H 4300 5900 30  0000 C CNN
	1    4300 5900
	0    1    1    0   
$EndComp
Text Label 4950 5600 2    59   ~ 0
SPI_SS
Text Label 7800 3750 0    59   ~ 0
SPI_SS
Text Label 4950 5500 2    59   ~ 0
SPI_MOSI
Text Label 4950 5400 2    59   ~ 0
SPI_MISO
Text Label 7800 3550 0    59   ~ 0
SPI_SCLK
Text Label 4950 5300 2    59   ~ 0
SPI_SCLK
Text Label 7800 3650 0    59   ~ 0
SPI_MISO
Text Label 7800 3450 0    59   ~ 0
SPI_MOSI
Text Label 4950 5150 2    59   ~ 0
I2C_SDA
Text Label 4950 5050 2    59   ~ 0
I2C_SCL
Text Label 7800 3200 0    59   ~ 0
I2C_SCL
Text Label 7800 3100 0    59   ~ 0
I2C_SDA
Text Label 4100 7250 2    59   ~ 0
RST
Text Label 7800 4300 0    59   ~ 0
RST
$Comp
L R R106
U 1 1 56386284
P 7850 2450
F 0 "R106" V 7800 2150 40  0000 C CNN
F 1 "N/F" V 7857 2451 40  0000 C CNN
F 2 "MyKiCadLibs-Footprints:SMD-0805" V 7780 2450 30  0001 C CNN
F 3 "" H 7850 2450 30  0000 C CNN
	1    7850 2450
	0    1    1    0   
$EndComp
$Comp
L R R107
U 1 1 5638646E
P 7850 2550
F 0 "R107" V 7800 2250 40  0000 C CNN
F 1 "N/F" V 7857 2551 40  0000 C CNN
F 2 "MyKiCadLibs-Footprints:SMD-0805" V 7780 2550 30  0001 C CNN
F 3 "" H 7850 2550 30  0000 C CNN
	1    7850 2550
	0    1    1    0   
$EndComp
$Comp
L GNDD #PWR01
U 1 1 5638700A
P 7350 2700
F 0 "#PWR01" H 7350 2450 50  0001 C CNN
F 1 "GNDD" H 7350 2550 50  0000 C CNN
F 2 "" H 7350 2700 60  0000 C CNN
F 3 "" H 7350 2700 60  0000 C CNN
	1    7350 2700
	1    0    0    -1  
$EndComp
Text Label 4350 6400 2    59   ~ 0
LRCLK
Text Label 4350 6500 2    59   ~ 0
BCLK
Text Label 4350 6600 2    59   ~ 0
SDATA1
Text Label 4350 6700 2    59   ~ 0
SDATA2
Text Label 4350 6800 2    59   ~ 0
SDATA3
Text Label 4350 6900 2    59   ~ 0
SDATA4
Text Label 7650 1850 0    59   ~ 0
LRCLK
Text Label 7650 1950 0    59   ~ 0
BCLK
Text Label 7650 2050 0    59   ~ 0
SDATA1
Text Label 7650 2150 0    59   ~ 0
SDATA2
Text Label 7650 2250 0    59   ~ 0
SDATA3
Text Label 7650 2350 0    59   ~ 0
SDATA4
Text Label 4350 6150 2    59   ~ 0
MCLK
Text Label 7800 2900 0    59   ~ 0
MCLK
$Sheet
S 12500 3450 1400 1700
U 5632B3EF
F0 "AnalogueFiltersCh9-16" 60
F1 "AnalogueFiltersCh9-16.sch" 60
F2 "P9" I L 12500 3550 60 
F3 "N9" I L 12500 3650 60 
F4 "P10" I L 12500 3750 60 
F5 "N10" I L 12500 3850 60 
F6 "P11" I L 12500 3950 60 
F7 "N11" I L 12500 4050 60 
F8 "P12" I L 12500 4150 60 
F9 "N12" I L 12500 4250 60 
F10 "P13" I L 12500 4350 60 
F11 "N13" I L 12500 4450 60 
F12 "P14" I L 12500 4550 60 
F13 "N14" I L 12500 4650 60 
F14 "P15" I L 12500 4750 60 
F15 "N15" I L 12500 4850 60 
F16 "P16" I L 12500 4950 60 
F17 "N16" I L 12500 5050 60 
$EndSheet
Wire Wire Line
	4050 6000 3900 6000
Wire Wire Line
	3900 5900 4050 5900
Wire Wire Line
	4050 5800 3900 5800
Wire Wire Line
	3900 5700 4050 5700
Wire Wire Line
	4050 5600 3900 5600
Wire Wire Line
	4600 6000 4550 6000
Wire Wire Line
	4600 5600 4600 6000
Wire Wire Line
	4550 5600 4950 5600
Wire Wire Line
	4550 5700 4600 5700
Connection ~ 4600 5700
Wire Wire Line
	4550 5800 4600 5800
Connection ~ 4600 5800
Wire Wire Line
	4550 5900 4600 5900
Connection ~ 4600 5900
Connection ~ 4600 5600
Wire Wire Line
	7800 3750 8350 3750
Wire Wire Line
	4950 5500 3900 5500
Wire Wire Line
	3900 5400 4950 5400
Wire Wire Line
	4950 5300 3900 5300
Wire Wire Line
	7800 3450 8350 3450
Wire Wire Line
	8350 3550 7800 3550
Wire Wire Line
	7800 3650 8350 3650
Wire Wire Line
	4950 5150 3900 5150
Wire Wire Line
	4950 5050 3900 5050
Wire Wire Line
	7800 3100 8350 3100
Wire Wire Line
	8350 3200 7800 3200
Wire Wire Line
	7800 4300 8350 4300
Wire Wire Line
	4100 7250 3900 7250
Wire Wire Line
	7350 2450 7350 2700
Wire Wire Line
	7350 2550 7600 2550
Wire Wire Line
	7350 2450 7600 2450
Connection ~ 7350 2550
Wire Wire Line
	8100 2450 8350 2450
Wire Wire Line
	8350 2550 8100 2550
Wire Wire Line
	7650 2350 8350 2350
Wire Wire Line
	8350 2250 7650 2250
Wire Wire Line
	7650 2150 8350 2150
Wire Wire Line
	8350 2050 7650 2050
Wire Wire Line
	7650 1950 8350 1950
Wire Wire Line
	8350 1850 7650 1850
Wire Wire Line
	4350 6150 3900 6150
Wire Wire Line
	4350 6400 3900 6400
Wire Wire Line
	3900 6500 4350 6500
Wire Wire Line
	4350 6600 3900 6600
Wire Wire Line
	3900 6700 4350 6700
Wire Wire Line
	4350 6800 3900 6800
Wire Wire Line
	3900 6900 4350 6900
Wire Wire Line
	7800 2900 8350 2900
Wire Wire Line
	11100 1800 11250 1800
Wire Wire Line
	11250 1800 11250 1650
Wire Wire Line
	11250 1650 12500 1650
Wire Wire Line
	12500 1750 11300 1750
Wire Wire Line
	11300 1750 11300 1900
Wire Wire Line
	11300 1900 11100 1900
Wire Wire Line
	11100 2000 11350 2000
Wire Wire Line
	11350 2000 11350 1850
Wire Wire Line
	11350 1850 12500 1850
Wire Wire Line
	11400 1950 12500 1950
Wire Wire Line
	11400 1950 11400 2100
Wire Wire Line
	11400 2100 11100 2100
Wire Wire Line
	11100 2200 11450 2200
Wire Wire Line
	11450 2200 11450 2050
Wire Wire Line
	11450 2050 12500 2050
Wire Wire Line
	12500 2150 11500 2150
Wire Wire Line
	11500 2150 11500 2300
Wire Wire Line
	11500 2300 11100 2300
Wire Wire Line
	11100 2400 11550 2400
Wire Wire Line
	11550 2400 11550 2250
Wire Wire Line
	11550 2250 12500 2250
Wire Wire Line
	12500 2350 11600 2350
Wire Wire Line
	11600 2350 11600 2500
Wire Wire Line
	11600 2500 11100 2500
Wire Wire Line
	11100 2600 11650 2600
Wire Wire Line
	11650 2600 11650 2450
Wire Wire Line
	11650 2450 12500 2450
Wire Wire Line
	12500 2550 11700 2550
Wire Wire Line
	11700 2550 11700 2700
Wire Wire Line
	11700 2700 11100 2700
Wire Wire Line
	11100 2800 11750 2800
Wire Wire Line
	11750 2800 11750 2650
Wire Wire Line
	11750 2650 12500 2650
Wire Wire Line
	12500 2750 11800 2750
Wire Wire Line
	11800 2750 11800 2900
Wire Wire Line
	11800 2900 11100 2900
Wire Wire Line
	11100 3000 11850 3000
Wire Wire Line
	11850 3000 11850 2850
Wire Wire Line
	11850 2850 12500 2850
Wire Wire Line
	12500 2950 11900 2950
Wire Wire Line
	11900 2950 11900 3100
Wire Wire Line
	11900 3100 11100 3100
Wire Wire Line
	11100 3200 11950 3200
Wire Wire Line
	11950 3200 11950 3050
Wire Wire Line
	11950 3050 12500 3050
Wire Wire Line
	12500 3150 12000 3150
Wire Wire Line
	12000 3150 12000 3300
Wire Wire Line
	12000 3300 11100 3300
Wire Wire Line
	11100 4900 11250 4900
Wire Wire Line
	11250 4900 11250 5050
Wire Wire Line
	11250 5050 12500 5050
Wire Wire Line
	11100 4800 11300 4800
Wire Wire Line
	11300 4800 11300 4950
Wire Wire Line
	11300 4950 12500 4950
Wire Wire Line
	12500 4850 11350 4850
Wire Wire Line
	11350 4850 11350 4700
Wire Wire Line
	11350 4700 11100 4700
Wire Wire Line
	11100 4600 11400 4600
Wire Wire Line
	11400 4600 11400 4750
Wire Wire Line
	11400 4750 12500 4750
Wire Wire Line
	12500 4650 11450 4650
Wire Wire Line
	11450 4650 11450 4500
Wire Wire Line
	11450 4500 11100 4500
Wire Wire Line
	11100 4400 11500 4400
Wire Wire Line
	11500 4400 11500 4550
Wire Wire Line
	11500 4550 12500 4550
Wire Wire Line
	12500 4450 11550 4450
Wire Wire Line
	11550 4450 11550 4300
Wire Wire Line
	11550 4300 11100 4300
Wire Wire Line
	11100 4200 11600 4200
Wire Wire Line
	11600 4200 11600 4350
Wire Wire Line
	11600 4350 12500 4350
Wire Wire Line
	12500 4250 11650 4250
Wire Wire Line
	11650 4250 11650 4100
Wire Wire Line
	11650 4100 11100 4100
Wire Wire Line
	11100 4000 11700 4000
Wire Wire Line
	11700 4000 11700 4150
Wire Wire Line
	11700 4150 12500 4150
Wire Wire Line
	12500 4050 11750 4050
Wire Wire Line
	11750 4050 11750 3900
Wire Wire Line
	11750 3900 11100 3900
Wire Wire Line
	11100 3800 11800 3800
Wire Wire Line
	11800 3800 11800 3950
Wire Wire Line
	11800 3950 12500 3950
Wire Wire Line
	12500 3850 11850 3850
Wire Wire Line
	11850 3850 11850 3700
Wire Wire Line
	11850 3700 11100 3700
Wire Wire Line
	11100 3600 11900 3600
Wire Wire Line
	11900 3600 11900 3750
Wire Wire Line
	11900 3750 12500 3750
Wire Wire Line
	12500 3650 11950 3650
Wire Wire Line
	11950 3650 11950 3500
Wire Wire Line
	11950 3500 11100 3500
Wire Wire Line
	11100 3400 12000 3400
Wire Wire Line
	12000 3400 12000 3550
Wire Wire Line
	12000 3550 12500 3550
$EndSCHEMATC
